<?xml version="1.0" encoding="UTF-8" standalone="no"?>
<!DOCTYPE svg PUBLIC "-//W3C//DTD SVG 1.1//EN"
 "http://www.w3.org/Graphics/SVG/1.1/DTD/svg11.dtd">
<!-- Generated by graphviz version 2.50.0 (20211204.2007)
 -->
<!-- Pages: 1 -->
<svg width="425pt" height="421pt"
 viewBox="0.00 0.00 425.00 421.00" xmlns="http://www.w3.org/2000/svg" xmlns:xlink="http://www.w3.org/1999/xlink">
<g id="graph0" class="graph" transform="scale(1 1) rotate(0) translate(36 385)">
<polygon fill="white" stroke="transparent" points="-36,36 -36,-385 389,-385 389,36 -36,36"/>
<!-- construct -->
<g id="node1" class="node">
<title>construct</title>
<ellipse fill="none" stroke="black" stroke-width="2" cx="187.61" cy="-184.56" rx="40.76" ry="40.76"/>
<text text-anchor="middle" x="187.61" y="-180.86" font-family="arial" font-size="14.00">Construct</text>
</g>
<!-- item1 -->
<g id="node2" class="node">
<title>item1</title>
<ellipse fill="#cccccc" stroke="black" stroke-width="2" cx="44.38" cy="-149.13" rx="44.3" ry="44.3"/>
<text text-anchor="middle" x="44.38" y="-152.93" font-family="arial" font-size="14.00">Score op</text>
<text text-anchor="middle" x="44.38" y="-137.93" font-family="arial" font-size="14.00">item 1</text>
</g>
<!-- construct&#45;&gt;item1 -->
<g id="edge1" class="edge">
<title>construct&#45;&gt;item1</title>
<path fill="none" stroke="black" stroke-width="2" d="M148.09,-174.78C132.31,-170.88 113.9,-166.33 97.02,-162.15"/>
<polygon fill="black" stroke="black" stroke-width="2" points="97.83,-158.75 87.28,-159.74 96.15,-165.54 97.83,-158.75"/>
</g>
<!-- item2 -->
<g id="node3" class="node">
<title>item2</title>
<ellipse fill="#cccccc" stroke="black" stroke-width="2" cx="139.85" cy="-43.8" rx="44.3" ry="44.3"/>
<text text-anchor="middle" x="139.85" y="-47.6" font-family="arial" font-size="14.00">Score op</text>
<text text-anchor="middle" x="139.85" y="-32.6" font-family="arial" font-size="14.00">item 2</text>
</g>
<!-- construct&#45;&gt;item2 -->
<g id="edge2" class="edge">
<title>construct&#45;&gt;item2</title>
<path fill="none" stroke="black" stroke-width="2" d="M174.43,-145.72C169.17,-130.21 163.03,-112.13 157.4,-95.53"/>
<polygon fill="black" stroke="black" stroke-width="2" points="160.68,-94.31 154.16,-85.96 154.06,-96.56 160.68,-94.31"/>
</g>
<!-- item3 -->
<g id="node4" class="node">
<title>item3</title>
<ellipse fill="#cccccc" stroke="black" stroke-width="2" cx="221.37" cy="-304.46" rx="44.3" ry="44.3"/>
<text text-anchor="middle" x="221.37" y="-308.26" font-family="arial" font-size="14.00">Score op</text>
<text text-anchor="middle" x="221.37" y="-293.26" font-family="arial" font-size="14.00">item 3</text>
</g>
<!-- construct&#45;&gt;item3 -->
<g id="edge3" class="edge">
<title>construct&#45;&gt;item3</title>
<path fill="none" stroke="black" stroke-width="2" d="M198.66,-223.82C201.2,-232.84 203.95,-242.58 206.62,-252.06"/>
<polygon fill="black" stroke="black" stroke-width="2" points="203.28,-253.13 209.36,-261.8 210.02,-251.23 203.28,-253.13"/>
</g>
<!-- item4 -->
<g id="node5" class="node">
<title>item4</title>
<ellipse fill="#cccccc" stroke="black" stroke-width="2" cx="308.43" cy="-208.16" rx="44.3" ry="44.3"/>
<text text-anchor="middle" x="308.43" y="-211.96" font-family="arial" font-size="14.00">Score op</text>
<text text-anchor="middle" x="308.43" y="-196.96" font-family="arial" font-size="14.00">item 4</text>
</g>
<!-- construct&#45;&gt;item4 -->
<g id="edge4" class="edge">
<title>construct&#45;&gt;item4</title>
<path fill="none" stroke="black" stroke-width="2" d="M227.5,-192.35C236.29,-194.07 245.73,-195.91 254.95,-197.72"/>
<polygon fill="black" stroke="black" stroke-width="2" points="254.34,-201.16 264.83,-199.65 255.68,-194.29 254.34,-201.16"/>
</g>
<!-- item5 -->
<g id="node6" class="node">
<title>item5</title>
<ellipse fill="#cccccc" stroke="black" stroke-width="2" cx="92.56" cy="-278.84" rx="44.3" ry="44.3"/>
<text text-anchor="middle" x="92.56" y="-282.64" font-family="arial" font-size="14.00">Score op</text>
<text text-anchor="middle" x="92.56" y="-267.64" font-family="arial" font-size="14.00">item 5</text>
</g>
<!-- construct&#45;&gt;item5 -->
<g id="edge5" class="edge">
<title>construct&#45;&gt;item5</title>
<path fill="none" stroke="black" stroke-width="2" d="M158.57,-213.36C149.96,-221.91 140.38,-231.41 131.26,-240.46"/>
<polygon fill="black" stroke="black" stroke-width="2" points="128.7,-238.07 124.06,-247.6 133.63,-243.04 128.7,-238.07"/>
</g>
<!-- item6 -->
<g id="node7" class="node">
<title>item6</title>
<ellipse fill="#cccccc" stroke="black" stroke-width="2" cx="272.65" cy="-82.46" rx="44.3" ry="44.3"/>
<text text-anchor="middle" x="272.65" y="-86.26" font-family="arial" font-size="14.00">Score op</text>
<text text-anchor="middle" x="272.65" y="-71.26" font-family="arial" font-size="14.00">item 6</text>
</g>
<!-- construct&#45;&gt;item6 -->
<g id="edge6" class="edge">
<title>construct&#45;&gt;item6</title>
<path fill="none" stroke="black" stroke-width="2" d="M213.82,-153.09C221.37,-144.03 229.72,-133.99 237.71,-124.4"/>
<polygon fill="black" stroke="black" stroke-width="2" points="240.6,-126.4 244.31,-116.48 235.22,-121.92 240.6,-126.4"/>
</g>
</g>
</svg>
