<?xml version="1.0" encoding="UTF-8" standalone="no"?>
<!DOCTYPE svg PUBLIC "-//W3C//DTD SVG 1.1//EN"
 "http://www.w3.org/Graphics/SVG/1.1/DTD/svg11.dtd">
<!-- Generated by graphviz version 2.50.0 (20211204.2007)
 -->
<!-- Pages: 1 -->
<svg width="616pt" height="699pt"
 viewBox="0.00 0.00 616.50 698.50" xmlns="http://www.w3.org/2000/svg" xmlns:xlink="http://www.w3.org/1999/xlink">
<g id="graph0" class="graph" transform="scale(1 1) rotate(0) translate(7.2 691.3)">
<polygon fill="white" stroke="transparent" points="-7.2,7.2 -7.2,-691.3 609.3,-691.3 609.3,7.2 -7.2,7.2"/>
<!-- construct -->
<g id="node1" class="node">
<title>construct</title>
<ellipse fill="none" stroke="black" stroke-width="2" cx="301.05" cy="-342.05" rx="40.76" ry="40.76"/>
<text text-anchor="middle" x="301.05" y="-338.35" font-family="arial" font-size="14.00">Construct</text>
</g>
<!-- item1 -->
<g id="node2" class="node">
<title>item1</title>
<ellipse fill="#cccccc" stroke="black" stroke-width="2" cx="433.57" cy="-418.57" rx="62.03" ry="62.03"/>
<text text-anchor="middle" x="433.57" y="-414.87" font-family="arial" font-size="14.00">Score op item 1</text>
</g>
<!-- construct&#45;&gt;item1 -->
<g id="edge1" class="edge">
<title>construct&#45;&gt;item1</title>
<path fill="none" stroke="black" stroke-width="2" d="M336.56,-362.56C347.07,-368.62 358.91,-375.46 370.6,-382.21"/>
<polygon fill="black" stroke="black" stroke-width="2" points="369.09,-385.38 379.5,-387.34 372.59,-379.31 369.09,-385.38"/>
</g>
<!-- item2 -->
<g id="node3" class="node">
<title>item2</title>
<ellipse fill="#cccccc" stroke="black" stroke-width="2" cx="301.05" cy="-495.08" rx="62.03" ry="62.03"/>
<text text-anchor="middle" x="301.05" y="-491.38" font-family="arial" font-size="14.00">Score op item 2</text>
</g>
<!-- construct&#45;&gt;item2 -->
<g id="edge2" class="edge">
<title>construct&#45;&gt;item2</title>
<path fill="none" stroke="black" stroke-width="2" d="M301.05,-383.06C301.05,-395.19 301.05,-408.86 301.05,-422.37"/>
<polygon fill="black" stroke="black" stroke-width="2" points="297.55,-422.64 301.05,-432.64 304.55,-422.64 297.55,-422.64"/>
</g>
<!-- item3 -->
<g id="node4" class="node">
<title>item3</title>
<ellipse fill="#cccccc" stroke="black" stroke-width="2" cx="168.52" cy="-418.57" rx="62.03" ry="62.03"/>
<text text-anchor="middle" x="168.52" y="-414.87" font-family="arial" font-size="14.00">Score op item 3</text>
</g>
<!-- construct&#45;&gt;item3 -->
<g id="edge3" class="edge">
<title>construct&#45;&gt;item3</title>
<path fill="none" stroke="black" stroke-width="2" d="M265.53,-362.56C255.03,-368.62 243.19,-375.46 231.49,-382.21"/>
<polygon fill="black" stroke="black" stroke-width="2" points="229.51,-379.31 222.6,-387.34 233.01,-385.38 229.51,-379.31"/>
</g>
<!-- item4 -->
<g id="node5" class="node">
<title>item4</title>
<ellipse fill="#cccccc" stroke="black" stroke-width="2" cx="168.52" cy="-265.54" rx="62.03" ry="62.03"/>
<text text-anchor="middle" x="168.52" y="-261.84" font-family="arial" font-size="14.00">Score op item 4</text>
</g>
<!-- construct&#45;&gt;item4 -->
<g id="edge4" class="edge">
<title>construct&#45;&gt;item4</title>
<path fill="none" stroke="black" stroke-width="2" d="M265.53,-321.55C255.03,-315.48 243.19,-308.65 231.49,-301.89"/>
<polygon fill="black" stroke="black" stroke-width="2" points="233.01,-298.73 222.6,-296.76 229.51,-304.79 233.01,-298.73"/>
</g>
<!-- item5 -->
<g id="node6" class="node">
<title>item5</title>
<ellipse fill="#cccccc" stroke="black" stroke-width="2" cx="301.05" cy="-189.03" rx="62.03" ry="62.03"/>
<text text-anchor="middle" x="301.05" y="-185.33" font-family="arial" font-size="14.00">Score op item 5</text>
</g>
<!-- construct&#45;&gt;item5 -->
<g id="edge5" class="edge">
<title>construct&#45;&gt;item5</title>
<path fill="none" stroke="black" stroke-width="2" d="M301.05,-301.04C301.05,-288.91 301.05,-275.24 301.05,-261.74"/>
<polygon fill="black" stroke="black" stroke-width="2" points="304.55,-261.47 301.05,-251.47 297.55,-261.47 304.55,-261.47"/>
</g>
<!-- item6 -->
<g id="node7" class="node">
<title>item6</title>
<ellipse fill="#cccccc" stroke="black" stroke-width="2" cx="433.57" cy="-265.54" rx="62.03" ry="62.03"/>
<text text-anchor="middle" x="433.57" y="-261.84" font-family="arial" font-size="14.00">Score op item 6</text>
</g>
<!-- construct&#45;&gt;item6 -->
<g id="edge6" class="edge">
<title>construct&#45;&gt;item6</title>
<path fill="none" stroke="black" stroke-width="2" d="M336.56,-321.55C347.07,-315.48 358.91,-308.65 370.6,-301.89"/>
<polygon fill="black" stroke="black" stroke-width="2" points="372.59,-304.79 379.5,-296.76 369.09,-298.73 372.59,-304.79"/>
</g>
<!-- error1 -->
<g id="node8" class="node">
<title>error1</title>
<ellipse fill="#555555" stroke="black" stroke-width="2" cx="566.1" cy="-495.08" rx="36" ry="36"/>
<text text-anchor="middle" x="566.1" y="-491.38" font-family="arial" font-size="14.00" fill="white">Error 1</text>
</g>
<!-- error1&#45;&gt;item1 -->
<g id="edge7" class="edge">
<title>error1&#45;&gt;item1</title>
<path fill="none" stroke="black" stroke-width="2" d="M534.69,-476.95C523.14,-470.28 509.61,-462.46 496.27,-454.76"/>
<polygon fill="black" stroke="black" stroke-width="2" points="497.97,-451.7 487.56,-449.73 494.47,-457.77 497.97,-451.7"/>
</g>
<!-- error2 -->
<g id="node9" class="node">
<title>error2</title>
<ellipse fill="#555555" stroke="black" stroke-width="2" cx="301.05" cy="-648.1" rx="36" ry="36"/>
<text text-anchor="middle" x="301.05" y="-644.4" font-family="arial" font-size="14.00" fill="white">Error 2</text>
</g>
<!-- error2&#45;&gt;item2 -->
<g id="edge8" class="edge">
<title>error2&#45;&gt;item2</title>
<path fill="none" stroke="black" stroke-width="2" d="M301.05,-611.84C301.05,-598.5 301.05,-582.88 301.05,-567.48"/>
<polygon fill="black" stroke="black" stroke-width="2" points="304.55,-567.42 301.05,-557.42 297.55,-567.42 304.55,-567.42"/>
</g>
<!-- error3 -->
<g id="node10" class="node">
<title>error3</title>
<ellipse fill="#555555" stroke="black" stroke-width="2" cx="36" cy="-495.08" rx="36" ry="36"/>
<text text-anchor="middle" x="36" y="-491.38" font-family="arial" font-size="14.00" fill="white">Error 3</text>
</g>
<!-- error3&#45;&gt;item3 -->
<g id="edge9" class="edge">
<title>error3&#45;&gt;item3</title>
<path fill="none" stroke="black" stroke-width="2" d="M67.41,-476.95C78.96,-470.28 92.49,-462.46 105.82,-454.76"/>
<polygon fill="black" stroke="black" stroke-width="2" points="107.63,-457.77 114.54,-449.73 104.13,-451.7 107.63,-457.77"/>
</g>
<!-- error4 -->
<g id="node11" class="node">
<title>error4</title>
<ellipse fill="#555555" stroke="black" stroke-width="2" cx="36" cy="-189.03" rx="36" ry="36"/>
<text text-anchor="middle" x="36" y="-185.33" font-family="arial" font-size="14.00" fill="white">Error 4</text>
</g>
<!-- error4&#45;&gt;item4 -->
<g id="edge10" class="edge">
<title>error4&#45;&gt;item4</title>
<path fill="none" stroke="black" stroke-width="2" d="M67.41,-207.16C78.96,-213.83 92.49,-221.64 105.82,-229.34"/>
<polygon fill="black" stroke="black" stroke-width="2" points="104.13,-232.4 114.54,-234.37 107.63,-226.34 104.13,-232.4"/>
</g>
<!-- error5 -->
<g id="node12" class="node">
<title>error5</title>
<ellipse fill="#555555" stroke="black" stroke-width="2" cx="301.05" cy="-36" rx="36" ry="36"/>
<text text-anchor="middle" x="301.05" y="-32.3" font-family="arial" font-size="14.00" fill="white">Error 5</text>
</g>
<!-- error5&#45;&gt;item5 -->
<g id="edge11" class="edge">
<title>error5&#45;&gt;item5</title>
<path fill="none" stroke="black" stroke-width="2" d="M301.05,-72.27C301.05,-85.61 301.05,-101.23 301.05,-116.63"/>
<polygon fill="black" stroke="black" stroke-width="2" points="297.55,-116.69 301.05,-126.69 304.55,-116.69 297.55,-116.69"/>
</g>
<!-- error6 -->
<g id="node13" class="node">
<title>error6</title>
<ellipse fill="#555555" stroke="black" stroke-width="2" cx="566.1" cy="-189.03" rx="36" ry="36"/>
<text text-anchor="middle" x="566.1" y="-185.33" font-family="arial" font-size="14.00" fill="white">Error 6</text>
</g>
<!-- error6&#45;&gt;item6 -->
<g id="edge12" class="edge">
<title>error6&#45;&gt;item6</title>
<path fill="none" stroke="black" stroke-width="2" d="M534.69,-207.16C523.14,-213.83 509.61,-221.64 496.27,-229.34"/>
<polygon fill="black" stroke="black" stroke-width="2" points="494.47,-226.34 487.56,-234.37 497.97,-232.4 494.47,-226.34"/>
</g>
</g>
</svg>
