<?xml version="1.0" encoding="UTF-8" standalone="no"?>
<!DOCTYPE svg PUBLIC "-//W3C//DTD SVG 1.1//EN"
 "http://www.w3.org/Graphics/SVG/1.1/DTD/svg11.dtd">
<!-- Generated by graphviz version 2.50.0 (20211204.2007)
 -->
<!-- Pages: 1 -->
<svg width="317pt" height="536pt"
 viewBox="0.00 0.00 317.22 536.40" xmlns="http://www.w3.org/2000/svg" xmlns:xlink="http://www.w3.org/1999/xlink">
<g id="graph0" class="graph" transform="scale(1 1) rotate(0) translate(7.2 529.2)">
<polygon fill="white" stroke="transparent" points="-7.2,7.2 -7.2,-529.2 310.02,-529.2 310.02,7.2 -7.2,7.2"/>
<!-- construct1 -->
<g id="node1" class="node">
<title>construct1</title>
<ellipse fill="none" stroke="black" stroke-width="2" cx="36.41" cy="-339" rx="36.32" ry="36.32"/>
<text text-anchor="middle" x="36.41" y="-335.3" font-family="arial" font-size="14.00">Factor 1</text>
</g>
<!-- construct2 -->
<g id="node2" class="node">
<title>construct2</title>
<ellipse fill="none" stroke="black" stroke-width="2" cx="36.41" cy="-195" rx="36.32" ry="36.32"/>
<text text-anchor="middle" x="36.41" y="-191.3" font-family="arial" font-size="14.00">Factor 2</text>
</g>
<!-- construct1&#45;&gt;construct2 -->
<g id="edge13" class="edge">
<title>construct1&#45;&gt;construct2</title>
<path fill="none" stroke="black" stroke-width="2" d="M36.41,-292.11C36.41,-276.03 36.41,-258.05 36.41,-241.97"/>
<polygon fill="black" stroke="black" stroke-width="2" points="32.91,-292.36 36.41,-302.36 39.91,-292.36 32.91,-292.36"/>
<polygon fill="black" stroke="black" stroke-width="2" points="39.91,-241.71 36.41,-231.71 32.91,-241.71 39.91,-241.71"/>
<text text-anchor="middle" x="25.91" y="-263.3" font-family="Times New Roman,serif" font-size="14.00">r12</text>
</g>
<!-- item3 -->
<g id="node5" class="node">
<title>item3</title>
<ellipse fill="#cccccc" stroke="black" stroke-width="2" cx="157.82" cy="-486" rx="36" ry="36"/>
<text text-anchor="middle" x="157.82" y="-482.3" font-family="arial" font-size="14.00">item 3</text>
</g>
<!-- construct1&#45;&gt;item3 -->
<g id="edge3" class="edge">
<title>construct1&#45;&gt;item3</title>
<path fill="none" stroke="black" stroke-width="2" d="M60.15,-367C79.32,-390.6 106.88,-424.52 127.67,-450.12"/>
<polygon fill="black" stroke="black" stroke-width="2" points="125.14,-452.55 134.16,-458.11 130.57,-448.14 125.14,-452.55"/>
<text text-anchor="middle" x="97.32" y="-419.8" font-family="Times New Roman,serif" font-size="14.00">a3</text>
</g>
<!-- item4 -->
<g id="node6" class="node">
<title>item4</title>
<ellipse fill="#cccccc" stroke="black" stroke-width="2" cx="157.82" cy="-396" rx="36" ry="36"/>
<text text-anchor="middle" x="157.82" y="-392.3" font-family="arial" font-size="14.00">item 4</text>
</g>
<!-- construct1&#45;&gt;item4 -->
<g id="edge4" class="edge">
<title>construct1&#45;&gt;item4</title>
<path fill="none" stroke="black" stroke-width="2" d="M69.72,-354.43C83.91,-361.2 100.72,-369.22 115.78,-376.41"/>
<polygon fill="black" stroke="black" stroke-width="2" points="114.36,-379.61 124.89,-380.76 117.37,-373.29 114.36,-379.61"/>
<text text-anchor="middle" x="97.32" y="-372.8" font-family="Times New Roman,serif" font-size="14.00">a4</text>
</g>
<!-- item5 -->
<g id="node7" class="node">
<title>item5</title>
<ellipse fill="#cccccc" stroke="black" stroke-width="2" cx="157.82" cy="-306" rx="36" ry="36"/>
<text text-anchor="middle" x="157.82" y="-302.3" font-family="arial" font-size="14.00">item 5</text>
</g>
<!-- construct1&#45;&gt;item5 -->
<g id="edge5" class="edge">
<title>construct1&#45;&gt;item5</title>
<path fill="none" stroke="black" stroke-width="2" d="M71.62,-329.54C84.6,-325.96 99.56,-321.82 113.28,-318.03"/>
<polygon fill="black" stroke="black" stroke-width="2" points="114.3,-321.38 123.01,-315.34 112.43,-314.63 114.3,-321.38"/>
<text text-anchor="middle" x="97.32" y="-326.8" font-family="Times New Roman,serif" font-size="14.00">a5</text>
</g>
<!-- item1 -->
<g id="node3" class="node">
<title>item1</title>
<ellipse fill="#cccccc" stroke="black" stroke-width="2" cx="157.82" cy="-216" rx="36" ry="36"/>
<text text-anchor="middle" x="157.82" y="-212.3" font-family="arial" font-size="14.00">item 1</text>
</g>
<!-- construct2&#45;&gt;item1 -->
<g id="edge1" class="edge">
<title>construct2&#45;&gt;item1</title>
<path fill="none" stroke="black" stroke-width="2" d="M72.59,-201.19C84.96,-203.36 99.04,-205.84 112.1,-208.14"/>
<polygon fill="black" stroke="black" stroke-width="2" points="111.84,-211.64 122.3,-209.93 113.05,-204.75 111.84,-211.64"/>
<text text-anchor="middle" x="97.32" y="-209.8" font-family="Times New Roman,serif" font-size="14.00">a1</text>
</g>
<!-- item2 -->
<g id="node4" class="node">
<title>item2</title>
<ellipse fill="#cccccc" stroke="black" stroke-width="2" cx="157.82" cy="-126" rx="36" ry="36"/>
<text text-anchor="middle" x="157.82" y="-122.3" font-family="arial" font-size="14.00">item 2</text>
</g>
<!-- construct2&#45;&gt;item2 -->
<g id="edge2" class="edge">
<title>construct2&#45;&gt;item2</title>
<path fill="none" stroke="black" stroke-width="2" d="M68.47,-177.05C83.37,-168.44 101.4,-158.02 117.27,-148.85"/>
<polygon fill="black" stroke="black" stroke-width="2" points="119.42,-151.65 126.32,-143.62 115.91,-145.59 119.42,-151.65"/>
<text text-anchor="middle" x="97.32" y="-165.8" font-family="Times New Roman,serif" font-size="14.00">a2</text>
</g>
<!-- item6 -->
<g id="node8" class="node">
<title>item6</title>
<ellipse fill="#cccccc" stroke="black" stroke-width="2" cx="157.82" cy="-36" rx="36" ry="36"/>
<text text-anchor="middle" x="157.82" y="-32.3" font-family="arial" font-size="14.00">item 6</text>
</g>
<!-- construct2&#45;&gt;item6 -->
<g id="edge6" class="edge">
<title>construct2&#45;&gt;item6</title>
<path fill="none" stroke="black" stroke-width="2" d="M58.73,-165.81C75.68,-142.69 100.08,-109.64 121.82,-81 124.04,-78.07 126.36,-75.04 128.69,-72"/>
<polygon fill="black" stroke="black" stroke-width="2" points="131.53,-74.06 134.87,-64.01 125.99,-69.78 131.53,-74.06"/>
<text text-anchor="middle" x="97.32" y="-124.8" font-family="Times New Roman,serif" font-size="14.00">a6</text>
</g>
<!-- error1 -->
<g id="node9" class="node">
<title>error1</title>
<ellipse fill="#555555" stroke="black" stroke-width="2" cx="266.82" cy="-216" rx="36" ry="36"/>
<text text-anchor="middle" x="266.82" y="-212.3" font-family="arial" font-size="14.00" fill="white">Error 1</text>
</g>
<!-- error1&#45;&gt;item1 -->
<g id="edge7" class="edge">
<title>error1&#45;&gt;item1</title>
<path fill="none" stroke="black" stroke-width="2" d="M230.7,-216C222.2,-216 212.99,-216 204.09,-216"/>
<polygon fill="black" stroke="black" stroke-width="2" points="203.85,-212.5 193.85,-216 203.85,-219.5 203.85,-212.5"/>
</g>
<!-- error2 -->
<g id="node10" class="node">
<title>error2</title>
<ellipse fill="#555555" stroke="black" stroke-width="2" cx="266.82" cy="-126" rx="36" ry="36"/>
<text text-anchor="middle" x="266.82" y="-122.3" font-family="arial" font-size="14.00" fill="white">Error 2</text>
</g>
<!-- error2&#45;&gt;item2 -->
<g id="edge8" class="edge">
<title>error2&#45;&gt;item2</title>
<path fill="none" stroke="black" stroke-width="2" d="M230.7,-126C222.2,-126 212.99,-126 204.09,-126"/>
<polygon fill="black" stroke="black" stroke-width="2" points="203.85,-122.5 193.85,-126 203.85,-129.5 203.85,-122.5"/>
</g>
<!-- error3 -->
<g id="node11" class="node">
<title>error3</title>
<ellipse fill="#555555" stroke="black" stroke-width="2" cx="266.82" cy="-486" rx="36" ry="36"/>
<text text-anchor="middle" x="266.82" y="-482.3" font-family="arial" font-size="14.00" fill="white">Error 3</text>
</g>
<!-- error3&#45;&gt;item3 -->
<g id="edge9" class="edge">
<title>error3&#45;&gt;item3</title>
<path fill="none" stroke="black" stroke-width="2" d="M230.7,-486C222.2,-486 212.99,-486 204.09,-486"/>
<polygon fill="black" stroke="black" stroke-width="2" points="203.85,-482.5 193.85,-486 203.85,-489.5 203.85,-482.5"/>
</g>
<!-- error4 -->
<g id="node12" class="node">
<title>error4</title>
<ellipse fill="#555555" stroke="black" stroke-width="2" cx="266.82" cy="-396" rx="36" ry="36"/>
<text text-anchor="middle" x="266.82" y="-392.3" font-family="arial" font-size="14.00" fill="white">Error 4</text>
</g>
<!-- error4&#45;&gt;item4 -->
<g id="edge10" class="edge">
<title>error4&#45;&gt;item4</title>
<path fill="none" stroke="black" stroke-width="2" d="M230.7,-396C222.2,-396 212.99,-396 204.09,-396"/>
<polygon fill="black" stroke="black" stroke-width="2" points="203.85,-392.5 193.85,-396 203.85,-399.5 203.85,-392.5"/>
</g>
<!-- error5 -->
<g id="node13" class="node">
<title>error5</title>
<ellipse fill="#555555" stroke="black" stroke-width="2" cx="266.82" cy="-306" rx="36" ry="36"/>
<text text-anchor="middle" x="266.82" y="-302.3" font-family="arial" font-size="14.00" fill="white">Error 5</text>
</g>
<!-- error5&#45;&gt;item5 -->
<g id="edge11" class="edge">
<title>error5&#45;&gt;item5</title>
<path fill="none" stroke="black" stroke-width="2" d="M230.7,-306C222.2,-306 212.99,-306 204.09,-306"/>
<polygon fill="black" stroke="black" stroke-width="2" points="203.85,-302.5 193.85,-306 203.85,-309.5 203.85,-302.5"/>
</g>
<!-- error6 -->
<g id="node14" class="node">
<title>error6</title>
<ellipse fill="#555555" stroke="black" stroke-width="2" cx="266.82" cy="-36" rx="36" ry="36"/>
<text text-anchor="middle" x="266.82" y="-32.3" font-family="arial" font-size="14.00" fill="white">Error 6</text>
</g>
<!-- error6&#45;&gt;item6 -->
<g id="edge12" class="edge">
<title>error6&#45;&gt;item6</title>
<path fill="none" stroke="black" stroke-width="2" d="M230.7,-36C222.2,-36 212.99,-36 204.09,-36"/>
<polygon fill="black" stroke="black" stroke-width="2" points="203.85,-32.5 193.85,-36 203.85,-39.5 203.85,-32.5"/>
</g>
</g>
</svg>
