\babel@toc {dutch}{}\relax 
\contentsline {chapter}{Over dit boek}{15}{chapter*.2}%
\contentsline {section}{In ontwikkeling}{16}{section*.3}%
\contentsline {section}{Gerelateerde open source bronnen}{16}{section*.4}%
\contentsline {section}{Andere bronnen}{16}{section*.5}%
\contentsline {section}{Licentie en colofon}{16}{section*.6}%
\contentsline {part}{I\hspace {1em}Introductie}{17}{part.1}%
\contentsline {chapter}{\numberline {1}Wetenschap}{19}{chapter.1}%
\contentsline {section}{\numberline {1.1}Inleiding}{19}{section.1.1}%
\contentsline {section}{\numberline {1.2}Ontologie en epistemologie}{19}{section.1.2}%
\contentsline {section}{\numberline {1.3}Empirie en theorie}{20}{section.1.3}%
\contentsline {section}{\numberline {1.4}Fundamenteel en toegepast onderzoek}{21}{section.1.4}%
\contentsline {section}{\numberline {1.5}Technologie}{21}{section.1.5}%
\contentsline {chapter}{\numberline {2}Psychologie}{23}{chapter.2}%
\contentsline {section}{\numberline {2.1}Inleiding}{23}{section.2.1}%
\contentsline {section}{\numberline {2.2}Abstracte patronen herkennen}{24}{section.2.2}%
\contentsline {section}{\numberline {2.3}De complexe mens in een complexe wereld}{25}{section.2.3}%
\contentsline {section}{\numberline {2.4}Psychologische technologie}{26}{section.2.4}%
\contentsline {section}{\numberline {2.5}Wetenschappelijk onderzoek in de psychologie}{26}{section.2.5}%
\contentsline {chapter}{\numberline {3}Constructen}{29}{chapter.3}%
\contentsline {section}{\numberline {3.1}Inleiding}{29}{section.3.1}%
\contentsline {section}{\numberline {3.2}Soorten: vier perspectieven op constructen}{30}{section.3.2}%
\contentsline {section}{\numberline {3.3}Wat zijn psychologische constructen?}{30}{section.3.3}%
\contentsline {section}{\numberline {3.4}Een metafoor om over constructen na te denken}{31}{section.3.4}%
\contentsline {section}{\numberline {3.5}Operationaliseren versus meten}{34}{section.3.5}%
\contentsline {section}{\numberline {3.6}Wat is een item?}{35}{section.3.6}%
\contentsline {section}{\numberline {3.7}Validiteit en betrouwbaarheid van items}{36}{section.3.7}%
\contentsline {section}{\numberline {3.8}Meerdere items: meetmodellen}{37}{section.3.8}%
\contentsline {section}{\numberline {3.9}Itemscores samenvoegen}{41}{section.3.9}%
\contentsline {section}{\numberline {3.10}Validiteit en betrouwbaarheid van meetinstrumenten}{42}{section.3.10}%
\contentsline {chapter}{\numberline {4}Modellen}{43}{chapter.4}%
\contentsline {section}{\numberline {4.1}Inleiding}{43}{section.4.1}%
\contentsline {section}{\numberline {4.2}Bouwstenen van een model}{43}{section.4.2}%
\contentsline {section}{\numberline {4.3}Soorten modellen}{44}{section.4.3}%
\contentsline {subsection}{\numberline {4.3.1}Conceptuele modellen (theoretisch)}{44}{subsection.4.3.1}%
\contentsline {subsection}{\numberline {4.3.2}Structurele modellen (statistisch)}{44}{subsection.4.3.2}%
\contentsline {subsection}{\numberline {4.3.3}DAGs: directed acylic graphs}{46}{subsection.4.3.3}%
\contentsline {part}{II\hspace {1em}Methodologie}{47}{part.2}%
\contentsline {chapter}{\numberline {5}Populaties en steekproeven}{49}{chapter.5}%
\contentsline {section}{\numberline {5.1}Inleiding}{49}{section.5.1}%
\contentsline {section}{\numberline {5.2}Populaties}{49}{section.5.2}%
\contentsline {section}{\numberline {5.3}Steekproeven}{50}{section.5.3}%
\contentsline {subsection}{\numberline {5.3.1}Probability samples}{50}{subsection.5.3.1}%
\contentsline {subsection}{\numberline {5.3.2}Non-probaility samples}{51}{subsection.5.3.2}%
\contentsline {subsection}{\numberline {5.3.3}Wanneer welk soort steekproef?}{52}{subsection.5.3.3}%
\contentsline {chapter}{\numberline {6}Causaliteit}{53}{chapter.6}%
\contentsline {section}{\numberline {6.1}De definitie van causaliteit}{53}{section.6.1}%
\contentsline {section}{\numberline {6.2}Correlatie impliceert geen causatie}{54}{section.6.2}%
\contentsline {section}{\numberline {6.3}Het pure experiment}{54}{section.6.3}%
\contentsline {subsection}{\numberline {6.3.1}Randomisatie}{55}{subsection.6.3.1}%
\contentsline {section}{\numberline {6.4}Als een experiment onmogelijk is}{55}{section.6.4}%
\contentsline {chapter}{\numberline {7}Experimentele designs}{57}{chapter.7}%
\contentsline {section}{\numberline {7.1}Inleiding}{57}{section.7.1}%
\contentsline {subsection}{\numberline {7.1.1}Controlegroepen}{58}{subsection.7.1.1}%
\contentsline {subsection}{\numberline {7.1.2}Mill's methode}{58}{subsection.7.1.2}%
\contentsline {subsection}{\numberline {7.1.3}Invulling van de controlegroep/-conditie}{59}{subsection.7.1.3}%
\contentsline {section}{\numberline {7.2}Typen experimentele ontwerpen}{59}{section.7.2}%
\contentsline {section}{\numberline {7.3}Volledig gerandomiseerd ontwerp versus quasi-experiment}{60}{section.7.3}%
\contentsline {subsection}{\numberline {7.3.1}Randomisatie}{60}{subsection.7.3.1}%
\contentsline {subsection}{\numberline {7.3.2}Quasi-experiment}{60}{subsection.7.3.2}%
\contentsline {subsection}{\numberline {7.3.3}Gedeeltelijk randomiseren}{61}{subsection.7.3.3}%
\contentsline {subsubsection}{\numberline {7.3.3.1}Experimentele controle}{61}{subsubsection.7.3.3.1}%
\contentsline {subsection}{\numberline {7.3.4}Het blokontwerp}{61}{subsection.7.3.4}%
\contentsline {subsection}{\numberline {7.3.5}Matchen en homogeniseren}{62}{subsection.7.3.5}%
\contentsline {subsubsection}{\numberline {7.3.5.1}Matchen}{62}{subsubsection.7.3.5.1}%
\contentsline {subsubsection}{\numberline {7.3.5.2}Homogeniseren}{63}{subsubsection.7.3.5.2}%
\contentsline {section}{\numberline {7.4}Between-subjects versus within-subjects designs}{63}{section.7.4}%
\contentsline {section}{\numberline {7.5}Voorbeelden van experimentele designs}{64}{section.7.5}%
\contentsline {subsection}{\numberline {7.5.1}Symbolische notatie van experimentele designs}{64}{subsection.7.5.1}%
\contentsline {subsection}{\numberline {7.5.2}Pre-experimentele designs}{65}{subsection.7.5.2}%
\contentsline {subsubsection}{\numberline {7.5.2.1}One shot case study}{65}{subsubsection.7.5.2.1}%
\contentsline {subsubsection}{\numberline {7.5.2.2}One-group pre-post design}{65}{subsubsection.7.5.2.2}%
\contentsline {subsubsection}{\numberline {7.5.2.3}Pre-experimenteeel bestaande groepen nameting only}{65}{subsubsection.7.5.2.3}%
\contentsline {subsection}{\numberline {7.5.3}Gerandomiseerde experimenten}{66}{subsection.7.5.3}%
\contentsline {subsubsection}{\numberline {7.5.3.1}Posttest-only control (alleen nameting met controlegroep)}{66}{subsubsection.7.5.3.1}%
\contentsline {subsubsection}{\numberline {7.5.3.2}Pretest-posttest control design (voor- en nameting met controlegroep)}{67}{subsubsection.7.5.3.2}%
\contentsline {subsubsection}{\numberline {7.5.3.3}Solomon vier-groependesign}{67}{subsubsection.7.5.3.3}%
\contentsline {subsection}{\numberline {7.5.4}Quasi-experimentele proefopzetten}{68}{subsection.7.5.4}%
\contentsline {subsubsection}{\numberline {7.5.4.1}quasi-experimenteel pretest-posttest control design}{68}{subsubsection.7.5.4.1}%
\contentsline {subsection}{\numberline {7.5.5}Longitudinale designs}{69}{subsection.7.5.5}%
\contentsline {subsubsection}{\numberline {7.5.5.1}Enkelvoudige tijdreeks}{69}{subsubsection.7.5.5.1}%
\contentsline {subsubsection}{\numberline {7.5.5.2}Meervoudige tijdreeks}{70}{subsubsection.7.5.5.2}%
\contentsline {section}{\numberline {7.6}Manipulatiechecks}{71}{section.7.6}%
\contentsline {subsection}{\numberline {7.6.1}Wat zijn manipulatiechecks?}{71}{subsection.7.6.1}%
\contentsline {subsection}{\numberline {7.6.2}Waarom een manipulatiecheck?}{71}{subsection.7.6.2}%
\contentsline {subsection}{\numberline {7.6.3}Toetsen van manipulaties}{72}{subsection.7.6.3}%
\contentsline {section}{\numberline {7.7}Ethiek bij experimenten}{72}{section.7.7}%
\contentsline {chapter}{\numberline {8}Betrouwbaarheid}{75}{chapter.8}%
\contentsline {section}{\numberline {8.1}Meetfout en betrouwbaarheid}{75}{section.8.1}%
\contentsline {section}{\numberline {8.2}Test-hertestbetrouwbaarheid}{76}{section.8.2}%
\contentsline {section}{\numberline {8.3}Interne consistentie}{78}{section.8.3}%
\contentsline {subsection}{\numberline {8.3.1}Split-half-betrouwbaarheid}{78}{subsection.8.3.1}%
\contentsline {subsection}{\numberline {8.3.2}Coëfficiënt alpha}{78}{subsection.8.3.2}%
\contentsline {subsection}{\numberline {8.3.3}Coëfficiënt H}{79}{subsection.8.3.3}%
\contentsline {subsection}{\numberline {8.3.4}Greatest lower bound}{79}{subsection.8.3.4}%
\contentsline {subsection}{\numberline {8.3.5}Omega}{79}{subsection.8.3.5}%
\contentsline {section}{\numberline {8.4}Welke maat moet je gebruiken?}{79}{section.8.4}%
\contentsline {section}{\numberline {8.5}Wanneer is betrouwbaarheid goed genoeg?}{80}{section.8.5}%
\contentsline {subsection}{\numberline {8.5.1}Tijdens de ontwikkeling van een meetinstrument}{80}{subsection.8.5.1}%
\contentsline {subsection}{\numberline {8.5.2}Bij het gebruik van een meetinstrument}{81}{subsection.8.5.2}%
\contentsline {subsection}{\numberline {8.5.3}Wat als een meetinstrument niet bruikbaar is?}{81}{subsection.8.5.3}%
\contentsline {section}{\numberline {8.6}Betrouwbaarheid van een item}{82}{section.8.6}%
\contentsline {chapter}{\numberline {9}Validiteit}{83}{chapter.9}%
\contentsline {section}{\numberline {9.1}Inleiding}{83}{section.9.1}%
\contentsline {section}{\numberline {9.2}Cognitieve validiteit}{84}{section.9.2}%
\contentsline {section}{\numberline {9.3}Validiteit van meetinstrumenten en manipulaties}{84}{section.9.3}%
\contentsline {section}{\numberline {9.4}Valide meetinstrumenten vereisen heldere constructen}{85}{section.9.4}%
\contentsline {section}{\numberline {9.5}Het responsmodel}{87}{section.9.5}%
\contentsline {section}{\numberline {9.6}Responspatronen}{88}{section.9.6}%
\contentsline {section}{\numberline {9.7}Verbanden tussen items en interne consistentie}{89}{section.9.7}%
\contentsline {subsection}{\numberline {9.7.1}Instructies voor toepassing}{90}{subsection.9.7.1}%
\contentsline {section}{\numberline {9.8}Latente constructen}{90}{section.9.8}%
\contentsline {section}{\numberline {9.9}Convergentie en divergentie}{91}{section.9.9}%
\contentsline {subsection}{\numberline {9.9.1}Instructies voor toepassing}{91}{subsection.9.9.1}%
\contentsline {section}{\numberline {9.10}Geschiedenis van validiteitsmaten}{92}{section.9.10}%
\contentsline {section}{\numberline {9.11}Validiteit gaat over één studie}{93}{section.9.11}%
\contentsline {chapter}{\numberline {10}Validiteit bij experimenten}{95}{chapter.10}%
\contentsline {section}{\numberline {10.1}Inleiding}{95}{section.10.1}%
\contentsline {section}{\numberline {10.2}Externe validiteit}{96}{section.10.2}%
\contentsline {section}{\numberline {10.3}Bedreigingen voor de externe validiteit}{96}{section.10.3}%
\contentsline {subsection}{\numberline {10.3.1}Interactie voormeting en reactie op experimentele stimulus}{96}{subsection.10.3.1}%
\contentsline {subsection}{\numberline {10.3.2}Niet-representatieve steekproef}{97}{subsection.10.3.2}%
\contentsline {subsection}{\numberline {10.3.3}Reactieve experimentele locatie}{97}{subsection.10.3.3}%
\contentsline {section}{\numberline {10.4}Interne validiteit}{98}{section.10.4}%
\contentsline {section}{\numberline {10.5}Bedreigingen voor de interne validiteit}{98}{section.10.5}%
\contentsline {subsection}{\numberline {10.5.1}Tussentijds extern voorval (history)}{99}{subsection.10.5.1}%
\contentsline {subsection}{\numberline {10.5.2}Rijping}{99}{subsection.10.5.2}%
\contentsline {subsection}{\numberline {10.5.3}Testeffect}{99}{subsection.10.5.3}%
\contentsline {subsection}{\numberline {10.5.4}Instrumentatie}{100}{subsection.10.5.4}%
\contentsline {subsection}{\numberline {10.5.5}Statistische regressie}{100}{subsection.10.5.5}%
\contentsline {subsection}{\numberline {10.5.6}Selectie bias}{100}{subsection.10.5.6}%
\contentsline {subsection}{\numberline {10.5.7}Uitval}{101}{subsection.10.5.7}%
\contentsline {subsection}{\numberline {10.5.8}Verspreiding van de manipulatie}{101}{subsection.10.5.8}%
\contentsline {subsection}{\numberline {10.5.9}Compenserende rivaliteit}{101}{subsection.10.5.9}%
\contentsline {subsection}{\numberline {10.5.10}Interactie tussen bedreigingen}{102}{subsection.10.5.10}%
\contentsline {part}{III\hspace {1em}Kwantitatieve data}{103}{part.3}%
\contentsline {chapter}{\numberline {11}Data}{105}{chapter.11}%
\contentsline {section}{\numberline {11.1}Inleiding}{105}{section.11.1}%
\contentsline {section}{\numberline {11.2}Datapunten}{105}{section.11.2}%
\contentsline {section}{\numberline {11.3}Datareeksen}{106}{section.11.3}%
\contentsline {section}{\numberline {11.4}Meetniveaus}{106}{section.11.4}%
\contentsline {subsection}{\numberline {11.4.1}Afwegingen bij meetniveaus}{107}{subsection.11.4.1}%
\contentsline {section}{\numberline {11.5}Datasets}{108}{section.11.5}%
\contentsline {section}{\numberline {11.6}Variabelenamen}{108}{section.11.6}%
\contentsline {subsection}{\numberline {11.6.1}Karakters in variabelenamen}{109}{subsection.11.6.1}%
\contentsline {subsection}{\numberline {11.6.2}Kamelen en slangen}{109}{subsection.11.6.2}%
\contentsline {subsection}{\numberline {11.6.3}Machine-readability}{109}{subsection.11.6.3}%
\contentsline {section}{\numberline {11.7}Bestandsformaten en -namen}{110}{section.11.7}%
\contentsline {subsection}{\numberline {11.7.1}Open bestandsformaten}{111}{subsection.11.7.1}%
\contentsline {subsection}{\numberline {11.7.2}Deels open bestandsformaten}{111}{subsection.11.7.2}%
\contentsline {subsection}{\numberline {11.7.3}Gesloten bestandsformaten}{111}{subsection.11.7.3}%
\contentsline {subsection}{\numberline {11.7.4}Bestandsnamen}{111}{subsection.11.7.4}%
\contentsline {section}{\numberline {11.8}Datasets openbaar maken}{111}{section.11.8}%
\contentsline {chapter}{\numberline {12}Beschrijvingsmaten}{113}{chapter.12}%
\contentsline {section}{\numberline {12.1}Inleiding}{113}{section.12.1}%
\contentsline {section}{\numberline {12.2}Centrummaten}{113}{section.12.2}%
\contentsline {subsection}{\numberline {12.2.1}Het gemiddelde}{114}{subsection.12.2.1}%
\contentsline {subsubsection}{\numberline {12.2.1.1}Outliers}{114}{subsubsection.12.2.1.1}%
\contentsline {subsection}{\numberline {12.2.2}De modus}{115}{subsection.12.2.2}%
\contentsline {subsection}{\numberline {12.2.3}De mediaan}{115}{subsection.12.2.3}%
\contentsline {section}{\numberline {12.3}Spreidingsmaten}{116}{section.12.3}%
\contentsline {subsection}{\numberline {12.3.1}Range (bereik)}{116}{subsection.12.3.1}%
\contentsline {subsection}{\numberline {12.3.2}Interkwartielafstand (IQR)}{116}{subsection.12.3.2}%
\contentsline {subsection}{\numberline {12.3.3}Variatie}{117}{subsection.12.3.3}%
\contentsline {subsection}{\numberline {12.3.4}Variantie}{119}{subsection.12.3.4}%
\contentsline {subsubsection}{\numberline {12.3.4.1}Vrijheidsgraden}{119}{subsubsection.12.3.4.1}%
\contentsline {subsection}{\numberline {12.3.5}Standaarddeviatie}{120}{subsection.12.3.5}%
\contentsline {section}{\numberline {12.4}Beschrijvingsmaten voor categorische variabelen}{120}{section.12.4}%
\contentsline {subsection}{\numberline {12.4.1}Frequentieverdelingen}{120}{subsection.12.4.1}%
\contentsline {chapter}{\numberline {13}Verdelingsvormen en -maten}{123}{chapter.13}%
\contentsline {section}{\numberline {13.1}Inleiding}{123}{section.13.1}%
\contentsline {section}{\numberline {13.2}Verdelingsvormen}{125}{section.13.2}%
\contentsline {subsection}{\numberline {13.2.1}Modaliteit of `toppigheid'}{126}{subsection.13.2.1}%
\contentsline {subsection}{\numberline {13.2.2}Scheefheid (`skewness')}{127}{subsection.13.2.2}%
\contentsline {subsection}{\numberline {13.2.3}Spitsheid (`kurtosis')}{128}{subsection.13.2.3}%
\contentsline {section}{\numberline {13.3}Normale verdelingen}{129}{section.13.3}%
\contentsline {subsection}{\numberline {13.3.1}Standaardnormale verdeling en z-scores}{131}{subsection.13.3.1}%
\contentsline {section}{\numberline {13.4}Verdeling van steekproefscores en conclusies over de populatieverdeling}{132}{section.13.4}%
\contentsline {section}{\numberline {13.5}Visualisaties van verdelingsvormen}{133}{section.13.5}%
\contentsline {subsection}{\numberline {13.5.1}Density plots}{133}{subsection.13.5.1}%
\contentsline {subsection}{\numberline {13.5.2}Histogrammen met `normal curves'}{135}{subsection.13.5.2}%
\contentsline {subsection}{\numberline {13.5.3}Q-Q-plots}{135}{subsection.13.5.3}%
\contentsline {subsection}{\numberline {13.5.4}Boxplots}{135}{subsection.13.5.4}%
\contentsline {subsection}{\numberline {13.5.5}Staafdiagrammen}{137}{subsection.13.5.5}%
\contentsline {section}{\numberline {13.6}Samenvatting en concrete richtlijnen}{137}{section.13.6}%
\contentsline {chapter}{\numberline {14}Steekproevenverdelingen en betrouwbaarheidsintervallen}{141}{chapter.14}%
\contentsline {section}{\numberline {14.1}Inleiding}{141}{section.14.1}%
\contentsline {section}{\numberline {14.2}Steekproevenverdeling}{142}{section.14.2}%
\contentsline {section}{\numberline {14.3}De steekproevenverdeling van het gemiddelde}{145}{section.14.3}%
\contentsline {section}{\numberline {14.4}De standaardfout}{146}{section.14.4}%
\contentsline {section}{\numberline {14.5}Het betrouwbaarheidsinterval}{147}{section.14.5}%
\contentsline {chapter}{\numberline {15}Samenhang in data}{149}{chapter.15}%
\contentsline {section}{\numberline {15.1}Inleiding}{149}{section.15.1}%
\contentsline {section}{\numberline {15.2}Twee variabelen}{150}{section.15.2}%
\contentsline {section}{\numberline {15.3}Een scatterplot}{150}{section.15.3}%
\contentsline {subsection}{\numberline {15.3.1}Een positief verband}{153}{subsection.15.3.1}%
\contentsline {subsection}{\numberline {15.3.2}Een negatief verband}{153}{subsection.15.3.2}%
\contentsline {subsection}{\numberline {15.3.3}Positieve en negatieve verbanden onderscheiden}{154}{subsection.15.3.3}%
\contentsline {chapter}{\numberline {16}Nulhypothese-significantietoetsing}{157}{chapter.16}%
\contentsline {section}{\numberline {16.1}Inleiding}{157}{section.16.1}%
\contentsline {section}{\numberline {16.2}De nulhypothese}{158}{section.16.2}%
\contentsline {section}{\numberline {16.3}De p-waarde}{158}{section.16.3}%
\contentsline {section}{\numberline {16.4}Significantietoetsing}{160}{section.16.4}%
\contentsline {subsection}{\numberline {16.4.1}Type 1-fouten}{161}{subsection.16.4.1}%
\contentsline {subsection}{\numberline {16.4.2}Type 2-fouten}{163}{subsection.16.4.2}%
\contentsline {subsection}{\numberline {16.4.3}Samenvatting Nulhypothese-significantietoetsing}{168}{subsection.16.4.3}%
\contentsline {section}{\numberline {16.5}Power}{170}{section.16.5}%
\contentsline {section}{\numberline {16.6}Multiple testing}{173}{section.16.6}%
\contentsline {section}{\numberline {16.7}Problemen van NHST}{176}{section.16.7}%
\contentsline {part}{IV\hspace {1em}Instrumentarium}{179}{part.4}%
\contentsline {chapter}{\numberline {17}Validiteit schatten en verhogen}{181}{chapter.17}%
\contentsline {section}{\numberline {17.1}Inleiding}{181}{section.17.1}%
\contentsline {section}{\numberline {17.2}Validiteit van Meetinstrumenten}{181}{section.17.2}%
\contentsline {subsection}{\numberline {17.2.1}Operationalisatie}{182}{subsection.17.2.1}%
\contentsline {subsection}{\numberline {17.2.2}Items}{182}{subsection.17.2.2}%
\contentsline {subsection}{\numberline {17.2.3}Richtlijnen bij het formuleren van vragen en antwoordopties}{182}{subsection.17.2.3}%
\contentsline {subsubsection}{\numberline {17.2.3.1}Let op het taalniveau}{183}{subsubsection.17.2.3.1}%
\contentsline {paragraph}{Vermijd ambiguïteit in de vraag en de antwoordopties}{183}{section*.75}%
\contentsline {paragraph}{Spiegel geen items}{184}{section*.76}%
\contentsline {subsection}{\numberline {17.2.4}Het responsmodel}{184}{subsection.17.2.4}%
\contentsline {subsection}{\numberline {17.2.5}Verwachte verdeling per item}{184}{subsection.17.2.5}%
\contentsline {subsection}{\numberline {17.2.6}Verwachte verbanden tussen items}{185}{subsection.17.2.6}%
\contentsline {subsection}{\numberline {17.2.7}Verwachte verbanden met andere constructen}{186}{subsection.17.2.7}%
\contentsline {subsection}{\numberline {17.2.8}Vergelijking tussen groepen}{187}{subsection.17.2.8}%
\contentsline {section}{\numberline {17.3}Validiteit van manipulaties}{187}{section.17.3}%
\contentsline {section}{\numberline {17.4}Validiteit van het studieontwerp}{188}{section.17.4}%
\contentsline {subsection}{\numberline {17.4.1}Steekproef}{188}{subsection.17.4.1}%
\contentsline {subsection}{\numberline {17.4.2}Procedure}{188}{subsection.17.4.2}%
\contentsline {subsection}{\numberline {17.4.3}Randomisatie}{188}{subsection.17.4.3}%
\contentsline {section}{\numberline {17.5}Checklist: verificatie van validiteit}{189}{section.17.5}%
\contentsline {subsection}{\numberline {17.5.1}De validiteit van een meetinstrument}{190}{subsection.17.5.1}%
\contentsline {subsection}{\numberline {17.5.2}Wat te doen als validiteit is geschonden?}{191}{subsection.17.5.2}%
\contentsline {chapter}{\numberline {18}Factoranalyse}{193}{chapter.18}%
\contentsline {section}{\numberline {18.1}Inleiding}{193}{section.18.1}%
\contentsline {section}{\numberline {18.2}Covarianties en correlaties}{194}{section.18.2}%
\contentsline {section}{\numberline {18.3}Principale componentenanalyse (PCA)}{196}{section.18.3}%
\contentsline {subsection}{\numberline {18.3.1}Componenten bepalen}{196}{subsection.18.3.1}%
\contentsline {subsection}{\numberline {18.3.2}PCA met items over openheid}{197}{subsection.18.3.2}%
\contentsline {subsection}{\numberline {18.3.3}Componenten bestaan uit ladingen}{197}{subsection.18.3.3}%
\contentsline {subsection}{\numberline {18.3.4}Communaliteit}{197}{subsection.18.3.4}%
\contentsline {subsection}{\numberline {18.3.5}Eigenwaarden: de verklaarde variantie per component}{198}{subsection.18.3.5}%
\contentsline {subsection}{\numberline {18.3.6}Het Kaiser-criterium}{198}{subsection.18.3.6}%
\contentsline {subsection}{\numberline {18.3.7}De screeplot}{199}{subsection.18.3.7}%
\contentsline {subsection}{\numberline {18.3.8}Uniciteit}{199}{subsection.18.3.8}%
\contentsline {subsection}{\numberline {18.3.9}PCA met items over openheid en extraversie}{200}{subsection.18.3.9}%
\contentsline {subsection}{\numberline {18.3.10}Varimax-rotatie}{202}{subsection.18.3.10}%
\contentsline {subsection}{\numberline {18.3.11}Rotatie bij gecorreleerde componenten}{202}{subsection.18.3.11}%
\contentsline {subsection}{\numberline {18.3.12}De covariantiematrix reproduceren}{206}{subsection.18.3.12}%
\contentsline {subsection}{\numberline {18.3.13}Puntschattingen en betrouwbaarheidsintervallen}{207}{subsection.18.3.13}%
\contentsline {section}{\numberline {18.4}Soorten en meetmodellen}{209}{section.18.4}%
\contentsline {section}{\numberline {18.5}Exploratieve factoranalyse (EFA)}{209}{section.18.5}%
\contentsline {subsection}{\numberline {18.5.1}Alleen communaliteiten}{209}{subsection.18.5.1}%
\contentsline {subsection}{\numberline {18.5.2}EFA met openheid en extraversie}{212}{subsection.18.5.2}%
\contentsline {section}{\numberline {18.6}Het aantal factoren kiezen}{213}{section.18.6}%
\contentsline {section}{\numberline {18.7}Steekproefomvang voor factoranalyse}{213}{section.18.7}%
\contentsline {subsection}{\numberline {18.7.1}Ontwikkeling van meetinstrumenten}{213}{subsection.18.7.1}%
\contentsline {subsection}{\numberline {18.7.2}Verificatie van validiteit}{214}{subsection.18.7.2}%
\contentsline {section}{\numberline {18.8}Confirmatieve factoranalyse (CFA)}{215}{section.18.8}%
\contentsline {subsection}{\numberline {18.8.1}Goodness-of-Fit Indices}{215}{subsection.18.8.1}%
\contentsline {subsection}{\numberline {18.8.2}Het verschil tussen modellen toetsen}{217}{subsection.18.8.2}%
\contentsline {part}{V\hspace {1em}Vooranalyses}{219}{part.5}%
\contentsline {chapter}{\numberline {19}Datascreening}{221}{chapter.19}%
\contentsline {section}{\numberline {19.1}Inleiding}{221}{section.19.1}%
\contentsline {section}{\numberline {19.2}Onmogelijke waarden}{222}{section.19.2}%
\contentsline {section}{\numberline {19.3}Uitbijters}{223}{section.19.3}%
\contentsline {subsection}{\numberline {19.3.1}Visueel voorbeeld: uitbijters geïllustreerd}{224}{subsection.19.3.1}%
\contentsline {subsection}{\numberline {19.3.2}Wat te doen met uitbijters?}{226}{subsection.19.3.2}%
\contentsline {subsection}{\numberline {19.3.3}Identificeren van uitbijters}{229}{subsection.19.3.3}%
\contentsline {subsubsection}{\numberline {19.3.3.1}Univariate uitbijters}{229}{subsubsection.19.3.3.1}%
\contentsline {subsubsection}{\numberline {19.3.3.2}Multivariate uitbijters}{232}{subsubsection.19.3.3.2}%
\contentsline {subsection}{\numberline {19.3.4}Bijzondere datapatronen}{232}{subsection.19.3.4}%
\contentsline {section}{\numberline {19.4}Sensitiviteitsanalyse}{233}{section.19.4}%
\contentsline {section}{\numberline {19.5}Controleren van verdelingsvormen}{235}{section.19.5}%
\contentsline {subsection}{\numberline {19.5.1}Visuele evaluatie: P-P en Q-Q plots}{236}{subsection.19.5.1}%
\contentsline {subsection}{\numberline {19.5.2}Evaluatie van globale verdelingsvormkenmerken: kurtosis en skewness}{237}{subsection.19.5.2}%
\contentsline {subsection}{\numberline {19.5.3}Toetsing van de verdelingsvorm tegen de kansverdeling: Kolmogorov-Smirnov en Shapiro-Wilk's.}{238}{subsection.19.5.3}%
\contentsline {section}{\numberline {19.6}Data-screening en open science}{239}{section.19.6}%
\contentsline {chapter}{\numberline {20}Ontbrekende waarden}{241}{chapter.20}%
\contentsline {section}{\numberline {20.1}Inleiding}{241}{section.20.1}%
\contentsline {section}{\numberline {20.2}Het proces achter ontbrekende waarden}{242}{section.20.2}%
\contentsline {subsection}{\numberline {20.2.1}Missing Completely At Random (MCAR)}{242}{subsection.20.2.1}%
\contentsline {subsection}{\numberline {20.2.2}Missing at Random (MAR)}{242}{subsection.20.2.2}%
\contentsline {subsection}{\numberline {20.2.3}Missings Not At Random (MNAR)}{242}{subsection.20.2.3}%
\contentsline {section}{\numberline {20.3}Verwijderen van ontbrekende waarden}{243}{section.20.3}%
\contentsline {subsection}{\numberline {20.3.1}Lijstgewijs verwijderen}{243}{subsection.20.3.1}%
\contentsline {subsection}{\numberline {20.3.2}Paarsgewijs verwijderen}{243}{subsection.20.3.2}%
\contentsline {subsection}{\numberline {20.3.3}Variabelen verwijderen}{243}{subsection.20.3.3}%
\contentsline {section}{\numberline {20.4}Imputeren}{244}{section.20.4}%
\contentsline {subsection}{\numberline {20.4.1}Onafhankelijke data}{244}{subsection.20.4.1}%
\contentsline {subsubsection}{\numberline {20.4.1.1}Gemiddelde, mediaan en modus}{244}{subsubsection.20.4.1.1}%
\contentsline {subsubsection}{\numberline {20.4.1.2}Hot-deck-imputatie}{244}{subsubsection.20.4.1.2}%
\contentsline {subsubsection}{\numberline {20.4.1.3}Op regressie gebaseerde imputatie}{244}{subsubsection.20.4.1.3}%
\contentsline {subsubsection}{\numberline {20.4.1.4}K-Nearest Neighbours}{245}{subsubsection.20.4.1.4}%
\contentsline {subsection}{\numberline {20.4.2}Tijdreeks-specifieke methoden}{245}{subsection.20.4.2}%
\contentsline {subsubsection}{\numberline {20.4.2.1}Trends}{245}{subsubsection.20.4.2.1}%
\contentsline {subsubsection}{\numberline {20.4.2.2}Last Observation Carried Forward (LOCF) \& Next Observation Carried Backward (NOCB)}{245}{subsubsection.20.4.2.2}%
\contentsline {subsection}{\numberline {20.4.3}Multiple imputatie}{246}{subsection.20.4.3}%
\contentsline {section}{\numberline {20.5}Voorbeelden van imputatie}{246}{section.20.5}%
\contentsline {subsection}{\numberline {20.5.1}Realistisch voorbeeld}{248}{subsection.20.5.1}%
\contentsline {subsubsection}{\numberline {20.5.1.1}Imputatie met het gemiddelde}{248}{subsubsection.20.5.1.1}%
\contentsline {part}{VI\hspace {1em}Bivariate analyses}{251}{part.6}%
\contentsline {chapter}{\numberline {21}Correlaties}{253}{chapter.21}%
\contentsline {section}{\numberline {21.1}Inleiding}{253}{section.21.1}%
\contentsline {section}{\numberline {21.2}De berekening van de correlatie}{255}{section.21.2}%
\contentsline {section}{\numberline {21.3}Interpretatie: mogelijke waarden}{257}{section.21.3}%
\contentsline {section}{\numberline {21.4}Interpretatie: effectgroottes en vuistregels}{259}{section.21.4}%
\contentsline {section}{\numberline {21.5}De steekproevenverdeling van de correlatie}{260}{section.21.5}%
\contentsline {section}{\numberline {21.6}Het betrouwbaarheidsinterval van de correlatie}{262}{section.21.6}%
\contentsline {section}{\numberline {21.7}Benodigde steekproefomvang}{264}{section.21.7}%
\contentsline {section}{\numberline {21.8}De proportie verklaarde variantie}{265}{section.21.8}%
\contentsline {section}{\numberline {21.9}De standaardfout van Pearson's \(r\)}{265}{section.21.9}%
\contentsline {section}{\numberline {21.10}Pearson's \(r\) en normaliteit}{266}{section.21.10}%
\contentsline {chapter}{\numberline {22}Regressie}{275}{chapter.22}%
\contentsline {section}{\numberline {22.1}Inleiding}{275}{section.22.1}%
\contentsline {section}{\numberline {22.2}De regressielijn}{276}{section.22.2}%
\contentsline {section}{\numberline {22.3}Het intercept}{279}{section.22.3}%
\contentsline {section}{\numberline {22.4}De hellingscoëfficiënt}{280}{section.22.4}%
\contentsline {section}{\numberline {22.5}Dichotome voorspellers}{282}{section.22.5}%
\contentsline {section}{\numberline {22.6}Het statistische structurele model}{284}{section.22.6}%
\contentsline {section}{\numberline {22.7}De proportie verklaarde variantie}{284}{section.22.7}%
\contentsline {section}{\numberline {22.8}Steekproevenverdelingen}{285}{section.22.8}%
\contentsline {section}{\numberline {22.9}Betrouwbaarheidsintervallen}{288}{section.22.9}%
\contentsline {section}{\numberline {22.10}Nulhypothese-significantietoetsing en \(p\)-waarden}{288}{section.22.10}%
\contentsline {section}{\numberline {22.11}Praktijkvoorbeeld: schoolcijfer en IQ}{289}{section.22.11}%
\contentsline {section}{\numberline {22.12}Een voorbeeld van resultaten}{291}{section.22.12}%
\contentsline {subsection}{\numberline {22.12.1}De regressieanalyse}{292}{subsection.22.12.1}%
\contentsline {subsubsection}{\numberline {22.12.1.1}Regression analysis}{292}{subsubsection.22.12.1.1}%
\contentsline {subsection}{\numberline {22.12.2}Het model}{292}{subsection.22.12.2}%
\contentsline {subsection}{\numberline {22.12.3}De regressiecoëfficiënten}{293}{subsection.22.12.3}%
\contentsline {subsection}{\numberline {22.12.4}Voorspellingen doen}{293}{subsection.22.12.4}%
\contentsline {section}{\numberline {22.13}De gestandaardiseerde coëfficiënten}{293}{section.22.13}%
\contentsline {section}{\numberline {22.14}Centreren in regressie-analyse}{294}{section.22.14}%
\contentsline {section}{\numberline {22.15}Asymmetrie in regressieanalyse}{295}{section.22.15}%
\contentsline {subsection}{\numberline {22.15.1}Geen causaliteit}{296}{subsection.22.15.1}%
\contentsline {subsection}{\numberline {22.15.2}Onrealistische aanname}{298}{subsection.22.15.2}%
\contentsline {section}{\numberline {22.16}Aannames van regressie-analyse}{299}{section.22.16}%
\contentsline {section}{\numberline {22.17}Synoniemen}{300}{section.22.17}%
\contentsline {section}{\numberline {22.18}Met de hand regressiecoëfficiënten berekenen}{300}{section.22.18}%
\contentsline {chapter}{\numberline {23}t-toetsen en Cohen's d}{303}{chapter.23}%
\contentsline {section}{\numberline {23.1}Een verschil tussen twee gemiddelden}{303}{section.23.1}%
\contentsline {section}{\numberline {23.2}De steekproevenverdeling en het betrouwbaarheidsinterval voor het verschil tussen gemiddelden}{304}{section.23.2}%
\contentsline {section}{\numberline {23.3}Cohen's \(d\)}{306}{section.23.3}%
\contentsline {subsection}{\numberline {23.3.1}Steekproevenverdeling van Cohen's \(d\)}{307}{subsection.23.3.1}%
\contentsline {subsection}{\numberline {23.3.2}Betrouwbaarheidsintervallen voor Cohen's \(d\)}{308}{subsection.23.3.2}%
\contentsline {subsection}{\numberline {23.3.3}Interpretatie Cohen's \(d\): mogelijke waarden en richtlijnen}{308}{subsection.23.3.3}%
\contentsline {section}{\numberline {23.4}De onafhankelijke \(t\)-toets}{309}{section.23.4}%
\contentsline {section}{\numberline {23.5}Levene's toets voor gelijkheid van varianties}{311}{section.23.5}%
\contentsline {subsection}{\numberline {23.5.1}Wat is de Levene's toets}{311}{subsection.23.5.1}%
\contentsline {subsection}{\numberline {23.5.2}Drie soorten Levene's toetsen}{311}{subsection.23.5.2}%
\contentsline {subsubsection}{\numberline {23.5.2.1}Verdieping: wat betekent `op basis van gemiddelde'?}{312}{subsubsection.23.5.2.1}%
\contentsline {subsection}{\numberline {23.5.3}Hoe de Levene's toets te gebruiken?}{313}{subsection.23.5.3}%
\contentsline {section}{\numberline {23.6}Aannames van de t-toets}{314}{section.23.6}%
\contentsline {section}{\numberline {23.7}De gepaarde t-toets}{314}{section.23.7}%
\contentsline {subsection}{\numberline {23.7.1}Voordelen van gepaarde \(t\)-toetsen}{315}{subsection.23.7.1}%
\contentsline {subsection}{\numberline {23.7.2}Verschillende berekeningen bij gepaarde \(t\)-toetsen}{315}{subsection.23.7.2}%
\contentsline {chapter}{\numberline {24}Variantieanalyse}{317}{chapter.24}%
\contentsline {section}{\numberline {24.1}Inleiding}{317}{section.24.1}%
\contentsline {section}{\numberline {24.2}De logica achter ANOVA}{318}{section.24.2}%
\contentsline {subsection}{\numberline {24.2.1}Verschil uitdrukken in een \(t\)-toets}{320}{subsection.24.2.1}%
\contentsline {subsection}{\numberline {24.2.2}Verschil uitdrukken in ANOVA}{320}{subsection.24.2.2}%
\contentsline {subsection}{\numberline {24.2.3}De \(F\)-waarde als ratio}{321}{subsection.24.2.3}%
\contentsline {section}{\numberline {24.3}Aannamen bij ANOVA}{324}{section.24.3}%
\contentsline {subsection}{\numberline {24.3.1}Welch's \(F\)}{325}{subsection.24.3.1}%
\contentsline {section}{\numberline {24.4}Effectmaten bij ANOVA}{325}{section.24.4}%
\contentsline {section}{\numberline {24.5}Specifieke groepsverschillen toetsen: contrasten versus post-hoc}{326}{section.24.5}%
\contentsline {subsection}{\numberline {24.5.1}Contrasten: paarsgewijze vergelijkingen van tevoren bedenken}{326}{subsection.24.5.1}%
\contentsline {subsection}{\numberline {24.5.2}Post-hoc: achteraf alsnog alles vergelijken, maar voorzichtiger}{329}{subsection.24.5.2}%
\contentsline {subsubsection}{\numberline {24.5.2.1}Least squared difference (LSD)}{329}{subsubsection.24.5.2.1}%
\contentsline {subsubsection}{\numberline {24.5.2.2}Bonferonni-correctie}{330}{subsubsection.24.5.2.2}%
\contentsline {subsubsection}{\numberline {24.5.2.3}Tukey-Kramer (\emph {honestly significant difference})-test}{330}{subsubsection.24.5.2.3}%
\contentsline {subsubsection}{\numberline {24.5.2.4}Dunnett's \(t\)-test}{330}{subsubsection.24.5.2.4}%
\contentsline {subsubsection}{\numberline {24.5.2.5}Games-Howell-test}{331}{subsubsection.24.5.2.5}%
\contentsline {section}{\numberline {24.6}Kanskapitalisatie}{331}{section.24.6}%
\contentsline {section}{\numberline {24.7}Interpretatie van de parameterschattingen van one-way ANOVA}{332}{section.24.7}%
\contentsline {subsection}{\numberline {24.7.1}Voorbeeld one-way ANOVA}{333}{subsection.24.7.1}%
\contentsline {part}{VII\hspace {1em}Multivariate analyses}{337}{part.7}%
\contentsline {chapter}{\numberline {25}Multipele regressie}{339}{chapter.25}%
\contentsline {section}{\numberline {25.1}Inleiding}{339}{section.25.1}%
\contentsline {section}{\numberline {25.2}De regressievergelijking}{339}{section.25.2}%
\contentsline {section}{\numberline {25.3}De multipele correlatie en de proportie verklaarde variantie}{341}{section.25.3}%
\contentsline {section}{\numberline {25.4}Steekproevenverdelingen}{341}{section.25.4}%
\contentsline {section}{\numberline {25.5}Een voorbeeld}{341}{section.25.5}%
\contentsline {subsection}{\numberline {25.5.1}De variabelen}{342}{subsection.25.5.1}%
\contentsline {subsection}{\numberline {25.5.2}Correlaties}{342}{subsection.25.5.2}%
\contentsline {subsection}{\numberline {25.5.3}De regressie-analyses}{342}{subsection.25.5.3}%
\contentsline {subsubsection}{\numberline {25.5.3.1}Regression analysis}{342}{subsubsection.25.5.3.1}%
\contentsline {subsubsection}{\numberline {25.5.3.2}Regression analysis}{344}{subsubsection.25.5.3.2}%
\contentsline {subsubsection}{\numberline {25.5.3.3}Regression analysis}{344}{subsubsection.25.5.3.3}%
\contentsline {subsection}{\numberline {25.5.4}De voorspellingen}{345}{subsection.25.5.4}%
\contentsline {section}{\numberline {25.6}Aannames van multipele regressie-analyse}{346}{section.25.6}%
\contentsline {subsection}{\numberline {25.6.1}Multicollineariteit onderzoeken}{346}{subsection.25.6.1}%
\contentsline {section}{\numberline {25.7}Overlap in voorspellers}{347}{section.25.7}%
\contentsline {section}{\numberline {25.8}Categorische voorspellers: dummycodering}{352}{section.25.8}%
\contentsline {subsection}{\numberline {25.8.1}Dichotome voorspellers}{352}{subsection.25.8.1}%
\contentsline {subsection}{\numberline {25.8.2}Voorspellers met meer categorieën}{352}{subsection.25.8.2}%
\contentsline {subsection}{\numberline {25.8.3}Dummycodering}{353}{subsection.25.8.3}%
\contentsline {section}{\numberline {25.9}Situaties waarin multipele regressie wordt gebruikt}{354}{section.25.9}%
\contentsline {chapter}{\numberline {26}Logistische regressie}{355}{chapter.26}%
\contentsline {section}{\numberline {26.1}Inleiding}{355}{section.26.1}%
\contentsline {section}{\numberline {26.2}Waarom lineaire regressie niet werkt}{356}{section.26.2}%
\contentsline {section}{\numberline {26.3}Het logistisch regressie model}{359}{section.26.3}%
\contentsline {section}{\numberline {26.4}De odds-ratio bij logistische regressie}{360}{section.26.4}%
\contentsline {section}{\numberline {26.5}Een voorbeeld: schoolsucces}{361}{section.26.5}%
\contentsline {section}{\numberline {26.6}Kwaliteit van het model}{363}{section.26.6}%
\contentsline {section}{\numberline {26.7}Aannames bij logistische regressie}{364}{section.26.7}%
\contentsline {subsection}{\numberline {26.7.1}Lineariteit van de logit}{364}{subsection.26.7.1}%
\contentsline {subsection}{\numberline {26.7.2}Afwezigheid van multicollineariteit}{364}{subsection.26.7.2}%
\contentsline {subsection}{\numberline {26.7.3}Afwezigheid van `influential cases'}{364}{subsection.26.7.3}%
\contentsline {subsection}{\numberline {26.7.4}Onafhankelijkheid van residuen}{364}{subsection.26.7.4}%
\contentsline {chapter}{\numberline {27}Factoriële ANOVA}{365}{chapter.27}%
\contentsline {section}{\numberline {27.1}Inleiding}{365}{section.27.1}%
\contentsline {section}{\numberline {27.2}Assumpties factoriële ANOVA}{366}{section.27.2}%
\contentsline {section}{\numberline {27.3}Interactie en moderatie}{367}{section.27.3}%
\contentsline {subsection}{\numberline {27.3.1}Interactie}{367}{subsection.27.3.1}%
\contentsline {subsection}{\numberline {27.3.2}Moderatie}{370}{subsection.27.3.2}%
\contentsline {section}{\numberline {27.4}Het lineair model van factoriële ANOVA}{371}{section.27.4}%
\contentsline {subsection}{\numberline {27.4.1}Voorbeeld: data over slaapkwaliteit}{371}{subsection.27.4.1}%
\contentsline {subsection}{\numberline {27.4.2}Lineair model}{373}{subsection.27.4.2}%
\contentsline {section}{\numberline {27.5}Model met interactietermen}{375}{section.27.5}%
\contentsline {section}{\numberline {27.6}Simple effects}{378}{section.27.6}%
\contentsline {section}{\numberline {27.7}Moderatiehypothese}{379}{section.27.7}%
\contentsline {subsection}{\numberline {27.7.1}De moderatie gevisualiseerd}{379}{subsection.27.7.1}%
\contentsline {chapter}{\numberline {28}Covariantie-analyse}{381}{chapter.28}%
\contentsline {section}{\numberline {28.1}Inleiding}{381}{section.28.1}%
\contentsline {subsection}{\numberline {28.1.1}De logica achter covariaten}{382}{subsection.28.1.1}%
\contentsline {subsubsection}{\numberline {28.1.1.1}Voorbeeld: roken, leeftijd en overlijdensrisico}{382}{subsubsection.28.1.1.1}%
\contentsline {subsubsection}{\numberline {28.1.1.2}Covariaten filteren variantie van storende variabelen}{383}{subsubsection.28.1.1.2}%
\contentsline {section}{\numberline {28.2}Hoe werkt statistisch controleren?}{385}{section.28.2}%
\contentsline {section}{\numberline {28.3}Aannames bij covariantieanalyse}{386}{section.28.3}%
\contentsline {subsection}{\numberline {28.3.1}Er moet een relatie zijn tussen covariaat en afhankelijke variabele}{386}{subsection.28.3.1}%
\contentsline {subsection}{\numberline {28.3.2}Onafhankelijkheid van covariaat en manipulatie}{386}{subsection.28.3.2}%
\contentsline {subsubsection}{\numberline {28.3.2.1}Een voorbeeld van afhankelijkheid van covariaat en predictor}{388}{subsubsection.28.3.2.1}%
\contentsline {subsection}{\numberline {28.3.3}Homogeneniteit van regressie-hellingshoeken}{388}{subsection.28.3.3}%
\contentsline {section}{\numberline {28.4}Voorbeeld: covariaten in het lineaire model}{392}{section.28.4}%
\contentsline {subsection}{\numberline {28.4.1}Voorbeeldanalyse van slaapkwaliteitdata}{392}{subsection.28.4.1}%
\contentsline {subsection}{\numberline {28.4.2}Voorbeeld: berekenen van de voor de covariaat aangepaste gemiddelden}{393}{subsection.28.4.2}%
\contentsline {chapter}{\numberline {29}Single-case designs}{397}{chapter.29}%
\contentsline {section}{\numberline {29.1}Inleiding}{397}{section.29.1}%
\contentsline {section}{\numberline {29.2}AB-design en alternatieven}{398}{section.29.2}%
\contentsline {section}{\numberline {29.3}Effectgrootte}{398}{section.29.3}%
\contentsline {section}{\numberline {29.4}Kwaliteitsrichtlijnen}{398}{section.29.4}%
\contentsline {section}{\numberline {29.5}Voorbeeld couple therapy data}{399}{section.29.5}%
\contentsline {section}{\numberline {29.6}Randomisatietoets}{400}{section.29.6}%
\contentsline {chapter}{\numberline {30}Anova voor herhaalde-metingen}{403}{chapter.30}%
\contentsline {section}{\numberline {30.1}Inleiding}{403}{section.30.1}%
\contentsline {section}{\numberline {30.2}Herhaalde-metingendesign}{404}{section.30.2}%
\contentsline {section}{\numberline {30.3}Volgorde-effecten en counterbalancing}{404}{section.30.3}%
\contentsline {section}{\numberline {30.4}De logica achter een herhaalde-metingen ANOVA}{405}{section.30.4}%
\contentsline {section}{\numberline {30.5}Herhaalde-metingen en het lineair model}{406}{section.30.5}%
\contentsline {section}{\numberline {30.6}RM-anova versus multilevelanalyse}{406}{section.30.6}%
\contentsline {subsection}{\numberline {30.6.1}MLA doet minder strikte aannames.}{407}{subsection.30.6.1}%
\contentsline {subsection}{\numberline {30.6.2}MLA maakt een hiërarchische structuur mogelijk.}{407}{subsection.30.6.2}%
\contentsline {subsection}{\numberline {30.6.3}MLA kan ontbrekende gegevens verwerken.}{407}{subsection.30.6.3}%
\contentsline {subsection}{\numberline {30.6.4}MLA kan rekening houden met variatie in meetmomenten}{407}{subsection.30.6.4}%
\contentsline {subsection}{\numberline {30.6.5}MLA kan omgaan met verschillende meetniveaus}{407}{subsection.30.6.5}%
\contentsline {subsection}{\numberline {30.6.6}MLA kan omgaan met niet-gebalanceerde onderzoeksopzetten}{408}{subsection.30.6.6}%
\contentsline {section}{\numberline {30.7}Assumpties van een RM-anova}{408}{section.30.7}%
\contentsline {subsection}{\numberline {30.7.1}Onafhankelijkheid van residuen tussen proefpersonen}{408}{subsection.30.7.1}%
\contentsline {subsection}{\numberline {30.7.2}Sphericiteit}{408}{subsection.30.7.2}%
\contentsline {subsubsection}{\numberline {30.7.2.1}Korte samenvatting van de aanname van sphericiteit}{409}{subsubsection.30.7.2.1}%
\contentsline {subsection}{\numberline {30.7.3}Normaliteit van de residuen}{409}{subsection.30.7.3}%
\contentsline {section}{\numberline {30.8}Voorbeeld data}{410}{section.30.8}%
\contentsline {section}{\numberline {30.9}Mixed designs}{410}{section.30.9}%
\contentsline {section}{\numberline {30.10}Analyses}{413}{section.30.10}%
\contentsline {part}{VIII\hspace {1em}Steekproefomvang berekenen}{415}{part.8}%
\contentsline {chapter}{\numberline {31}Power voor correlaties}{417}{chapter.31}%
\contentsline {section}{\numberline {31.1}Correlaties schatten}{417}{section.31.1}%
\contentsline {section}{\numberline {31.2}Nulhypothese-significantietoetsing}{418}{section.31.2}%
\contentsline {subsection}{\numberline {31.2.1}Meerdere correlaties tegelijk schatten}{420}{subsection.31.2.1}%
\contentsline {chapter}{\numberline {32}Power voor t-toetsen}{423}{chapter.32}%
\contentsline {section}{\numberline {32.1}Power van de onafhankelijke t-toets}{423}{section.32.1}%
\contentsline {section}{\numberline {32.2}Power voor gepaarde t-toetsen}{425}{section.32.2}%
\contentsline {chapter}{\numberline {33}Power voor variantieanalyse}{429}{chapter.33}%
\contentsline {part}{IX\hspace {1em}Publiceren}{433}{part.9}%
\contentsline {chapter}{\numberline {34}Teksten}{435}{chapter.34}%
\contentsline {section}{\numberline {34.1}Inleiding}{435}{section.34.1}%
\contentsline {section}{\numberline {34.2}Academisch schrijven}{435}{section.34.2}%
\contentsline {subsection}{\numberline {34.2.1}Triviale waarheden}{436}{subsection.34.2.1}%
\contentsline {subsection}{\numberline {34.2.2}Onderbouwde beweringen}{436}{subsection.34.2.2}%
\contentsline {subsection}{\numberline {34.2.3}Logisch afgeleid}{436}{subsection.34.2.3}%
\contentsline {subsection}{\numberline {34.2.4}Rapportage}{437}{subsection.34.2.4}%
\contentsline {section}{\numberline {34.3}Teksten structureren}{437}{section.34.3}%
\contentsline {subsection}{\numberline {34.3.1}Outline}{438}{subsection.34.3.1}%
\contentsline {section}{\numberline {34.4}Alles heeft een functie}{438}{section.34.4}%
\contentsline {section}{\numberline {34.5}Vorm}{438}{section.34.5}%
\contentsline {subsection}{\numberline {34.5.1}Figuren}{439}{subsection.34.5.1}%
\contentsline {subsection}{\numberline {34.5.2}Tabellen}{439}{subsection.34.5.2}%
\contentsline {subsection}{\numberline {34.5.3}Stijl}{439}{subsection.34.5.3}%
\contentsline {chapter}{\numberline {35}Secties}{441}{chapter.35}%
\contentsline {section}{\numberline {35.1}Inleiding}{441}{section.35.1}%
\contentsline {subsection}{\numberline {35.1.1}Problematisering}{442}{subsection.35.1.1}%
\contentsline {subsection}{\numberline {35.1.2}Theorieën}{442}{subsection.35.1.2}%
\contentsline {subsection}{\numberline {35.1.3}Empirische evidentie}{442}{subsection.35.1.3}%
\contentsline {subsection}{\numberline {35.1.4}Huidige studie}{443}{subsection.35.1.4}%
\contentsline {section}{\numberline {35.2}Methode}{443}{section.35.2}%
\contentsline {section}{\numberline {35.3}Resultaten}{443}{section.35.3}%
\contentsline {section}{\numberline {35.4}Discussie}{444}{section.35.4}%
\contentsline {section}{\numberline {35.5}Zandloper}{445}{section.35.5}%
\contentsline {chapter}{\numberline {36}Discussie}{447}{chapter.36}%
\contentsline {section}{\numberline {36.1}Inleiding}{447}{section.36.1}%
\contentsline {section}{\numberline {36.2}Resultaten en interpretatie}{448}{section.36.2}%
\contentsline {subsection}{\numberline {36.2.1}Herhaal de vraagstelling en geef een samenvatting van je resultaten}{448}{subsection.36.2.1}%
\contentsline {subsection}{\numberline {36.2.2}Koppel de bevindingen aan de theorie}{448}{subsection.36.2.2}%
\contentsline {subsection}{\numberline {36.2.3}Valkuilen}{448}{subsection.36.2.3}%
\contentsline {section}{\numberline {36.3}Beperkingen en aanbevelingen}{449}{section.36.3}%
\contentsline {subsection}{\numberline {36.3.1}Bespreek alternatieve verklaringen}{449}{subsection.36.3.1}%
\contentsline {subsection}{\numberline {36.3.2}Bespreek tekortkomingen}{449}{subsection.36.3.2}%
\contentsline {subsection}{\numberline {36.3.3}Voorbeelden van het bespreken van beperkingen:}{450}{subsection.36.3.3}%
\contentsline {subsection}{\numberline {36.3.4}Valkuilen}{451}{subsection.36.3.4}%
\contentsline {section}{\numberline {36.4}Conclusie: implicaties voor theorie en praktijk}{451}{section.36.4}%
\contentsline {subsection}{\numberline {36.4.1}Trek een conclusie}{451}{subsection.36.4.1}%
\contentsline {subsection}{\numberline {36.4.2}Bespreek implicaties voor de praktijk}{452}{subsection.36.4.2}%
\contentsline {subsection}{\numberline {36.4.3}Bespreek implicaties voor de theorie}{452}{subsection.36.4.3}%
\contentsline {subsection}{\numberline {36.4.4}Valkuilen}{453}{subsection.36.4.4}%
\contentsline {part}{X\hspace {1em}Kaders}{455}{part.10}%
\contentsline {chapter}{\numberline {37}Wetenschappelijke integriteit}{457}{chapter.37}%
\contentsline {section}{\numberline {37.1}Wetenschappelijke integriteit}{457}{section.37.1}%
\contentsline {section}{\numberline {37.2}Ethiek en ethische commissies}{458}{section.37.2}%
\contentsline {subsection}{\numberline {37.2.1}WMO, METC en cETO}{459}{subsection.37.2.1}%
\contentsline {section}{\numberline {37.3}Ethische aspecten}{459}{section.37.3}%
\contentsline {subsection}{\numberline {37.3.1}Informed consent}{459}{subsection.37.3.1}%
\contentsline {subsection}{\numberline {37.3.2}Datamanagement}{460}{subsection.37.3.2}%
\contentsline {subsection}{\numberline {37.3.3}Full disclosure}{461}{subsection.37.3.3}%
\contentsline {subsection}{\numberline {37.3.4}Misleiding}{461}{subsection.37.3.4}%
\contentsline {subsection}{\numberline {37.3.5}Debriefing}{462}{subsection.37.3.5}%
\contentsline {chapter}{\numberline {38}Open science}{463}{chapter.38}%
\contentsline {section}{\numberline {38.1}Inleiding}{463}{section.38.1}%
\contentsline {section}{\numberline {38.2}De replicatiecrisis}{464}{section.38.2}%
\contentsline {section}{\numberline {38.3}Open science als oplossing}{464}{section.38.3}%
\contentsline {subsection}{\numberline {38.3.1}Preregistraties}{465}{subsection.38.3.1}%
\contentsline {subsection}{\numberline {38.3.2}Open infrastructuur}{465}{subsection.38.3.2}%
\contentsline {subsection}{\numberline {38.3.3}Open data}{466}{subsection.38.3.3}%
\contentsline {subsection}{\numberline {38.3.4}Open materialen}{466}{subsection.38.3.4}%
\contentsline {subsection}{\numberline {38.3.5}Preprints}{466}{subsection.38.3.5}%
\contentsline {subsection}{\numberline {38.3.6}Open access}{467}{subsection.38.3.6}%
\contentsline {section}{\numberline {38.4}Open science is (veel) meer}{467}{section.38.4}%
\contentsline {subsection}{\numberline {38.4.1}Open educational resources}{467}{subsection.38.4.1}%
\contentsline {subsection}{\numberline {38.4.2}Inclusiviteit en diversiteit}{468}{subsection.38.4.2}%
\contentsline {subsection}{\numberline {38.4.3}Citizen science}{468}{subsection.38.4.3}%
\contentsline {chapter}{\numberline {39}Preregistratie}{469}{chapter.39}%
\contentsline {section}{\numberline {39.1}Inleiding}{469}{section.39.1}%
\contentsline {section}{\numberline {39.2}Wat is preregistratie}{469}{section.39.2}%
\contentsline {section}{\numberline {39.3}Het nut van preregistratie}{470}{section.39.3}%
\contentsline {section}{\numberline {39.4}Preregistratie is geen keurslijf}{470}{section.39.4}%
\contentsline {section}{\numberline {39.5}Registratie}{471}{section.39.5}%
\contentsline {section}{\numberline {39.6}Preregistratie- en registratieformulieren}{471}{section.39.6}%
\contentsline {chapter}{\numberline {40}Open data}{473}{chapter.40}%
\contentsline {section}{\numberline {40.1}Eigendom van data}{473}{section.40.1}%
\contentsline {section}{\numberline {40.2}Data anonimiseren}{474}{section.40.2}%
\contentsline {section}{\numberline {40.3}Metadata}{474}{section.40.3}%
\contentsline {section}{\numberline {40.4}FAIR data}{475}{section.40.4}%
\contentsline {chapter}{\numberline {41}Algemene verordening gegevensbescherming}{477}{chapter.41}%
\contentsline {section}{\numberline {41.1}Inleiding}{477}{section.41.1}%
\contentsline {section}{\numberline {41.2}Persoonsgegevens}{478}{section.41.2}%
\contentsline {section}{\numberline {41.3}Kiezen of je persoonsgegevens gaat verzamelen}{478}{section.41.3}%
\contentsline {section}{\numberline {41.4}Less is more}{479}{section.41.4}%
\contentsline {section}{\numberline {41.5}Persoonsgegevens: samenvatting}{480}{section.41.5}%
\contentsline {section}{\numberline {41.6}Bijzondere persoonsgegevens}{480}{section.41.6}%
\contentsline {section}{\numberline {41.7}Hoe verwerk je persoonsgegevens?}{481}{section.41.7}%
\contentsline {section}{\numberline {41.8}Wanneer mag je persoonsgegevens verwerken?}{481}{section.41.8}%
\contentsline {section}{\numberline {41.9}De privacy officer en de functionaris gegevensbescherming}{482}{section.41.9}%
\contentsline {section}{\numberline {41.10}Anonimiseren}{482}{section.41.10}%
\contentsline {section}{\numberline {41.11}Pseudonimisering}{483}{section.41.11}%
\contentsline {section}{\numberline {41.12}Versleuteling}{483}{section.41.12}%
\contentsline {subsection}{\numberline {41.12.1}Kwantitatief onderzoek: voorbeeldprocedure}{484}{subsection.41.12.1}%
\contentsline {subsection}{\numberline {41.12.2}Kwalitatief onderzoek: voorbeeldprocedure}{485}{subsection.41.12.2}%
\contentsline {section}{\numberline {41.13}Software}{485}{section.41.13}%
\contentsline {chapter}{\numberline {42}Intellectueel eigendom}{487}{chapter.42}%
\contentsline {section}{\numberline {42.1}Inleiding}{487}{section.42.1}%
\contentsline {section}{\numberline {42.2}Het publieke domein}{487}{section.42.2}%
\contentsline {section}{\numberline {42.3}Copyright}{488}{section.42.3}%
\contentsline {section}{\numberline {42.4}Creative Commons (CC)}{488}{section.42.4}%
\contentsline {section}{\numberline {42.5}Intellectueel eigendom van data}{489}{section.42.5}%
\contentsline {subsection}{\numberline {42.5.1}Feiten zijn niemands eigendom}{489}{subsection.42.5.1}%
\contentsline {subsection}{\numberline {42.5.2}Persoonsgegevens zijn alleen van de betreffende persoon}{490}{subsection.42.5.2}%
\contentsline {subsection}{\numberline {42.5.3}Databankenrecht}{490}{subsection.42.5.3}%
\contentsline {subsection}{\numberline {42.5.4}Kwalitatieve data en open vragen}{490}{subsection.42.5.4}%
\contentsline {chapter}{\numberline {43}Literatuurverwijzingen en plagiaat}{491}{chapter.43}%
\contentsline {section}{\numberline {43.1}Teksten van anderen}{491}{section.43.1}%
\contentsline {section}{\numberline {43.2}Plagiaat}{492}{section.43.2}%
\contentsline {subsection}{\numberline {43.2.1}Voorbeelden}{493}{subsection.43.2.1}%
\contentsline {section}{\numberline {43.3}Wees integer}{493}{section.43.3}%
\contentsline {section}{\numberline {43.4}Large language models}{494}{section.43.4}%
\contentsline {section}{\numberline {43.5}Andere onethische schrijfpraktijken}{494}{section.43.5}%
\contentsline {section}{\numberline {43.6}Opmaak van literatuurverwijzingen volgens de richtlijnen van de APA}{494}{section.43.6}%
\contentsline {subsection}{\numberline {43.6.1}Veelgemaakte fouten bij de opmaak van literatuurverwijzingen}{495}{subsection.43.6.1}%
\contentsline {part}{XI\hspace {1em}Appendices \& referenties}{499}{part.11}%
\contentsline {chapter}{\numberline {44}Colofon}{501}{chapter.44}%
\contentsline {section}{\numberline {44.1}Auteurs}{501}{section.44.1}%
\contentsline {section}{\numberline {44.2}Datasets}{501}{section.44.2}%
\contentsline {section}{\numberline {44.3}Figuren}{501}{section.44.3}%
\contentsline {section}{\numberline {44.4}R packages}{501}{section.44.4}%
\contentsline {chapter}{\numberline {45}Referenties}{503}{chapter.45}%
