<?xml version="1.0" encoding="UTF-8" standalone="no"?>
<!DOCTYPE svg PUBLIC "-//W3C//DTD SVG 1.1//EN"
 "http://www.w3.org/Graphics/SVG/1.1/DTD/svg11.dtd">
<!-- Generated by graphviz version 2.50.0 (20211204.2007)
 -->
<!-- Pages: 1 -->
<svg width="359pt" height="386pt"
 viewBox="0.00 0.00 358.59 386.18" xmlns="http://www.w3.org/2000/svg" xmlns:xlink="http://www.w3.org/1999/xlink">
<g id="graph0" class="graph" transform="scale(1 1) rotate(0) translate(36 350.18)">
<polygon fill="white" stroke="transparent" points="-36,36 -36,-350.18 322.59,-350.18 322.59,36 -36,36"/>
<!-- item1 -->
<g id="node1" class="node">
<title>item1</title>
<ellipse fill="#cccccc" stroke="black" stroke-width="2" cx="44.15" cy="-152.82" rx="44.3" ry="44.3"/>
<text text-anchor="middle" x="44.15" y="-156.62" font-family="arial" font-size="14.00">Score op</text>
<text text-anchor="middle" x="44.15" y="-141.62" font-family="arial" font-size="14.00">item 1</text>
</g>
<!-- item2 -->
<g id="node2" class="node">
<title>item2</title>
<ellipse fill="#cccccc" stroke="black" stroke-width="2" cx="142.92" cy="-97.91" rx="44.3" ry="44.3"/>
<text text-anchor="middle" x="142.92" y="-101.71" font-family="arial" font-size="14.00">Score op</text>
<text text-anchor="middle" x="142.92" y="-86.71" font-family="arial" font-size="14.00">item 2</text>
</g>
<!-- item1&#45;&gt;item2 -->
<g id="edge1" class="edge">
<title>item1&#45;&gt;item2</title>
<path fill="none" stroke="black" stroke-width="2" d="M82.9,-131.28C86.97,-129.02 91.13,-126.71 95.27,-124.4"/>
<polygon fill="black" stroke="black" stroke-width="2" points="97.24,-127.31 104.28,-119.39 93.84,-121.19 97.24,-127.31"/>
</g>
<!-- item3 -->
<g id="node3" class="node">
<title>item3</title>
<ellipse fill="#cccccc" stroke="black" stroke-width="2" cx="242.44" cy="-44.15" rx="44.3" ry="44.3"/>
<text text-anchor="middle" x="242.44" y="-47.95" font-family="arial" font-size="14.00">Score op</text>
<text text-anchor="middle" x="242.44" y="-32.95" font-family="arial" font-size="14.00">item 3</text>
</g>
<!-- item2&#45;&gt;item3 -->
<g id="edge3" class="edge">
<title>item2&#45;&gt;item3</title>
<path fill="none" stroke="black" stroke-width="2" d="M181.97,-76.82C186.06,-74.61 190.25,-72.34 194.43,-70.09"/>
<polygon fill="black" stroke="black" stroke-width="2" points="196.37,-73.02 203.51,-65.18 193.04,-66.86 196.37,-73.02"/>
</g>
<!-- item4 -->
<g id="node4" class="node">
<title>item4</title>
<ellipse fill="#cccccc" stroke="black" stroke-width="2" cx="240.54" cy="-157.13" rx="44.3" ry="44.3"/>
<text text-anchor="middle" x="240.54" y="-160.93" font-family="arial" font-size="14.00">Score op</text>
<text text-anchor="middle" x="240.54" y="-145.93" font-family="arial" font-size="14.00">item 4</text>
</g>
<!-- item2&#45;&gt;item4 -->
<g id="edge2" class="edge">
<title>item2&#45;&gt;item4</title>
<path fill="none" stroke="black" stroke-width="2" d="M180.94,-120.98C185.2,-123.56 189.58,-126.22 193.93,-128.85"/>
<polygon fill="black" stroke="black" stroke-width="2" points="192.42,-132.03 202.78,-134.23 196.05,-126.05 192.42,-132.03"/>
</g>
<!-- item3&#45;&gt;item4 -->
<g id="edge4" class="edge">
<title>item3&#45;&gt;item4</title>
<path fill="none" stroke="black" stroke-width="2" d="M241.69,-88.48C241.61,-93.12 241.53,-97.89 241.45,-102.63"/>
<polygon fill="black" stroke="black" stroke-width="2" points="237.95,-102.87 241.28,-112.93 244.95,-102.99 237.95,-102.87"/>
</g>
<!-- item5 -->
<g id="node5" class="node">
<title>item5</title>
<ellipse fill="#cccccc" stroke="black" stroke-width="2" cx="237.71" cy="-270.03" rx="44.3" ry="44.3"/>
<text text-anchor="middle" x="237.71" y="-273.83" font-family="arial" font-size="14.00">Score op</text>
<text text-anchor="middle" x="237.71" y="-258.83" font-family="arial" font-size="14.00">item 5</text>
</g>
<!-- item4&#45;&gt;item5 -->
<g id="edge6" class="edge">
<title>item4&#45;&gt;item5</title>
<path fill="none" stroke="black" stroke-width="2" d="M239.43,-201.43C239.31,-206.07 239.19,-210.83 239.07,-215.57"/>
<polygon fill="black" stroke="black" stroke-width="2" points="235.57,-215.78 238.82,-225.86 242.57,-215.95 235.57,-215.78"/>
</g>
<!-- item6 -->
<g id="node6" class="node">
<title>item6</title>
<ellipse fill="#cccccc" stroke="black" stroke-width="2" cx="140.45" cy="-212.21" rx="44.3" ry="44.3"/>
<text text-anchor="middle" x="140.45" y="-216.01" font-family="arial" font-size="14.00">Score op</text>
<text text-anchor="middle" x="140.45" y="-201.01" font-family="arial" font-size="14.00">item 6</text>
</g>
<!-- item4&#45;&gt;item6 -->
<g id="edge5" class="edge">
<title>item4&#45;&gt;item6</title>
<path fill="none" stroke="black" stroke-width="2" d="M201.84,-178.43C197.35,-180.9 192.73,-183.44 188.13,-185.97"/>
<polygon fill="black" stroke="black" stroke-width="2" points="186.45,-182.9 179.37,-190.79 189.82,-189.03 186.45,-182.9"/>
</g>
<!-- item5&#45;&gt;item6 -->
<g id="edge7" class="edge">
<title>item5&#45;&gt;item6</title>
<path fill="none" stroke="black" stroke-width="2" d="M199.55,-247.35C195.55,-244.97 191.45,-242.53 187.37,-240.1"/>
<polygon fill="black" stroke="black" stroke-width="2" points="188.88,-236.93 178.5,-234.83 185.31,-242.95 188.88,-236.93"/>
</g>
<!-- item6&#45;&gt;item1 -->
<g id="edge9" class="edge">
<title>item6&#45;&gt;item1</title>
<path fill="none" stroke="black" stroke-width="2" d="M102.67,-188.91C98.71,-186.47 94.65,-183.96 90.6,-181.47"/>
<polygon fill="black" stroke="black" stroke-width="2" points="92.17,-178.33 81.82,-176.05 88.5,-184.28 92.17,-178.33"/>
</g>
<!-- item6&#45;&gt;item2 -->
<g id="edge8" class="edge">
<title>item6&#45;&gt;item2</title>
<path fill="none" stroke="black" stroke-width="2" d="M141.41,-168.02C141.52,-162.89 141.63,-157.61 141.74,-152.37"/>
<polygon fill="black" stroke="black" stroke-width="2" points="145.24,-152.44 141.96,-142.36 138.24,-152.29 145.24,-152.44"/>
</g>
</g>
</svg>
