<?xml version="1.0" encoding="UTF-8" standalone="no"?>
<!DOCTYPE svg PUBLIC "-//W3C//DTD SVG 1.1//EN"
 "http://www.w3.org/Graphics/SVG/1.1/DTD/svg11.dtd">
<!-- Generated by graphviz version 2.50.0 (20211204.2007)
 -->
<!-- Pages: 1 -->
<svg width="425pt" height="421pt"
 viewBox="0.00 0.00 425.00 421.00" xmlns="http://www.w3.org/2000/svg" xmlns:xlink="http://www.w3.org/1999/xlink">
<g id="graph0" class="graph" transform="scale(1 1) rotate(0) translate(36 385)">
<polygon fill="white" stroke="transparent" points="-36,36 -36,-385 389,-385 389,36 -36,36"/>
<!-- construct -->
<g id="node1" class="node">
<title>construct</title>
<ellipse fill="none" stroke="black" stroke-width="2" cx="187.61" cy="-184.56" rx="40.76" ry="40.76"/>
<text text-anchor="middle" x="187.61" y="-180.86" font-family="arial" font-size="14.00">Construct</text>
</g>
<!-- item1 -->
<g id="node2" class="node">
<title>item1</title>
<ellipse fill="#cccccc" stroke="black" stroke-width="2" cx="44.38" cy="-149.13" rx="44.3" ry="44.3"/>
<text text-anchor="middle" x="44.38" y="-152.93" font-family="arial" font-size="14.00">Score op</text>
<text text-anchor="middle" x="44.38" y="-137.93" font-family="arial" font-size="14.00">item 1</text>
</g>
<!-- item1&#45;&gt;construct -->
<g id="edge1" class="edge">
<title>item1&#45;&gt;construct</title>
<path fill="none" stroke="black" stroke-width="2" d="M87.35,-159.76C103.32,-163.71 121.56,-168.22 138.07,-172.31"/>
<polygon fill="black" stroke="black" stroke-width="2" points="137.54,-175.78 148.09,-174.78 139.22,-168.98 137.54,-175.78"/>
</g>
<!-- item2 -->
<g id="node3" class="node">
<title>item2</title>
<ellipse fill="#cccccc" stroke="black" stroke-width="2" cx="139.85" cy="-43.8" rx="44.3" ry="44.3"/>
<text text-anchor="middle" x="139.85" y="-47.6" font-family="arial" font-size="14.00">Score op</text>
<text text-anchor="middle" x="139.85" y="-32.6" font-family="arial" font-size="14.00">item 2</text>
</g>
<!-- item2&#45;&gt;construct -->
<g id="edge2" class="edge">
<title>item2&#45;&gt;construct</title>
<path fill="none" stroke="black" stroke-width="2" d="M154.05,-85.65C159.47,-101.64 165.7,-119.99 171.31,-136.51"/>
<polygon fill="black" stroke="black" stroke-width="2" points="168,-137.65 174.52,-145.99 174.62,-135.4 168,-137.65"/>
</g>
<!-- item3 -->
<g id="node4" class="node">
<title>item3</title>
<ellipse fill="#cccccc" stroke="black" stroke-width="2" cx="221.37" cy="-304.46" rx="44.3" ry="44.3"/>
<text text-anchor="middle" x="221.37" y="-308.26" font-family="arial" font-size="14.00">Score op</text>
<text text-anchor="middle" x="221.37" y="-293.26" font-family="arial" font-size="14.00">item 3</text>
</g>
<!-- item3&#45;&gt;construct -->
<g id="edge3" class="edge">
<title>item3&#45;&gt;construct</title>
<path fill="none" stroke="black" stroke-width="2" d="M209.37,-261.85C206.78,-252.66 204.03,-242.87 201.38,-233.46"/>
<polygon fill="black" stroke="black" stroke-width="2" points="204.75,-232.51 198.67,-223.83 198.01,-234.41 204.75,-232.51"/>
</g>
<!-- item4 -->
<g id="node5" class="node">
<title>item4</title>
<ellipse fill="#cccccc" stroke="black" stroke-width="2" cx="308.43" cy="-208.16" rx="44.3" ry="44.3"/>
<text text-anchor="middle" x="308.43" y="-211.96" font-family="arial" font-size="14.00">Score op</text>
<text text-anchor="middle" x="308.43" y="-196.96" font-family="arial" font-size="14.00">item 4</text>
</g>
<!-- item4&#45;&gt;construct -->
<g id="edge4" class="edge">
<title>item4&#45;&gt;construct</title>
<path fill="none" stroke="black" stroke-width="2" d="M264.81,-199.64C255.97,-197.92 246.61,-196.09 237.57,-194.32"/>
<polygon fill="black" stroke="black" stroke-width="2" points="238.03,-190.84 227.54,-192.36 236.69,-197.71 238.03,-190.84"/>
</g>
<!-- item5 -->
<g id="node6" class="node">
<title>item5</title>
<ellipse fill="#cccccc" stroke="black" stroke-width="2" cx="92.56" cy="-278.84" rx="44.3" ry="44.3"/>
<text text-anchor="middle" x="92.56" y="-282.64" font-family="arial" font-size="14.00">Score op</text>
<text text-anchor="middle" x="92.56" y="-267.64" font-family="arial" font-size="14.00">item 5</text>
</g>
<!-- item5&#45;&gt;construct -->
<g id="edge5" class="edge">
<title>item5&#45;&gt;construct</title>
<path fill="none" stroke="black" stroke-width="2" d="M123.95,-247.71C132.73,-238.99 142.36,-229.44 151.4,-220.47"/>
<polygon fill="black" stroke="black" stroke-width="2" points="153.87,-222.95 158.51,-213.43 148.94,-217.98 153.87,-222.95"/>
</g>
<!-- item6 -->
<g id="node7" class="node">
<title>item6</title>
<ellipse fill="#cccccc" stroke="black" stroke-width="2" cx="272.65" cy="-82.46" rx="44.3" ry="44.3"/>
<text text-anchor="middle" x="272.65" y="-86.26" font-family="arial" font-size="14.00">Score op</text>
<text text-anchor="middle" x="272.65" y="-71.26" font-family="arial" font-size="14.00">item 6</text>
</g>
<!-- item6&#45;&gt;construct -->
<g id="edge6" class="edge">
<title>item6&#45;&gt;construct</title>
<path fill="none" stroke="black" stroke-width="2" d="M244.33,-116.45C236.63,-125.7 228.23,-135.79 220.31,-145.3"/>
<polygon fill="black" stroke="black" stroke-width="2" points="217.5,-143.2 213.79,-153.12 222.88,-147.68 217.5,-143.2"/>
</g>
</g>
</svg>
