<?xml version="1.0" encoding="UTF-8" standalone="no"?>
<!DOCTYPE svg PUBLIC "-//W3C//DTD SVG 1.1//EN"
 "http://www.w3.org/Graphics/SVG/1.1/DTD/svg11.dtd">
<!-- Generated by graphviz version 2.50.0 (20211204.2007)
 -->
<!-- Pages: 1 -->
<svg width="443pt" height="412pt"
 viewBox="0.00 0.00 443.48 412.33" xmlns="http://www.w3.org/2000/svg" xmlns:xlink="http://www.w3.org/1999/xlink">
<g id="graph0" class="graph" transform="scale(1 1) rotate(0) translate(36 376.33)">
<polygon fill="white" stroke="transparent" points="-36,36 -36,-376.33 407.48,-376.33 407.48,36 -36,36"/>
<!-- leuk -->
<g id="node1" class="node">
<title>leuk</title>
<ellipse fill="grey" stroke="black" stroke-width="4" cx="180.3" cy="-175.69" rx="49.4" ry="49.4"/>
<text text-anchor="middle" x="180.3" y="-179.49" font-family="arial" font-size="14.00">Leuk</text>
<text text-anchor="middle" x="180.3" y="-164.49" font-family="arial" font-size="14.00">onderwerp</text>
</g>
<!-- nuttig -->
<g id="node3" class="node">
<title>nuttig</title>
<ellipse fill="grey" stroke="black" stroke-width="4" cx="287.2" cy="-133.61" rx="49.4" ry="49.4"/>
<text text-anchor="middle" x="287.2" y="-137.41" font-family="arial" font-size="14.00">Nuttig</text>
<text text-anchor="middle" x="287.2" y="-122.41" font-family="arial" font-size="14.00">onderwerp</text>
</g>
<!-- leuk&#45;&#45;nuttig -->
<g id="edge1" class="edge">
<title>leuk&#45;&#45;nuttig</title>
<path fill="none" stroke="black" stroke-width="2" d="M226.56,-157.48C231.3,-155.61 236.12,-153.72 240.86,-151.85"/>
</g>
<!-- interessant -->
<g id="node4" class="node">
<title>interessant</title>
<ellipse fill="grey" stroke="black" stroke-width="0" cx="317.33" cy="-270.97" rx="54.31" ry="54.31"/>
<text text-anchor="middle" x="317.33" y="-274.77" font-family="arial" font-size="14.00">Interessant&#45;</text>
<text text-anchor="middle" x="317.33" y="-259.77" font-family="arial" font-size="14.00">heid</text>
</g>
<!-- leuk&#45;&#45;interessant -->
<g id="edge2" class="edge">
<title>leuk&#45;&#45;interessant</title>
<path fill="none" stroke="black" stroke-width="2" d="M221.04,-204.02C237.29,-215.32 256.05,-228.37 272.67,-239.92"/>
</g>
<!-- wil -->
<g id="node5" class="node">
<title>wil</title>
<ellipse fill="none" stroke="black" stroke-width="4" cx="44.55" cy="-182.41" rx="44.6" ry="44.6"/>
<text text-anchor="middle" x="44.55" y="-193.71" font-family="arial" font-size="14.00">Intentie</text>
<text text-anchor="middle" x="44.55" y="-178.71" font-family="arial" font-size="14.00">om te</text>
<text text-anchor="middle" x="44.55" y="-163.71" font-family="arial" font-size="14.00">leren</text>
</g>
<!-- leuk&#45;&#45;wil -->
<g id="edge4" class="edge">
<title>leuk&#45;&#45;wil</title>
<path fill="none" stroke="black" stroke-width="2" d="M130.91,-178.14C117.26,-178.81 102.54,-179.54 89.18,-180.2"/>
</g>
<!-- fascinerend -->
<g id="node6" class="node">
<title>fascinerend</title>
<ellipse fill="grey" stroke="black" stroke-width="0" cx="177.59" cy="-290.2" rx="50.25" ry="50.25"/>
<text text-anchor="middle" x="177.59" y="-286.5" font-family="arial" font-size="14.00">Fascinerend</text>
</g>
<!-- leuk&#45;&#45;fascinerend -->
<g id="edge3" class="edge">
<title>leuk&#45;&#45;fascinerend</title>
<path fill="none" stroke="black" stroke-width="2" d="M179.13,-225.25C179.01,-230.09 178.89,-235 178.78,-239.84"/>
</g>
<!-- discipline -->
<g id="node2" class="node">
<title>discipline</title>
<ellipse fill="none" stroke="black" stroke-width="4" cx="141.84" cy="-44.74" rx="44.98" ry="44.98"/>
<text text-anchor="middle" x="141.84" y="-48.54" font-family="arial" font-size="14.00">Veel</text>
<text text-anchor="middle" x="141.84" y="-33.54" font-family="arial" font-size="14.00">discipline</text>
</g>
<!-- discipline&#45;&#45;leuk -->
<g id="edge7" class="edge">
<title>discipline&#45;&#45;leuk</title>
<path fill="none" stroke="black" stroke-width="2" d="M154.54,-87.98C158.3,-100.79 162.44,-114.9 166.29,-127.98"/>
</g>
<!-- discipline&#45;&#45;nuttig -->
<g id="edge5" class="edge">
<title>discipline&#45;&#45;nuttig</title>
<path fill="none" stroke="black" stroke-width="2" d="M180.03,-68.09C199.96,-80.28 224.41,-95.22 244.91,-107.76"/>
</g>
<!-- discipline&#45;&#45;wil -->
<g id="edge6" class="edge">
<title>discipline&#45;&#45;wil</title>
<path fill="none" stroke="black" stroke-width="2" d="M115.76,-81.63C101.69,-101.54 84.38,-126.04 70.35,-145.89"/>
</g>
<!-- nuttig&#45;&#45;interessant -->
<g id="edge8" class="edge">
<title>nuttig&#45;&#45;interessant</title>
<path fill="none" stroke="black" stroke-width="2" d="M297.82,-182.04C300.36,-193.63 303.09,-206.06 305.67,-217.84"/>
</g>
<!-- nuttig&#45;&#45;fascinerend -->
<g id="edge10" class="edge">
<title>nuttig&#45;&#45;fascinerend</title>
<path fill="none" stroke="black" stroke-width="2" d="M258.68,-174.35C242.57,-197.36 222.49,-226.06 206.34,-249.13"/>
</g>
<!-- fascinerend&#45;&#45;interessant -->
<g id="edge9" class="edge">
<title>fascinerend&#45;&#45;interessant</title>
<path fill="none" stroke="black" stroke-width="2" d="M227.25,-283.37C239.01,-281.75 251.62,-280.01 263.56,-278.37"/>
</g>
<!-- fascinerend&#45;&#45;wil -->
<g id="edge11" class="edge">
<title>fascinerend&#45;&#45;wil</title>
<path fill="none" stroke="black" stroke-width="2" d="M138.39,-258.44C119.69,-243.29 97.5,-225.31 79.39,-210.64"/>
</g>
</g>
</svg>
