<?xml version="1.0" encoding="UTF-8" standalone="no"?>
<!DOCTYPE svg PUBLIC "-//W3C//DTD SVG 1.1//EN"
 "http://www.w3.org/Graphics/SVG/1.1/DTD/svg11.dtd">
<!-- Generated by graphviz version 2.50.0 (20211204.2007)
 -->
<!-- Pages: 1 -->
<svg width="288pt" height="108pt"
 viewBox="0.00 0.00 288.00 108.00" xmlns="http://www.w3.org/2000/svg" xmlns:xlink="http://www.w3.org/1999/xlink">
<g id="graph0" class="graph" transform="scale(1 1) rotate(0) translate(36 72)">
<polygon fill="white" stroke="transparent" points="-36,36 -36,-72 252,-72 252,36 -36,36"/>
<!-- x -->
<g id="node1" class="node">
<title>x</title>
<ellipse fill="none" stroke="black" stroke-width="2" cx="36" cy="-18" rx="36" ry="18"/>
<text text-anchor="middle" x="36" y="-14.3" font-family="arial" font-size="14.00">x</text>
</g>
<!-- y -->
<g id="node2" class="node">
<title>y</title>
<ellipse fill="none" stroke="black" stroke-width="2" cx="180" cy="-18" rx="36" ry="18"/>
<text text-anchor="middle" x="180" y="-14.3" font-family="arial" font-size="14.00">y</text>
</g>
<!-- x&#45;&gt;y -->
<g id="edge1" class="edge">
<title>x&#45;&gt;y</title>
<path fill="none" stroke="black" stroke-width="2" d="M72.1,-18C90.7,-18 113.77,-18 133.71,-18"/>
<polygon fill="black" stroke="black" stroke-width="2" points="133.81,-21.5 143.81,-18 133.81,-14.5 133.81,-21.5"/>
</g>
</g>
</svg>
