<?xml version="1.0" encoding="UTF-8" standalone="no"?>
<!DOCTYPE svg PUBLIC "-//W3C//DTD SVG 1.1//EN"
 "http://www.w3.org/Graphics/SVG/1.1/DTD/svg11.dtd">
<!-- Generated by graphviz version 2.50.0 (20211204.2007)
 -->
<!-- Pages: 1 -->
<svg width="1028pt" height="1099pt"
 viewBox="0.00 0.00 1028.30 1099.04" xmlns="http://www.w3.org/2000/svg" xmlns:xlink="http://www.w3.org/1999/xlink">
<g id="graph0" class="graph" transform="scale(1 1) rotate(0) translate(36 1063.04)">
<polygon fill="white" stroke="transparent" points="-36,36 -36,-1063.04 992.3,-1063.04 992.3,36 -36,36"/>
<!-- shame -->
<g id="node1" class="node">
<title>shame</title>
<ellipse fill="none" stroke="black" stroke-width="2" cx="53.25" cy="-615.99" rx="42.42" ry="42.42"/>
<text text-anchor="middle" x="53.25" y="-612.29" font-family="arial" font-size="14.00">Schaamte</text>
</g>
<!-- guiltiness -->
<g id="node2" class="node">
<title>guiltiness</title>
<ellipse fill="none" stroke="black" stroke-width="2" cx="36" cy="-845.61" rx="36" ry="36"/>
<text text-anchor="middle" x="36" y="-849.41" font-family="arial" font-size="14.00">Schuld</text>
<text text-anchor="middle" x="36" y="-834.41" font-family="arial" font-size="14.00">gevoel</text>
</g>
<!-- shame&#45;&#45;guiltiness -->
<g id="edge1" class="edge">
<title>shame&#45;&#45;guiltiness</title>
<path fill="none" stroke="black" stroke-width="2" d="M50.08,-658.1C46.82,-701.48 41.8,-768.36 38.72,-809.43"/>
</g>
<!-- pleasantness -->
<g id="node3" class="node">
<title>pleasantness</title>
<ellipse fill="none" stroke="black" stroke-width="2" cx="210.66" cy="-755.64" rx="36" ry="36"/>
<text text-anchor="middle" x="210.66" y="-751.94" font-family="arial" font-size="14.00">Genot</text>
</g>
<!-- shame&#45;&#45;pleasantness -->
<g id="edge2" class="edge">
<title>shame&#45;&#45;pleasantness</title>
<path fill="none" stroke="black" stroke-width="2" d="M85.1,-644.25C114.03,-669.91 156.23,-707.35 183.57,-731.61"/>
</g>
<!-- beneficiality -->
<g id="node15" class="node">
<title>beneficiality</title>
<ellipse fill="black" stroke="black" stroke-width="2" cx="257.34" cy="-529.4" rx="43.62" ry="43.62"/>
<text text-anchor="middle" x="257.34" y="-533.2" font-family="arial" font-size="14.00" fill="white">Voor&#45;</text>
<text text-anchor="middle" x="257.34" y="-518.2" font-family="arial" font-size="14.00" fill="white">deligheid</text>
</g>
<!-- shame&#45;&#45;beneficiality -->
<g id="edge3" class="edge">
<title>shame&#45;&#45;beneficiality</title>
<path fill="none" stroke="black" stroke-width="2" d="M92.11,-599.5C127.97,-584.29 180.97,-561.8 217.22,-546.42"/>
</g>
<!-- satisfaction -->
<g id="node17" class="node">
<title>satisfaction</title>
<ellipse fill="none" stroke="black" stroke-width="2" cx="227.87" cy="-967" rx="60.09" ry="60.09"/>
<text text-anchor="middle" x="227.87" y="-970.8" font-family="arial" font-size="14.00">Bevredigend&#45;</text>
<text text-anchor="middle" x="227.87" y="-955.8" font-family="arial" font-size="14.00">heid</text>
</g>
<!-- guiltiness&#45;&#45;satisfaction -->
<g id="edge42" class="edge">
<title>guiltiness&#45;&#45;satisfaction</title>
<path fill="none" stroke="black" stroke-width="2" d="M66.83,-865.11C96.49,-883.88 141.87,-912.59 176.91,-934.76"/>
</g>
<!-- pleasantness&#45;&#45;guiltiness -->
<g id="edge4" class="edge">
<title>pleasantness&#45;&#45;guiltiness</title>
<path fill="none" stroke="black" stroke-width="2" d="M178.63,-772.14C147.21,-788.32 99.58,-812.86 68.13,-829.06"/>
</g>
<!-- interestingness -->
<g id="node4" class="node">
<title>interestingness</title>
<ellipse fill="none" stroke="black" stroke-width="2" cx="466.9" cy="-719.03" rx="54.31" ry="54.31"/>
<text text-anchor="middle" x="466.9" y="-722.83" font-family="arial" font-size="14.00">Interessant&#45;</text>
<text text-anchor="middle" x="466.9" y="-707.83" font-family="arial" font-size="14.00">heid</text>
</g>
<!-- pleasantness&#45;&#45;interestingness -->
<g id="edge8" class="edge">
<title>pleasantness&#45;&#45;interestingness</title>
<path fill="none" stroke="black" stroke-width="2" d="M246.56,-750.51C289.81,-744.33 362.88,-733.89 412.93,-726.74"/>
</g>
<!-- harmfulness -->
<g id="node14" class="node">
<title>harmfulness</title>
<ellipse fill="black" stroke="black" stroke-width="2" cx="376.86" cy="-606.55" rx="49.49" ry="49.49"/>
<text text-anchor="middle" x="376.86" y="-617.85" font-family="arial" font-size="14.00" fill="white">Schade&#45;</text>
<text text-anchor="middle" x="376.86" y="-602.85" font-family="arial" font-size="14.00" fill="white">lijk</text>
<text text-anchor="middle" x="376.86" y="-587.85" font-family="arial" font-size="14.00" fill="white">heid</text>
</g>
<!-- pleasantness&#45;&#45;harmfulness -->
<g id="edge7" class="edge">
<title>pleasantness&#45;&#45;harmfulness</title>
<path fill="none" stroke="black" stroke-width="2" d="M237.73,-731.35C265.51,-706.43 308.92,-667.49 339.86,-639.74"/>
</g>
<!-- goodness -->
<g id="node16" class="node">
<title>goodness</title>
<ellipse fill="black" stroke="black" stroke-width="2" cx="362.53" cy="-805.89" rx="42.42" ry="42.42"/>
<text text-anchor="middle" x="362.53" y="-802.19" font-family="arial" font-size="14.00" fill="white">Goedheid</text>
</g>
<!-- pleasantness&#45;&#45;goodness -->
<g id="edge6" class="edge">
<title>pleasantness&#45;&#45;goodness</title>
<path fill="none" stroke="black" stroke-width="2" d="M245.12,-767.04C268.05,-774.63 298.26,-784.62 322.29,-792.57"/>
</g>
<!-- pleasantness&#45;&#45;satisfaction -->
<g id="edge5" class="edge">
<title>pleasantness&#45;&#45;satisfaction</title>
<path fill="none" stroke="black" stroke-width="2" d="M213.62,-791.97C216.19,-823.49 219.95,-869.73 222.97,-906.77"/>
</g>
<!-- obstacles -->
<g id="node5" class="node">
<title>obstacles</title>
<ellipse fill="none" stroke="black" stroke-width="2" cx="623.42" cy="-814.92" rx="50.75" ry="50.75"/>
<text text-anchor="middle" x="623.42" y="-818.72" font-family="arial" font-size="14.00">Aanwezige</text>
<text text-anchor="middle" x="623.42" y="-803.72" font-family="arial" font-size="14.00">obstakels</text>
</g>
<!-- interestingness&#45;&#45;obstacles -->
<g id="edge11" class="edge">
<title>interestingness&#45;&#45;obstacles</title>
<path fill="none" stroke="black" stroke-width="2" d="M513.44,-747.54C534.52,-760.46 559.31,-775.64 580.01,-788.32"/>
</g>
<!-- easiness -->
<g id="node7" class="node">
<title>easiness</title>
<ellipse fill="none" stroke="black" stroke-width="2" cx="612.86" cy="-609.55" rx="36" ry="36"/>
<text text-anchor="middle" x="612.86" y="-605.85" font-family="arial" font-size="14.00">Gemak</text>
</g>
<!-- interestingness&#45;&#45;easiness -->
<g id="edge10" class="edge">
<title>interestingness&#45;&#45;easiness</title>
<path fill="none" stroke="black" stroke-width="2" d="M510.3,-686.48C533.99,-668.71 562.7,-647.18 583.71,-631.42"/>
</g>
<!-- cleanness -->
<g id="node13" class="node">
<title>cleanness</title>
<ellipse fill="none" stroke="black" stroke-width="2" cx="482.35" cy="-465.13" rx="36" ry="36"/>
<text text-anchor="middle" x="482.35" y="-461.43" font-family="arial" font-size="14.00">Netheid</text>
</g>
<!-- interestingness&#45;&#45;cleanness -->
<g id="edge12" class="edge">
<title>interestingness&#45;&#45;cleanness</title>
<path fill="none" stroke="black" stroke-width="2" d="M470.2,-664.88C473.2,-615.5 477.55,-543.94 480.15,-501.22"/>
</g>
<!-- interestingness&#45;&#45;harmfulness -->
<g id="edge9" class="edge">
<title>interestingness&#45;&#45;harmfulness</title>
<path fill="none" stroke="black" stroke-width="2" d="M432.86,-676.51C424.69,-666.31 416.01,-655.46 407.98,-645.43"/>
</g>
<!-- interestingness&#45;&#45;goodness -->
<g id="edge14" class="edge">
<title>interestingness&#45;&#45;goodness</title>
<path fill="none" stroke="black" stroke-width="2" d="M425.05,-753.86C415.07,-762.17 404.56,-770.91 395.07,-778.81"/>
</g>
<!-- fun -->
<g id="node18" class="node">
<title>fun</title>
<ellipse fill="none" stroke="black" stroke-width="2" cx="467.26" cy="-944.75" rx="36" ry="36"/>
<text text-anchor="middle" x="467.26" y="-941.05" font-family="arial" font-size="14.00">Lol</text>
</g>
<!-- interestingness&#45;&#45;fun -->
<g id="edge13" class="edge">
<title>interestingness&#45;&#45;fun</title>
<path fill="none" stroke="black" stroke-width="2" d="M466.99,-773.39C467.05,-815.26 467.14,-871.98 467.2,-908.48"/>
</g>
<!-- skill -->
<g id="node6" class="node">
<title>skill</title>
<ellipse fill="none" stroke="black" stroke-width="2" cx="796.86" cy="-646.67" rx="38.03" ry="38.03"/>
<text text-anchor="middle" x="796.86" y="-650.47" font-family="arial" font-size="14.00">Vaardig</text>
<text text-anchor="middle" x="796.86" y="-635.47" font-family="arial" font-size="14.00">heid</text>
</g>
<!-- obstacles&#45;&#45;skill -->
<g id="edge15" class="edge">
<title>obstacles&#45;&#45;skill</title>
<path fill="none" stroke="black" stroke-width="2" d="M659.78,-779.65C692.46,-747.94 739.74,-702.08 769.37,-673.34"/>
</g>
<!-- obstacles&#45;&#45;easiness -->
<g id="edge16" class="edge">
<title>obstacles&#45;&#45;easiness</title>
<path fill="none" stroke="black" stroke-width="2" d="M620.81,-764.15C618.91,-727.33 616.4,-678.42 614.71,-645.56"/>
</g>
<!-- obstacles&#45;&#45;goodness -->
<g id="edge18" class="edge">
<title>obstacles&#45;&#45;goodness</title>
<path fill="none" stroke="black" stroke-width="2" d="M572.81,-813.16C523.91,-811.47 450.69,-808.94 404.82,-807.35"/>
</g>
<!-- obstacles&#45;&#45;fun -->
<g id="edge17" class="edge">
<title>obstacles&#45;&#45;fun</title>
<path fill="none" stroke="black" stroke-width="2" d="M584.42,-847.34C556.59,-870.48 519.85,-901.03 494.98,-921.7"/>
</g>
<!-- skill&#45;&#45;easiness -->
<g id="edge20" class="edge">
<title>skill&#45;&#45;easiness</title>
<path fill="none" stroke="black" stroke-width="2" d="M759.18,-639.07C726.69,-632.51 680.12,-623.12 648.3,-616.7"/>
</g>
<!-- etiquette -->
<g id="node8" class="node">
<title>etiquette</title>
<ellipse fill="none" stroke="black" stroke-width="2" cx="708.61" cy="-432.13" rx="52.28" ry="52.28"/>
<text text-anchor="middle" x="708.61" y="-435.93" font-family="arial" font-size="14.00">Volgens de</text>
<text text-anchor="middle" x="708.61" y="-420.93" font-family="arial" font-size="14.00">etiquette</text>
</g>
<!-- skill&#45;&#45;etiquette -->
<g id="edge21" class="edge">
<title>skill&#45;&#45;etiquette</title>
<path fill="none" stroke="black" stroke-width="2" d="M782.29,-611.24C767.65,-575.66 744.98,-520.55 728.65,-480.86"/>
</g>
<!-- excitingness -->
<g id="node19" class="node">
<title>excitingness</title>
<ellipse fill="none" stroke="black" stroke-width="2" cx="905.68" cy="-449.41" rx="50.75" ry="50.75"/>
<text text-anchor="middle" x="905.68" y="-453.21" font-family="arial" font-size="14.00">Spannend&#45;</text>
<text text-anchor="middle" x="905.68" y="-438.21" font-family="arial" font-size="14.00">heid</text>
</g>
<!-- skill&#45;&#45;excitingness -->
<g id="edge19" class="edge">
<title>skill&#45;&#45;excitingness</title>
<path fill="none" stroke="black" stroke-width="2" d="M815.57,-612.76C833.67,-579.93 861.23,-529.98 881.1,-493.96"/>
</g>
<!-- etiquette&#45;&#45;easiness -->
<g id="edge26" class="edge">
<title>etiquette&#45;&#45;easiness</title>
<path fill="none" stroke="black" stroke-width="2" d="M683.7,-478.28C666.85,-509.5 645.04,-549.92 630.09,-577.62"/>
</g>
<!-- scariness -->
<g id="node9" class="node">
<title>scariness</title>
<ellipse fill="none" stroke="black" stroke-width="2" cx="810.37" cy="-243.92" rx="60.62" ry="60.62"/>
<text text-anchor="middle" x="810.37" y="-255.22" font-family="arial" font-size="14.00">Angst&#45;</text>
<text text-anchor="middle" x="810.37" y="-240.22" font-family="arial" font-size="14.00">aanjagend&#45;</text>
<text text-anchor="middle" x="810.37" y="-225.22" font-family="arial" font-size="14.00">heid</text>
</g>
<!-- etiquette&#45;&#45;scariness -->
<g id="edge25" class="edge">
<title>etiquette&#45;&#45;scariness</title>
<path fill="none" stroke="black" stroke-width="2" d="M733.76,-385.61C748.18,-358.93 766.34,-325.35 781.36,-297.57"/>
</g>
<!-- parents_appr -->
<g id="node12" class="node">
<title>parents_appr</title>
<ellipse fill="grey" stroke="black" stroke-width="2" cx="586" cy="-270.48" rx="43.68" ry="43.68"/>
<text text-anchor="middle" x="586" y="-281.78" font-family="arial" font-size="14.00">Goed&#45;</text>
<text text-anchor="middle" x="586" y="-266.78" font-family="arial" font-size="14.00">keuring</text>
<text text-anchor="middle" x="586" y="-251.78" font-family="arial" font-size="14.00">ouders</text>
</g>
<!-- etiquette&#45;&#45;parents_appr -->
<g id="edge23" class="edge">
<title>etiquette&#45;&#45;parents_appr</title>
<path fill="none" stroke="black" stroke-width="2" d="M676.71,-390.08C656.78,-363.79 631.4,-330.34 612.56,-305.5"/>
</g>
<!-- etiquette&#45;&#45;cleanness -->
<g id="edge24" class="edge">
<title>etiquette&#45;&#45;cleanness</title>
<path fill="none" stroke="black" stroke-width="2" d="M656.7,-439.7C614.3,-445.88 555.47,-454.46 518.16,-459.9"/>
</g>
<!-- etiquette&#45;&#45;excitingness -->
<g id="edge22" class="edge">
<title>etiquette&#45;&#45;excitingness</title>
<path fill="none" stroke="black" stroke-width="2" d="M760.9,-436.71C790.09,-439.27 826.29,-442.45 855.18,-444.98"/>
</g>
<!-- partner_appr -->
<g id="node10" class="node">
<title>partner_appr</title>
<ellipse fill="grey" stroke="black" stroke-width="2" cx="891.71" cy="-43.84" rx="43.68" ry="43.68"/>
<text text-anchor="middle" x="891.71" y="-55.14" font-family="arial" font-size="14.00">Goed&#45;</text>
<text text-anchor="middle" x="891.71" y="-40.14" font-family="arial" font-size="14.00">keuring</text>
<text text-anchor="middle" x="891.71" y="-25.14" font-family="arial" font-size="14.00">partner</text>
</g>
<!-- scariness&#45;&#45;partner_appr -->
<g id="edge28" class="edge">
<title>scariness&#45;&#45;partner_appr</title>
<path fill="none" stroke="black" stroke-width="2" d="M833.35,-187.38C846.64,-154.68 863.07,-114.28 875.11,-84.67"/>
</g>
<!-- partner_behav -->
<g id="node11" class="node">
<title>partner_behav</title>
<ellipse fill="grey" stroke="black" stroke-width="2" cx="683.51" cy="-80.45" rx="45.92" ry="45.92"/>
<text text-anchor="middle" x="683.51" y="-91.75" font-family="arial" font-size="14.00">Gedrag</text>
<text text-anchor="middle" x="683.51" y="-76.75" font-family="arial" font-size="14.00">van</text>
<text text-anchor="middle" x="683.51" y="-61.75" font-family="arial" font-size="14.00">partner</text>
</g>
<!-- scariness&#45;&#45;partner_behav -->
<g id="edge29" class="edge">
<title>scariness&#45;&#45;partner_behav</title>
<path fill="none" stroke="black" stroke-width="2" d="M772.99,-195.75C753.4,-170.51 729.81,-140.1 711.76,-116.85"/>
</g>
<!-- scariness&#45;&#45;parents_appr -->
<g id="edge30" class="edge">
<title>scariness&#45;&#45;parents_appr</title>
<path fill="none" stroke="black" stroke-width="2" d="M749.95,-251.07C712.05,-255.56 664.05,-261.24 629.81,-265.29"/>
</g>
<!-- scariness&#45;&#45;excitingness -->
<g id="edge27" class="edge">
<title>scariness&#45;&#45;excitingness</title>
<path fill="none" stroke="black" stroke-width="2" d="M836.03,-299.25C851.14,-331.83 870.02,-372.54 884.32,-403.35"/>
</g>
<!-- partner_behav&#45;&#45;partner_appr -->
<g id="edge39" class="edge">
<title>partner_behav&#45;&#45;partner_appr</title>
<path fill="none" stroke="black" stroke-width="2" d="M728.94,-72.46C764.48,-66.21 813.56,-57.58 848.51,-51.44"/>
</g>
<!-- partner_behav&#45;&#45;parents_appr -->
<g id="edge40" class="edge">
<title>partner_behav&#45;&#45;parents_appr</title>
<path fill="none" stroke="black" stroke-width="2" d="M662.35,-121.68C645.66,-154.21 622.54,-199.28 606.12,-231.27"/>
</g>
<!-- cleanness&#45;&#45;easiness -->
<g id="edge32" class="edge">
<title>cleanness&#45;&#45;easiness</title>
<path fill="none" stroke="black" stroke-width="2" d="M506.59,-491.95C529.88,-517.73 564.9,-556.49 588.3,-582.38"/>
</g>
<!-- cleanness&#45;&#45;parents_appr -->
<g id="edge31" class="edge">
<title>cleanness&#45;&#45;parents_appr</title>
<path fill="none" stroke="black" stroke-width="2" d="M499.46,-432.98C517.52,-399.08 545.98,-345.64 565.29,-309.38"/>
</g>
<!-- cleanness&#45;&#45;harmfulness -->
<g id="edge33" class="edge">
<title>cleanness&#45;&#45;harmfulness</title>
<path fill="none" stroke="black" stroke-width="2" d="M460.75,-494.09C445.13,-515.02 423.85,-543.55 406.63,-566.64"/>
</g>
<!-- cleanness&#45;&#45;beneficiality -->
<g id="edge34" class="edge">
<title>cleanness&#45;&#45;beneficiality</title>
<path fill="none" stroke="black" stroke-width="2" d="M447.68,-475.03C407.74,-486.44 342.13,-505.18 299.32,-517.4"/>
</g>
<!-- harmfulness&#45;&#45;easiness -->
<g id="edge43" class="edge">
<title>harmfulness&#45;&#45;easiness</title>
<path fill="none" stroke="black" stroke-width="2" d="M426.62,-607.18C471.52,-607.75 536.49,-608.58 576.63,-609.09"/>
</g>
<!-- harmfulness&#45;&#45;beneficiality -->
<g id="edge44" class="edge">
<title>harmfulness&#45;&#45;beneficiality</title>
<path fill="none" stroke="black" stroke-width="2" d="M335.06,-579.57C321.73,-570.96 307.08,-561.51 294.14,-553.15"/>
</g>
<!-- goodness&#45;&#45;harmfulness -->
<g id="edge38" class="edge">
<title>goodness&#45;&#45;harmfulness</title>
<path fill="none" stroke="black" stroke-width="2" d="M365.57,-763.61C367.83,-732.18 370.92,-689.21 373.29,-656.15"/>
</g>
<!-- goodness&#45;&#45;beneficiality -->
<g id="edge35" class="edge">
<title>goodness&#45;&#45;beneficiality</title>
<path fill="none" stroke="black" stroke-width="2" d="M347.46,-766.27C327.63,-714.16 292.96,-623.03 272.89,-570.29"/>
</g>
<!-- goodness&#45;&#45;satisfaction -->
<g id="edge37" class="edge">
<title>goodness&#45;&#45;satisfaction</title>
<path fill="none" stroke="black" stroke-width="2" d="M335.28,-838.49C315.53,-862.12 288.54,-894.41 266.56,-920.71"/>
</g>
<!-- goodness&#45;&#45;fun -->
<g id="edge36" class="edge">
<title>goodness&#45;&#45;fun</title>
<path fill="none" stroke="black" stroke-width="2" d="M388.15,-839.86C405.71,-863.14 428.76,-893.7 445.44,-915.82"/>
</g>
<!-- fun&#45;&#45;satisfaction -->
<g id="edge41" class="edge">
<title>fun&#45;&#45;satisfaction</title>
<path fill="none" stroke="black" stroke-width="2" d="M431.16,-948.1C393.28,-951.62 333.09,-957.22 288.02,-961.41"/>
</g>
</g>
</svg>
