<?xml version="1.0" encoding="UTF-8" standalone="no"?>
<!DOCTYPE svg PUBLIC "-//W3C//DTD SVG 1.1//EN"
 "http://www.w3.org/Graphics/SVG/1.1/DTD/svg11.dtd">
<!-- Generated by graphviz version 2.50.0 (20211204.2007)
 -->
<!-- Pages: 1 -->
<svg width="277pt" height="313pt"
 viewBox="0.00 0.00 277.00 312.50" xmlns="http://www.w3.org/2000/svg" xmlns:xlink="http://www.w3.org/1999/xlink">
<g id="graph0" class="graph" transform="scale(1 1) rotate(0) translate(4 308.5)">
<polygon fill="white" stroke="transparent" points="-4,4 -4,-308.5 273,-308.5 273,4 -4,4"/>
<!-- Angst -->
<g id="node1" class="node">
<title>Angst</title>
<ellipse fill="none" stroke="black" cx="56" cy="-60.5" rx="32.49" ry="32.49"/>
<text text-anchor="middle" x="56" y="-56.8" font-family="Times New Roman,serif" font-size="14.00">Angst</text>
</g>
<!-- Vermijdingsgedrag -->
<g id="node4" class="node">
<title>Vermijdingsgedrag</title>
<polygon fill="none" stroke="black" points="269,-121 148,-121 148,0 269,0 269,-121"/>
<text text-anchor="middle" x="208.5" y="-56.8" font-family="Times New Roman,serif" font-size="14.00">Vermijdingsgedrag</text>
</g>
<!-- Angst&#45;&gt;Vermijdingsgedrag -->
<g id="edge2" class="edge">
<title>Angst&#45;&gt;Vermijdingsgedrag</title>
<path fill="none" stroke="black" d="M98.65,-60.5C110.74,-60.5 124.28,-60.5 137.6,-60.5"/>
<polygon fill="black" stroke="black" points="98.55,-57 88.55,-60.5 98.55,-64 98.55,-57"/>
<polygon fill="black" stroke="black" points="137.72,-64 147.72,-60.5 137.72,-57 137.72,-64"/>
</g>
<!-- Levensgeluk -->
<g id="node2" class="node">
<title>Levensgeluk</title>
<ellipse fill="none" stroke="black" cx="208.5" cy="-194.5" rx="55.79" ry="55.79"/>
<text text-anchor="middle" x="208.5" y="-190.8" font-family="Times New Roman,serif" font-size="14.00">Levensgeluk</text>
</g>
<!-- Opleidingsniveau -->
<g id="node3" class="node">
<title>Opleidingsniveau</title>
<polygon fill="none" stroke="black" points="112,-250.5 0,-250.5 0,-138.5 112,-138.5 112,-250.5"/>
<text text-anchor="middle" x="56" y="-190.8" font-family="Times New Roman,serif" font-size="14.00">Opleidingsniveau</text>
</g>
<!-- Opleidingsniveau&#45;&gt;Levensgeluk -->
<g id="edge4" class="edge">
<title>Opleidingsniveau&#45;&gt;Levensgeluk</title>
<path fill="none" stroke="black" d="M112.19,-194.5C125.36,-194.5 139.41,-194.5 152.57,-194.5"/>
</g>
<!-- Werkdruk -->
<g id="node5" class="node">
<title>Werkdruk</title>
<ellipse fill="none" stroke="black" cx="56" cy="-286.5" rx="47.39" ry="18"/>
<text text-anchor="middle" x="56" y="-282.8" font-family="Times New Roman,serif" font-size="14.00">Werkdruk</text>
</g>
<!-- Burnout -->
<g id="node6" class="node">
<title>Burnout</title>
<ellipse fill="none" stroke="black" cx="208.5" cy="-286.5" rx="40.09" ry="18"/>
<text text-anchor="middle" x="208.5" y="-282.8" font-family="Times New Roman,serif" font-size="14.00">Burnout</text>
</g>
<!-- Werkdruk&#45;&gt;Burnout -->
<g id="edge1" class="edge">
<title>Werkdruk&#45;&gt;Burnout</title>
<path fill="none" stroke="black" d="M103.79,-286.5C120.8,-286.5 140.08,-286.5 157.37,-286.5"/>
<polygon fill="black" stroke="black" points="157.83,-290 167.83,-286.5 157.83,-283 157.83,-290"/>
</g>
</g>
</svg>
