"","Who","Age"
"1","Lily    ",1
"2","Luke    ",7
"3","Manny   ",7
"4","Alex    ",9
"5","Hailey  ",13
"6","Claire  ",37
"7","Phil    ",37
"8","Mitchel ",35
"9","Cameron ",38
"10","Jay     ",63
"11","Gloria  ",39
