"ppno","sex","age","ASQ_1","ASQ_2","ASQ_3","ASQ_4","ASQ_5","ASQ_6","ASQ_7","ASQ_8","ASQ_9","ASQ_10","ASQ_11","ASQ_12","ASQ_13","ASQ_14","ASQ_15","ASQ_16","ASQ_17","ASQ_18","ASQ_19","ASQ_20","ASQ_21","ASQ_22","ASQ_23","ASQ_24","ASQ_25","ASQ_26","ASQ_27","ASQ_28","ASQ_29","ASQ_30","ASQ_31","ASQ_32","ASQ_33","ASQ_34","ASQ_35","ASQ_36","ASQ_37","ASQ_38","ASQ_39","ASQ_40","HSL_1","HSL_2","HSL_3","HSL_4","HSL_5","HSL_6","HSL_7","HSL_8","HSL_9","HSL_10","HSL_11","HSL_12","HSL_13","HSL_14","HSL_15","HSL_16","HSL_17","HSL_18","HSL_19","HSL_20","HSL_21","HSL_22","HSL_23","HSL_24","ASQ_33_recoded","ASQ_20_recoded","ASQ_21_recoded","HSL_3_recoded","HSL_8_recoded","HSL_17_recoded"
1.0,1,64.0,6,1,1,6,6,1,6,6,6,4,1,1,1,6,1,6,1,1,6,1,1,1,6,1,6,1,1,6,1,1,6,1,1,6,1,6,1,1,1,1,5,5,1,5,1,5,1,5,1,1,1,5,1,5,5,5,5,5,5,5,1,1,1,1,6,6,6,5,1,1
2.0,2,28.0,4,2,4,6,4,2,1,2,3,1,4,2,2,5,2,5,4,2,4,2,3,3,2,2,4,5,2,5,5,4,4,2,1,2,3,5,4,4,2,2,2,4,4,3,5,2,1,2,2,3,2,3,4,4,2,4,3,4,2,4,3,3,4,3,6,5,4,2,4,3
3.0,2,69.0,5,2,5,2,1,6,2,1,4,1,4,3,1,4,1,1,5,1,4,5,3,4,2,1,1,1,1,5,3,5,5,2,2,4,1,1,3,5,3,1,5,1,1,4,1,1,1,1,1,5,1,4,1,3,5,5,1,4,3,1,3,4,1,3,5,2,4,5,5,5
4.0,2,47.0,5,5,4,5,2,1,1,1,3,1,3,2,2,2,3,2,1,2,5,5,1,2,1,1,1,2,2,2,2,2,5,2,2,2,1,5,5,5,2,2,5,2,2,3,2,5,3,2,3,3,2,4,2,4,4,5,4,4,4,2,4,4,2,2,5,2,6,4,4,2
5.0,2,25.0,5,5,3,4,2,1,2,1,1,1,4,2,2,4,2,2,4,3,4,4,2,2,2,2,2,2,1,4,2,2,5,2,3,3,2,3,2,4,2,2,4,1,1,1,1,3,2,1,3,4,1,4,1,4,4,4,3,4,3,1,3,4,1,3,4,3,5,5,5,3
6.0,2,50.0,5,4,4,3,2,1,2,1,2,2,5,4,3,1,3,1,2,3,5,5,2,4,2,2,2,2,1,6,4,3,5,3,3,3,2,1,5,4,4,3,5,2,5,2,2,2,3,5,2,5,2,2,4,5,5,4,2,5,2,2,3,4,2,5,4,2,5,1,1,4
7.0,2,23.0,5,3,5,5,2,1,2,2,2,2,5,2,2,2,2,5,4,2,2,4,3,5,2,2,2,4,2,5,3,2,5,3,5,4,2,2,5,5,4,4,4,4,2,2,3,2,5,2,2,4,4,2,2,3,4,4,2,4,2,2,2,4,2,4,2,3,4,4,4,4
8.0,2,50.0,5,4,4,4,4,2,2,2,5,4,4,3,3,3,2,2,3,3,4,4,3,3,3,3,3,2,2,4,3,3,5,3,4,3,3,2,5,4,4,3,4,2,2,3,2,3,2,2,3,4,2,4,2,4,4,4,4,4,4,2,2,3,2,3,3,3,4,4,4,2
9.0,1,56.0,5,5,3,4,2,1,2,1,1,1,4,2,2,4,2,2,4,3,4,4,2,2,2,2,2,2,1,4,2,2,5,2,3,3,2,3,2,4,2,2,4,1,1,1,1,3,2,1,3,4,1,4,1,4,4,4,3,4,3,1,3,4,1,3,4,3,5,5,5,3
10.0,2,33.0,5,5,6,5,2,1,1,1,3,1,5,2,2,1,1,1,1,1,5,5,4,1,1,1,1,1,1,6,1,5,6,1,1,1,1,1,6,6,4,2,5,1,1,1,1,1,2,1,1,5,1,4,2,5,5,5,5,5,3,0,1,5,1,4,6,2,3,5,5,1
11.0,2,39.0,5,4,4,4,3,1,1,1,3,4,2,2,1,1,1,1,1,2,5,5,3,4,2,2,1,1,1,6,4,2,5,2,2,1,1,1,5,5,4,2,5,2,1,2,1,3,2,1,2,5,1,4,1,5,5,5,5,5,5,1,2,4,1,2,5,2,4,5,5,1
12.0,1,69.0,5,4,4,4,4,2,2,2,5,4,4,3,3,3,2,2,3,3,4,4,3,3,3,3,3,2,2,4,3,3,5,3,4,3,3,2,5,4,4,3,4,2,2,3,2,3,2,2,3,4,2,4,2,4,4,4,4,4,4,2,2,3,2,3,3,3,4,4,4,2
13.0,2,51.0,4,2,3,5,6,4,2,4,4,2,5,5,4,5,4,4,3,2,2,3,3,5,5,4,5,4,4,2,4,4,2,4,5,4,6,2,3,4,5,5,2,4,4,4,4,5,4,4,4,2,4,4,5,2,2,5,1,3,2,5,4,2,4,4,2,4,4,2,2,5
14.0,2,53.0,6,6,6,2,1,1,1,1,1,3,6,6,3,1,3,2,5,3,5,5,2,2,2,2,1,1,2,6,1,6,6,1,1,4,4,2,6,6,4,2,5,2,1,1,1,5,3,2,4,5,1,5,1,5,5,5,4,5,2,1,4,5,2,4,6,2,5,5,4,2
15.0,2,54.0,5,4,5,4,4,2,2,1,1,1,5,4,2,0,2,2,3,2,6,5,2,2,1,1,1,1,1,6,1,6,6,2,2,2,3,1,6,6,4,2,5,1,1,1,1,3,4,1,2,5,2,3,2,5,5,4,2,5,2,1,2,4,1,4,5,2,5,5,5,4
16.0,2,55.0,2,2,3,5,5,5,5,2,2,2,6,6,6,6,6,6,6,6,2,2,1,5,2,5,5,6,5,5,5,5,2,5,5,5,5,1,3,2,5,4,5,4,2,2,4,2,5,3,5,4,5,5,5,3,4,5,2,5,1,2,4,2,4,5,2,5,6,4,3,4
17.0,2,54.0,5,6,6,4,3,1,1,1,4,4,4,5,1,3,1,1,4,2,4,5,1,1,1,1,3,2,1,6,1,5,5,1,1,4,1,2,6,0,4,1,5,2,3,1,2,4,1,2,2,3,1,3,1,4,5,3,4,5,2,1,3,4,1,1,6,2,6,3,4,2
18.0,2,52.0,3,4,3,3,5,4,3,3,3,2,6,6,5,2,5,4,4,4,2,4,2,5,2,5,5,5,5,4,4,4,3,4,5,5,5,2,3,4,4,4,3,3,4,2,3,4,4,3,4,4,4,4,4,3,3,4,2,5,4,3,4,3,3,4,2,3,5,2,3,4
19.0,2,22.0,4,2,3,5,6,4,2,4,4,2,5,5,4,5,4,4,3,2,2,3,3,5,5,4,5,4,4,2,4,4,2,4,5,4,6,2,3,4,5,5,2,4,4,4,4,5,4,4,4,2,4,4,5,2,2,5,1,3,2,5,4,2,4,4,2,4,4,2,2,5
20.0,2,30.0,5,5,5,3,2,2,2,2,3,2,5,5,4,2,2,3,3,3,3,4,3,3,4,3,3,3,3,5,3,3,4,2,3,3,3,3,4,5,4,3,4,3,2,2,2,3,3,2,3,4,3,3,3,3,4,3,2,4,3,3,4,4,3,4,4,3,4,4,4,4
21.0,1,61.0,6,4,3,4,3,1,1,1,1,1,4,3,2,3,1,1,1,1,4,5,6,1,1,1,1,1,1,5,1,1,5,1,1,3,1,1,5,6,1,2,4,1,1,2,1,2,1,1,2,5,2,2,2,4,5,3,3,5,2,1,1,5,1,4,6,2,1,5,5,3
22.0,2,48.0,5,5,6,4,3,1,1,1,3,2,5,2,3,1,1,1,2,1,6,5,3,1,1,1,1,1,1,6,4,2,5,1,1,1,1,1,5,6,4,1,4,1,1,5,1,1,1,1,1,5,1,4,4,5,5,4,2,5,4,1,1,5,1,4,6,2,4,5,5,4
23.0,2,41.0,6,1,5,2,4,1,5,5,4,5,3,1,1,2,1,1,2,1,1,5,2,1,1,1,1,1,1,5,1,1,6,1,1,1,1,6,1,6,1,1,4,1,1,1,1,1,1,1,1,5,1,2,1,5,5,5,2,4,3,2,4,5,1,4,6,2,5,5,5,4
24.0,1,58.0,5,6,6,4,3,1,1,1,4,4,4,5,1,3,1,1,4,2,4,5,1,1,1,1,3,2,1,6,1,5,5,1,1,4,1,2,6,0,4,1,5,2,3,1,2,4,1,2,2,3,1,3,1,4,5,3,4,5,2,1,3,4,1,1,6,2,6,3,4,2
25.0,2,,6,2,5,3,5,1,2,2,3,1,5,4,3,5,3,4,5,3,1,2,1,1,1,1,1,1,5,6,1,2,2,4,4,4,2,6,5,5,1,1,4,2,1,1,3,3,2,1,3,4,4,4,1,1,4,5,2,4,5,1,4,4,2,4,3,5,6,5,5,4
26.0,1,46.0,5,2,5,4,4,1,2,2,4,2,4,4,1,2,1,1,2,1,5,5,5,1,2,1,1,1,2,5,1,1,5,3,2,5,2,3,5,5,4,2,5,1,1,2,1,2,4,1,1,5,2,4,1,4,4,4,3,4,5,1,1,5,1,4,5,2,2,5,5,3
27.0,2,54.0,5,4,3,4,3,1,5,1,3,1,3,2,1,2,1,1,1,3,5,5,4,3,1,1,1,1,1,6,3,3,5,4,3,3,3,2,3,3,1,3,5,2,1,1,1,3,2,1,2,4,2,4,1,5,5,4,3,4,3,1,1,3,1,2,4,2,3,5,5,3
28.0,2,49.0,5,1,5,4,4,1,2,1,4,3,5,4,4,1,2,3,3,1,5,4,2,2,3,2,1,1,2,6,3,4,5,1,1,3,2,1,5,3,5,3,5,4,1,1,3,3,3,1,1,5,4,4,3,4,5,5,2,5,4,2,3,4,1,5,6,3,5,5,5,4
29.0,1,45.0,5,4,5,5,4,2,3,2,5,5,3,3,3,2,2,3,4,2,2,2,2,3,4,2,4,3,2,5,3,2,4,2,2,4,3,2,4,4,2,2,4,3,3,3,3,2,2,3,3,4,2,4,2,3,4,3,4,4,4,4,3,4,3,3,5,5,5,3,3,2
30.0,2,43.0,5,4,5,4,2,4,2,1,2,1,5,5,4,2,3,4,3,3,3,3,2,3,4,3,2,2,3,5,4,3,3,2,3,1,2,1,4,4,4,2,4,3,3,2,2,1,4,1,3,3,3,4,3,3,4,4,2,4,3,2,3,3,3,4,4,4,5,3,5,4
31.0,2,47.0,5,5,6,2,3,1,1,1,2,2,5,5,2,2,2,2,5,2,5,4,2,2,3,3,4,1,2,5,2,1,4,2,2,2,1,1,5,5,4,1,5,2,1,2,1,1,3,1,1,4,3,3,2,4,5,4,2,4,3,2,4,4,2,4,5,3,5,5,5,4
32.0,1,20.0,6,6,6,6,5,1,1,1,2,5,1,1,1,1,1,1,1,1,6,6,5,1,1,1,1,1,1,6,1,1,6,1,1,1,1,1,6,6,5,1,5,1,1,1,1,5,1,1,1,5,1,5,1,5,5,5,5,5,5,1,1,5,1,1,6,1,2,5,5,1
33.0,2,25.0,5,5,5,2,2,1,1,1,2,3,2,1,1,1,1,1,1,2,6,4,3,1,1,1,1,1,1,6,1,1,6,1,1,6,1,1,1,6,1,1,4,2,1,2,1,1,1,1,2,5,1,1,1,4,5,4,4,5,5,1,3,4,1,3,6,3,4,5,5,2
34.0,2,41.0,6,1,5,2,4,1,5,5,4,5,3,1,1,2,1,1,2,1,1,5,2,1,1,1,1,1,1,5,1,1,6,1,1,1,1,6,1,6,1,1,4,1,1,1,1,1,1,1,1,5,1,2,1,5,5,5,2,4,2,1,2,2,1,4,6,2,5,5,5,4
35.0,1,29.0,5,2,2,4,5,3,4,1,4,3,3,2,1,2,1,2,6,4,3,5,1,2,4,1,5,1,3,2,2,3,4,2,1,2,4,3,3,5,4,4,4,3,2,4,3,5,2,3,4,5,2,5,2,3,4,4,5,5,5,4,3,3,3,3,6,2,6,4,3,1
36.0,2,60.0,5,4,6,2,1,1,1,1,1,1,3,1,1,1,1,1,1,1,5,5,1,1,1,1,1,1,1,6,1,2,6,1,1,1,1,1,6,6,1,1,5,1,1,1,1,1,1,1,1,5,1,5,1,5,5,5,3,5,4,1,1,5,1,3,6,2,6,5,5,3
37.0,2,57.0,3,1,2,5,3,1,1,1,1,1,5,4,3,2,4,3,3,4,2,2,3,5,3,3,3,3,5,5,5,3,2,5,5,5,3,1,4,3,3,3,4,3,2,1,3,3,4,2,4,4,5,3,5,1,3,3,1,4,1,4,5,4,3,5,2,5,4,4,4,5
38.0,1,66.0,4,5,3,5,5,5,5,4,5,4,4,4,4,4,4,5,5,4,2,3,2,3,2,3,4,4,3,2,4,3,4,2,3,3,3,5,4,4,3,2,3,4,2,2,3,5,3,3,4,4,3,3,3,4,4,3,3,4,3,4,3,4,4,3,4,4,5,4,3,3
39.0,2,50.0,5,3,5,6,6,4,2,3,2,3,5,5,3,5,4,2,5,2,3,5,1,2,5,3,4,4,3,2,4,1,5,2,2,5,4,2,2,4,2,2,3,2,3,5,1,5,3,4,1,5,2,5,1,4,4,5,2,4,5,2,2,4,2,4,5,2,6,3,2,4
40.0,2,27.0,5,1,5,4,4,1,2,1,4,3,5,4,4,1,2,3,3,1,5,4,2,2,3,2,1,1,2,6,3,4,5,1,1,3,2,1,5,3,5,3,5,4,1,1,3,3,3,1,1,5,4,4,3,4,5,5,2,5,4,2,3,4,1,5,6,3,5,5,5,4
41.0,2,38.0,5,2,3,5,6,4,2,2,3,1,5,4,5,4,4,5,6,2,3,2,2,4,4,5,5,4,5,6,5,6,4,5,5,6,3,5,4,5,6,5,4,4,4,2,5,4,5,3,3,4,5,5,5,2,3,5,1,5,3,1,1,4,4,4,2,5,5,2,3,5
42.0,2,40.0,5,2,4,4,3,4,1,1,4,2,5,2,4,4,4,2,5,4,2,5,2,5,1,5,1,1,2,5,4,1,3,4,4,5,5,2,3,5,1,4,4,1,1,2,1,1,5,3,4,5,4,4,4,2,5,5,1,5,4,1,5,3,3,5,3,2,5,5,3,5
43.0,1,75.0,5,3,4,6,2,1,4,3,4,5,3,2,1,2,2,4,5,4,5,2,1,2,3,1,3,2,4,4,1,4,5,1,1,4,2,1,4,4,1,4,3,4,1,3,2,5,2,4,3,2,1,4,2,4,3,5,2,4,2,2,3,2,2,2,6,5,6,5,2,4
44.0,2,51.0,5,4,5,4,3,1,3,2,2,1,2,2,2,2,1,2,6,2,2,4,2,2,2,2,2,2,2,3,2,5,5,2,2,2,2,2,3,5,2,4,3,3,2,1,3,3,2,2,2,3,2,5,3,3,4,5,4,4,3,2,2,4,2,2,5,3,5,4,4,2
45.0,1,54.0,4,3,4,5,2,2,2,3,3,3,2,2,2,3,2,2,4,2,3,4,3,3,3,2,3,2,2,4,2,2,5,1,1,3,3,3,3,4,1,1,3,2,2,4,2,3,2,3,2,4,1,3,1,3,0,3,4,3,4,3,3,3,2,2,6,3,4,4,3,2
46.0,2,40.0,6,5,6,4,3,1,1,1,3,2,5,4,4,1,2,2,5,5,5,5,2,2,2,2,1,1,1,6,1,1,5,2,2,2,3,1,4,5,1,2,5,2,1,1,4,3,2,1,3,5,2,4,1,5,5,5,2,5,5,2,4,5,1,4,5,2,5,5,5,4
47.0,2,50.0,4,6,6,4,4,1,2,2,3,2,4,4,5,5,4,4,5,5,3,4,4,4,4,3,3,3,3,5,3,5,3,3,4,3,2,3,4,5,3,2,4,2,1,2,2,3,3,2,3,4,3,3,3,4,4,3,3,5,2,2,4,4,2,3,3,3,3,5,4,3
48.0,1,52.0,5,2,3,5,4,1,2,2,2,3,2,4,4,4,2,2,6,3,4,5,1,1,3,2,4,3,5,6,3,5,3,4,4,3,2,3,4,4,3,4,4,2,4,2,2,4,3,3,2,3,2,5,3,2,3,4,3,4,4,3,3,3,2,3,3,2,6,2,3,3
49.0,2,34.0,5,1,2,5,6,2,1,2,2,2,4,2,1,5,1,4,5,4,3,2,1,1,5,1,5,5,1,2,4,1,1,4,4,5,5,2,2,2,2,5,2,3,4,5,3,5,1,4,4,5,1,5,2,2,2,5,4,5,1,4,4,2,2,1,3,5,6,2,2,2
50.0,1,46.0,5,5,4,4,2,1,4,2,3,2,4,2,2,2,1,3,4,4,4,5,2,3,2,1,4,2,4,5,2,2,5,2,1,4,2,2,4,5,2,1,4,2,2,2,2,3,2,1,4,4,2,5,1,4,4,4,4,5,3,1,1,4,2,2,6,2,5,4,5,2
51.0,2,40.0,6,6,6,6,5,1,1,1,2,5,1,1,1,1,1,1,1,1,6,6,5,1,1,1,1,1,1,6,1,1,6,1,1,1,1,1,6,6,5,1,5,1,1,1,1,5,1,1,1,5,1,5,1,5,5,5,5,5,5,1,1,5,1,1,6,1,2,5,5,1
52.0,2,30.0,2,2,3,5,2,1,2,1,3,2,5,1,2,1,3,2,2,3,4,2,2,4,4,3,3,4,2,3,2,2,5,2,2,4,2,2,5,3,2,1,3,4,4,2,4,3,4,3,4,4,3,2,2,2,4,5,2,5,2,1,4,4,2,2,5,5,5,2,3,4
53.0,1,65.0,5,5,5,2,2,1,1,1,2,3,2,1,1,1,1,1,1,2,6,4,3,1,1,1,1,1,1,6,1,1,6,1,1,6,1,1,1,6,1,1,4,2,1,2,1,1,1,1,2,5,1,1,1,4,5,4,4,5,5,1,3,4,1,3,6,3,4,5,5,2
54.0,1,36.0,5,1,3,5,4,2,4,5,4,2,5,5,4,2,2,4,5,2,2,2,2,2,3,2,4,4,2,2,3,3,4,4,4,4,2,5,2,5,2,2,3,3,3,3,3,3,3,3,2,3,3,4,2,2,2,4,2,4,2,1,2,2,1,4,3,5,5,3,3,4
55.0,1,62.0,5,2,2,4,5,3,4,1,4,3,3,2,1,2,1,2,6,4,3,5,1,2,4,1,5,1,3,2,2,3,4,2,1,2,4,3,3,5,4,4,4,3,2,4,3,5,2,3,4,5,2,5,2,3,4,4,5,5,5,4,3,3,3,3,6,2,6,4,3,1
56.0,2,36.0,6,5,6,3,2,1,1,1,1,1,6,4,1,1,1,1,1,1,6,6,6,1,1,1,1,1,1,6,1,2,5,2,1,1,2,1,5,5,5,1,5,1,1,1,1,1,1,1,1,5,1,4,1,5,5,5,3,5,3,1,4,5,1,3,6,1,1,5,5,3
57.0,2,49.0,5,2,2,6,6,1,5,4,5,5,5,1,1,2,5,6,6,4,2,1,1,2,4,2,2,5,2,6,2,2,3,4,5,5,4,2,2,2,2,6,3,4,4,2,5,4,3,3,1,1,1,5,4,3,5,5,4,4,4,3,2,3,4,2,2,6,6,2,3,2
58.0,2,59.0,5,2,2,6,4,2,1,1,2,4,5,4,2,1,1,5,6,3,4,2,1,5,6,1,6,5,2,2,3,1,2,5,4,5,5,2,5,4,5,5,1,4,5,2,3,5,3,4,5,3,4,5,2,2,1,5,1,5,5,5,5,2,5,4,3,5,6,1,2,5
59.0,1,79.0,3,4,2,6,6,5,2,0,3,4,6,6,4,3,1,1,6,3,3,6,1,4,6,3,3,3,3,6,2,3,2,3,3,6,5,6,5,4,1,3,2,3,2,5,2,5,3,4,4,4,3,5,2,1,3,5,3,4,5,2,4,1,2,4,4,1,6,4,2,3
60.0,2,53.0,5,2,6,4,2,1,3,1,1,3,4,3,4,2,3,1,4,2,5,5,1,2,1,2,1,1,3,6,1,5,5,1,2,3,2,2,5,5,2,5,5,3,5,1,2,3,4,1,2,5,2,4,2,5,5,5,4,5,4,2,3,5,1,3,5,2,6,1,5,2
61.0,2,60.0,4,4,5,3,5,3,1,1,1,1,3,3,4,4,4,4,3,4,2,2,2,2,2,3,3,4,1,4,1,3,1,4,4,5,2,1,4,4,1,1,3,2,2,2,4,3,3,3,4,4,3,3,3,1,4,3,3,4,2,4,4,4,4,3,3,5,5,4,3,3
62.0,2,24.0,5,3,5,5,5,2,5,4,3,4,5,4,5,4,4,4,4,4,2,2,1,2,2,3,3,2,3,6,6,5,3,3,5,2,2,5,4,3,6,3,4,3,2,1,4,4,5,2,3,4,4,4,4,3,4,5,2,4,1,1,4,4,2,5,2,5,6,4,4,4
63.0,1,49.0,6,2,4,2,2,1,1,1,1,2,5,5,1,1,1,1,3,3,6,5,1,2,1,1,1,1,3,1,1,1,6,1,1,2,1,3,5,3,2,3,4,3,1,3,2,5,3,1,1,3,2,5,1,4,4,5,2,4,5,1,2,3,1,3,6,2,6,5,5,4
64.0,2,43.0,6,6,6,2,3,1,1,1,3,3,5,3,2,1,1,1,1,1,6,6,2,1,6,1,1,1,1,6,1,6,6,1,1,1,1,1,6,6,6,1,5,1,1,1,1,1,1,1,1,5,1,4,4,5,5,4,5,5,1,1,3,5,1,3,6,1,5,5,5,1
65.0,2,54.0,5,4,5,4,2,1,2,1,2,2,4,4,1,3,1,1,4,3,4,4,2,2,2,1,1,1,1,6,3,1,5,3,3,2,2,2,2,5,2,2,4,2,1,1,1,2,3,2,3,4,2,4,2,4,4,5,2,4,4,1,3,4,3,4,4,3,5,5,4,4
66.0,1,47.0,6,4,6,1,1,1,6,4,5,1,6,6,6,1,1,1,1,1,5,5,6,1,1,1,1,1,1,6,6,6,6,1,1,6,4,1,6,6,4,4,1,1,1,1,1,5,1,1,4,5,4,4,4,5,5,5,1,5,1,1,4,5,4,5,6,2,1,5,5,5
67.0,1,52.0,4,4,3,4,4,1,1,1,1,1,3,3,3,4,2,4,6,4,4,4,1,2,3,1,3,2,4,5,4,3,5,1,1,5,4,4,5,4,4,5,4,3,2,3,3,3,3,3,3,4,2,5,1,4,5,0,3,4,4,2,1,5,2,3,6,3,6,4,3,3
68.0,2,43.0,6,5,6,4,3,1,1,1,3,2,5,4,4,1,2,2,5,5,5,5,2,2,2,2,1,1,1,6,1,1,5,2,2,2,3,1,4,5,1,2,5,2,1,1,4,3,2,1,3,5,2,4,1,5,5,5,2,5,5,2,4,5,1,4,5,2,5,5,5,4
69.0,2,68.0,4,6,6,4,4,1,2,2,3,2,4,4,5,5,4,4,5,5,3,4,4,4,4,3,3,3,3,5,3,5,3,3,4,3,2,3,4,5,3,2,4,2,1,2,2,3,3,2,3,4,3,3,3,4,4,3,3,5,2,2,4,4,2,3,3,3,3,5,4,3
70.0,2,42.0,6,5,4,5,3,2,4,4,2,4,5,4,3,2,3,4,0,4,4,4,2,3,4,4,2,2,4,5,5,4,2,5,5,3,2,2,4,4,4,3,3,2,3,1,4,2,4,2,2,3,2,2,5,2,3,2,2,4,1,3,3,2,4,4,2,3,5,3,4,4
71.0,2,40.0,5,2,3,5,4,1,2,2,2,3,2,4,4,4,2,2,6,3,4,5,1,1,3,2,4,3,5,6,3,5,3,4,4,3,2,3,4,4,3,4,4,2,4,2,2,4,3,3,2,3,2,5,3,2,3,4,3,4,4,3,3,3,2,3,3,2,6,2,3,3
72.0,1,58.0,5,1,2,5,6,2,1,2,2,2,4,2,1,5,1,4,5,4,3,2,1,1,5,1,5,5,1,2,4,1,1,4,4,5,5,2,2,2,2,5,2,3,4,5,3,5,1,4,4,5,1,5,2,2,2,5,4,5,1,4,4,2,2,1,3,5,6,2,2,2
73.0,2,45.0,4,4,4,4,6,2,4,2,4,2,5,5,6,4,4,4,3,1,1,2,2,2,5,4,5,5,6,4,2,4,3,4,4,4,5,4,2,3,2,2,1,2,4,4,4,4,4,5,3,4,4,3,3,1,1,5,2,4,4,2,1,2,2,4,3,5,5,2,1,4
74.0,2,50.0,5,4,5,6,6,1,1,1,2,2,4,2,2,2,1,1,6,1,6,6,1,2,2,2,1,2,3,3,2,1,5,2,2,3,3,6,5,5,4,2,5,1,1,2,1,4,3,2,1,5,2,5,1,4,4,5,3,5,5,1,4,4,1,2,5,1,6,5,4,3
75.0,2,29.0,6,4,5,4,3,1,1,1,2,1,5,1,1,1,1,2,4,4,2,4,3,4,2,1,1,1,1,6,2,4,4,2,1,4,2,2,4,5,4,2,4,1,1,1,2,3,3,1,4,4,2,3,4,3,5,4,4,5,2,1,3,4,1,5,6,3,4,5,5,2
76.0,2,68.0,2,2,3,5,2,1,2,1,3,2,5,1,2,1,3,2,2,3,4,2,2,4,4,3,3,4,2,3,2,2,5,2,2,4,2,2,5,3,2,1,3,4,4,2,4,3,4,3,4,4,3,2,2,2,4,5,2,5,2,1,4,4,2,2,5,5,5,2,3,4
77.0,2,64.0,6,6,6,4,6,3,2,1,6,6,4,6,6,6,4,4,5,5,5,4,1,4,4,5,4,4,3,6,1,1,5,5,4,2,2,1,4,5,4,6,4,4,3,3,4,4,4,4,4,4,4,5,1,4,4,4,4,4,5,4,4,4,4,4,3,3,6,3,2,2
78.0,2,56.0,5,3,5,5,4,3,2,2,2,5,3,4,3,2,1,2,6,3,2,4,3,3,2,1,3,1,1,4,2,2,5,2,2,5,4,4,4,5,4,2,4,2,2,3,2,2,2,2,3,4,2,5,3,4,4,4,4,5,3,3,2,4,3,0,5,3,4,4,4,2
79.0,0,50.0,5,4,5,4,5,1,5,4,3,5,3,2,3,3,4,4,3,1,4,5,2,2,3,6,5,1,1,6,1,5,5,1,1,6,1,1,2,6,1,1,5,3,3,1,2,5,1,1,1,4,1,5,5,4,5,5,5,5,5,4,3,5,3,4,6,2,5,3,5,1
80.0,2,71.0,5,4,4,4,4,1,2,1,3,3,4,4,4,2,1,2,4,2,5,5,3,4,5,1,1,1,1,5,3,4,4,2,4,4,2,4,3,5,3,3,5,3,1,1,1,3,2,0,3,4,2,3,1,5,5,4,3,5,4,2,4,4,1,4,3,2,4,5,,3
81.0,2,48.0,4,4,5,3,3,1,2,1,1,4,4,3,3,2,3,2,4,3,4,0,2,3,2,2,2,1,1,6,2,1,2,2,3,2,2,1,2,5,3,2,5,2,1,1,2,1,4,1,2,4,2,3,2,5,5,4,2,5,3,1,2,4,1,4,4,,5,5,5,4
82.0,2,56.0,3,2,4,2,2,1,1,1,1,1,5,5,4,4,4,4,4,5,2,2,3,5,3,3,3,3,3,4,4,5,2,2,2,2,2,4,4,3,3,4,3,4,3,2,4,3,5,2,5,4,4,2,4,2,3,3,1,4,3,4,3,4,3,4,5,5,4,3,4,5
83.0,2,55.0,5,1,5,1,1,1,4,1,3,3,2,1,2,4,1,1,1,3,5,5,5,1,1,1,1,1,1,5,1,1,5,1,1,1,1,4,2,6,4,2,5,2,1,1,3,1,1,1,1,5,1,4,1,4,4,5,5,5,3,1,1,4,1,3,6,2,2,5,5,1
84.0,2,24.0,4,3,5,3,3,2,1,2,2,3,4,4,3,3,3,4,3,4,4,3,3,3,3,3,3,2,2,5,4,3,5,2,2,4,3,3,5,5,5,4,4,4,2,1,3,3,3,1,3,3,2,4,3,3,3,3,3,4,3,3,2,4,2,3,5,4,4,4,5,3
85.0,2,58.0,5,2,4,5,5,3,4,3,4,4,4,4,3,4,4,4,5,3,3,3,2,2,4,3,4,4,3,3,4,3,5,2,2,5,4,5,4,4,3,3,2,4,4,4,3,5,4,4,2,3,2,4,2,1,2,5,2,4,4,4,4,3,4,3,5,4,5,2,2,4
86.0,2,68.0,5,5,5,5,5,1,1,1,5,5,1,1,1,1,1,1,4,1,1,1,1,1,1,1,1,1,1,5,1,1,5,1,1,1,1,1,5,5,1,1,4,1,1,1,1,3,1,1,1,4,1,1,1,1,1,1,4,5,1,1,1,4,1,1,6,6,6,5,5,2
87.0,2,42.0,5,4,4,5,4,2,1,1,4,3,4,2,2,2,4,3,4,3,2,3,2,3,4,3,4,4,2,5,2,5,4,3,2,2,4,1,3,5,3,4,2,4,3,3,3,3,3,3,3,4,3,3,3,4,4,5,3,4,2,4,4,4,3,4,5,4,5,3,3,3
88.0,2,25.0,2,1,1,5,2,5,1,1,1,1,4,2,1,3,5,6,6,1,1,1,1,6,3,4,5,6,6,6,6,5,3,2,3,6,3,1,1,3,6,6,2,5,4,1,5,5,2,1,1,4,2,4,5,3,5,5,3,5,3,5,2,2,4,4,4,6,6,2,5,3
89.0,2,25.0,4,2,3,4,2,5,4,4,4,4,4,3,3,5,6,6,4,3,2,1,2,4,4,5,6,6,6,5,6,6,1,5,6,3,2,4,4,2,5,4,3,3,4,1,5,4,5,3,4,3,5,3,5,1,3,3,2,5,1,4,3,2,5,4,1,6,5,2,3,4
90.0,2,36.0,4,5,3,3,2,1,2,1,2,1,5,5,3,1,5,3,2,4,5,5,3,4,3,3,2,1,4,5,4,5,5,4,4,4,5,2,2,3,2,4,3,1,5,1,1,3,4,1,4,5,1,4,3,5,5,5,3,4,2,2,4,3,2,3,3,2,4,1,5,3
91.0,1,48.0,1,1,4,6,4,2,1,1,4,1,1,1,1,6,1,6,6,2,1,1,1,4,4,1,5,4,4,3,2,1,4,2,2,4,1,3,4,3,1,5,1,4,4,3,4,3,1,3,2,3,2,5,2,2,4,5,5,4,5,4,3,3,4,1,5,6,6,2,3,1
92.0,1,60.0,4,3,2,4,3,1,3,3,3,4,4,3,2,2,2,2,5,3,5,4,2,3,2,2,2,2,2,2,2,4,5,2,2,2,2,2,4,5,2,3,4,2,1,1,2,3,2,1,3,4,2,4,3,4,5,4,2,4,4,1,2,4,1,3,5,3,5,5,5,4
93.0,2,36.0,5,4,4,4,2,2,1,1,2,2,5,4,4,1,1,1,1,1,5,5,1,1,1,2,2,2,1,6,4,4,4,2,2,1,1,3,3,5,4,2,4,1,1,1,1,3,3,1,1,5,2,5,1,5,5,5,4,4,3,1,1,4,1,2,5,2,6,5,5,2
94.0,2,49.0,6,5,6,3,5,4,5,2,4,5,5,4,4,2,5,5,5,6,5,3,1,4,4,3,5,4,5,6,6,5,5,5,5,3,1,4,4,4,5,3,4,3,2,1,2,4,3,1,5,5,4,5,5,4,4,5,1,5,4,1,4,4,1,4,2,4,6,4,5,5
95.0,2,38.0,5,4,4,4,3,4,4,3,3,3,4,3,4,0,4,3,3,4,4,4,3,4,3,4,4,3,4,4,4,4,4,3,4,4,3,4,4,4,4,4,4,4,1,1,2,3,3,2,4,4,3,4,3,2,4,4,3,4,3,3,2,4,2,4,3,3,4,5,4,3
96.0,1,27.0,5,4,5,6,4,2,3,1,3,1,4,4,3,4,2,4,5,3,2,4,2,3,1,2,4,4,3,6,3,1,5,2,2,4,4,2,4,6,4,2,4,4,2,1,3,4,3,3,4,5,3,4,4,4,5,5,2,5,4,4,4,5,4,3,5,3,5,4,3,4
97.0,2,31.0,5,2,5,2,4,5,1,1,2,1,5,4,5,3,6,4,2,3,2,4,3,5,1,5,1,1,5,6,4,6,3,4,4,1,4,4,2,3,4,4,4,2,1,1,4,2,5,1,1,4,5,3,5,4,5,5,1,5,1,1,2,4,1,4,3,3,4,5,5,5
98.0,1,71.0,4,2,3,4,3,1,2,2,3,2,4,2,2,4,2,4,4,3,3,2,1,1,5,1,4,3,1,5,2,2,5,2,2,2,1,2,2,3,2,3,5,2,3,1,4,4,1,3,1,3,1,4,1,2,4,4,5,5,4,3,2,3,2,1,5,5,6,3,3,1
99.0,2,47.0,1,6,1,5,3,1,5,1,5,5,4,3,3,2,2,3,5,2,1,3,2,3,2,2,5,4,5,5,4,4,3,4,5,5,4,4,2,4,3,3,2,3,3,3,4,3,2,4,2,3,2,5,1,3,2,5,4,4,5,3,4,3,4,3,2,4,5,3,2,2
100.0,1,49.0,5,4,5,1,1,1,1,1,1,2,2,1,1,1,1,4,1,4,6,4,2,1,1,1,1,1,1,5,1,4,5,1,1,1,1,1,5,5,4,4,5,1,1,1,4,1,1,1,4,4,1,1,3,2,4,4,1,4,2,2,1,4,1,1,6,3,5,5,5,5
101.0,2,70.0,5,4,5,5,2,2,2,1,2,2,5,4,4,3,3,4,5,2,4,4,2,4,2,2,3,2,2,4,2,2,4,3,4,2,2,3,5,4,3,3,4,3,2,2,3,2,3,2,3,4,3,4,3,4,4,4,2,4,3,2,2,4,2,3,3,3,5,4,4,4
102.0,2,59.0,6,3,6,3,2,1,1,2,2,2,4,2,2,2,1,2,4,4,3,3,3,2,2,1,2,1,1,6,3,1,4,3,4,4,2,4,4,5,2,2,5,2,2,1,2,4,3,2,3,4,2,5,1,4,5,0,3,4,4,2,1,5,2,3,3,4,4,4,4,3
103.0,2,46.0,2,2,3,4,5,6,1,1,3,4,6,5,5,4,6,5,6,4,2,1,1,5,4,5,5,5,6,6,6,2,1,5,5,5,3,2,3,1,4,5,3,4,3,2,5,3,5,4,5,2,5,5,4,1,2,5,1,5,4,4,4,2,4,5,2,6,6,3,2,5
104.0,2,32.0,5,2,5,5,3,1,1,1,1,2,5,5,4,3,1,4,6,2,2,2,2,1,2,2,5,4,1,3,3,2,3,2,2,2,2,2,3,5,2,2,2,3,3,1,4,4,2,2,2,3,2,4,1,2,3,4,2,4,2,2,2,4,2,4,5,5,5,3,4,4
105.0,2,25.0,3,2,3,5,2,2,2,1,2,3,5,4,4,2,4,5,5,3,2,2,2,5,4,4,5,3,4,6,5,6,2,5,5,3,2,2,4,4,4,3,3,2,3,1,4,2,4,2,2,3,2,2,5,2,3,2,2,4,1,3,3,2,4,4,2,5,5,3,4,4
106.0,2,46.0,5,3,5,4,3,2,2,1,2,2,5,4,3,1,3,2,4,2,4,5,3,2,1,3,1,2,1,5,0,2,5,2,1,3,2,1,3,5,4,1,5,2,1,1,1,2,2,2,1,5,1,4,2,4,5,4,2,4,2,1,2,4,2,3,6,2,4,5,4,4
107.0,1,60.0,5,4,5,3,3,1,2,1,2,1,4,3,2,2,3,2,4,3,4,4,2,3,2,2,2,2,1,6,2,4,4,2,2,2,2,1,4,5,3,2,4,2,2,2,2,2,2,1,2,5,2,3,2,4,4,3,2,5,2,1,2,5,1,4,5,3,5,4,5,4
108.0,2,71.0,2,1,4,4,2,1,1,1,1,1,5,5,4,1,4,4,4,4,4,4,2,2,2,4,4,4,4,4,4,4,3,3,3,3,3,3,3,3,3,3,3,2,1,1,1,1,3,1,1,3,3,2,2,3,4,4,2,4,3,2,3,3,3,0,4,3,5,5,5,4
109.0,2,47.0,5,5,4,4,3,1,1,1,3,4,4,4,2,1,4,5,5,2,5,3,1,1,1,3,6,1,1,6,2,4,5,1,1,2,2,1,5,5,2,1,5,2,1,2,2,4,1,1,1,4,1,5,1,5,5,5,5,4,3,1,3,4,1,4,6,4,6,5,5,1
110.0,1,51.0,6,3,5,2,2,1,1,1,1,4,2,1,1,1,2,1,4,4,4,5,4,1,1,1,1,1,1,6,3,1,5,2,1,1,1,3,6,6,1,1,5,1,1,1,1,2,1,1,1,5,1,2,1,5,5,5,1,5,2,1,2,4,1,2,6,2,3,5,5,5
111.0,1,80.0,4,4,5,3,2,2,3,2,2,4,4,4,4,2,2,2,4,5,3,4,2,2,3,2,2,3,4,5,4,5,4,2,2,4,2,2,5,5,3,4,4,3,2,1,4,4,4,4,4,4,3,5,3,2,5,4,2,5,2,3,4,5,2,2,5,3,5,4,2,4
112.0,1,46.0,5,3,4,5,4,2,2,2,2,3,5,4,2,4,5,6,5,2,4,2,3,5,2,4,5,2,5,4,3,2,4,4,5,2,4,2,2,4,4,3,4,4,2,3,4,2,5,1,4,3,4,4,2,4,4,5,2,5,4,4,2,3,4,4,2,5,4,4,5,4
113.0,1,56.0,5,2,3,5,2,1,4,2,2,4,5,3,2,4,1,2,6,2,5,4,1,1,1,1,2,1,1,5,1,6,5,1,1,4,4,4,5,5,4,2,4,4,1,1,3,3,1,1,1,5,1,2,4,4,4,5,2,5,1,3,2,4,0,4,6,3,6,5,5,4
114.0,1,69.0,5,3,4,4,3,2,3,2,2,3,3,3,2,3,1,3,3,3,3,4,2,3,3,3,3,3,2,5,4,4,5,2,2,2,2,3,3,4,3,3,4,2,2,3,2,2,2,2,3,4,2,5,3,4,4,4,4,5,3,3,2,4,3,0,5,3,5,4,4,2
115.0,2,35.0,6,5,5,3,5,1,3,4,3,3,5,1,4,3,1,4,4,5,3,3,2,4,3,1,4,4,2,5,5,3,5,4,4,5,3,4,4,3,4,5,3,4,4,3,4,3,4,3,4,4,4,4,4,3,4,4,2,4,2,4,2,4,4,3,3,4,5,2,3,4
116.0,2,82.0,5,4,5,4,5,1,5,4,3,5,3,2,3,3,4,4,3,1,4,5,2,2,3,6,5,1,1,6,1,5,5,1,1,6,1,1,2,6,1,1,5,3,3,1,2,5,1,1,1,4,1,5,5,4,5,5,5,5,5,4,3,5,3,4,6,2,5,3,5,1
117.0,2,65.0,4,3,4,4,3,1,2,2,2,2,4,3,3,2,1,2,4,2,4,4,2,2,3,2,3,1,1,4,3,2,5,3,3,4,1,3,2,4,3,3,4,3,3,3,3,4,3,3,2,3,3,2,4,3,5,4,3,5,4,2,3,4,4,4,4,3,5,3,3,3
118.0,2,19.0,3,3,2,5,3,5,5,5,5,2,5,5,6,4,6,6,6,1,3,6,5,5,5,5,5,4,5,4,4,4,2,4,4,5,4,3,5,3,2,4,2,0,4,4,4,5,5,5,4,2,4,4,4,2,2,5,2,4,4,5,5,2,4,4,3,1,2,2,1,4
119.0,2,56.0,6,2,6,2,2,1,1,1,1,1,4,2,1,1,1,1,2,1,6,6,1,1,1,1,1,1,1,6,1,1,5,1,1,1,1,1,6,6,1,1,4,4,0,2,4,3,4,3,4,3,5,3,5,2,4,4,1,4,2,4,5,2,4,5,6,1,6,,3,5
120.0,2,50.0,5,5,5,4,3,2,2,2,3,1,5,5,2,1,2,1,3,1,5,6,3,1,1,3,1,1,1,6,1,4,6,1,4,2,1,1,6,6,5,1,5,1,1,1,1,4,4,1,1,5,1,4,1,5,5,4,2,5,2,1,2,4,1,4,3,1,4,5,5,4
121.0,2,72.0,1,1,4,3,3,1,1,2,1,1,4,4,1,2,4,4,4,4,1,4,1,3,4,2,4,4,1,4,1,2,4,2,2,1,3,3,3,1,3,3,3,3,2,1,3,2,4,1,3,4,3,4,1,3,3,5,3,5,3,3,5,2,2,4,5,3,6,4,5,3
122.0,2,37.0,5,3,5,5,4,1,1,1,1,1,4,4,4,2,3,2,5,3,2,4,2,3,2,2,1,1,1,5,2,1,3,2,2,3,2,4,4,4,3,1,5,2,2,2,2,5,1,1,4,3,2,4,2,3,5,3,2,5,4,2,2,4,2,4,5,3,5,4,5,4
123.0,2,44.0,5,4,4,4,3,3,5,2,3,4,4,2,2,2,4,3,4,4,4,4,2,4,4,3,2,0,3,6,3,1,4,3,3,4,3,2,3,5,4,3,4,2,2,1,3,3,4,1,3,4,3,4,1,4,5,4,4,4,3,2,4,4,2,4,4,3,5,4,5,2
124.0,1,36.0,5,2,4,5,5,3,4,3,4,4,4,4,3,4,4,4,5,3,3,3,2,2,4,3,4,4,3,3,4,3,5,2,2,5,4,5,4,4,3,3,2,4,4,4,3,5,4,4,2,3,2,4,2,1,2,5,2,4,4,4,4,3,4,3,5,4,5,2,2,4
125.0,2,21.0,5,3,5,6,5,4,2,3,2,2,5,5,5,2,3,4,4,2,3,3,2,2,3,5,4,3,4,5,2,2,4,3,4,4,4,2,4,5,4,2,4,3,2,4,2,4,4,2,3,5,4,4,3,2,4,5,2,5,2,3,4,4,3,4,3,4,5,4,4,4
126.0,2,32.0,5,5,5,3,4,2,2,2,2,2,2,4,2,1,1,2,2,1,5,5,3,1,1,1,1,1,2,5,2,4,5,2,1,1,2,1,4,5,2,2,4,3,4,1,1,1,1,1,1,5,1,3,1,5,5,4,2,4,3,3,2,4,3,2,6,2,4,2,5,4
127.0,2,30.0,6,5,5,3,2,4,3,2,2,1,5,5,2,2,1,2,4,2,4,4,2,2,2,1,2,2,1,5,1,2,5,2,2,3,2,2,4,5,2,2,5,3,2,2,2,3,3,2,2,4,3,5,1,4,5,5,3,5,2,1,1,5,2,4,5,3,5,4,4,3
128.0,1,63.0,5,4,4,5,4,2,1,1,4,3,4,2,2,2,4,3,4,3,2,3,2,3,4,3,4,4,2,5,2,5,4,3,2,2,4,1,3,5,3,4,2,4,3,3,3,3,3,3,3,4,3,3,3,4,4,5,3,4,2,4,4,4,3,4,5,4,5,3,3,3
129.0,2,61.0,6,3,5,2,4,1,1,2,2,1,4,3,3,1,4,2,4,2,5,5,2,1,1,2,1,1,1,6,1,4,5,2,2,2,1,2,5,5,5,2,5,1,1,3,1,2,2,1,1,5,2,4,1,5,5,5,2,5,3,1,4,5,1,4,5,2,5,5,5,4
130.0,2,23.0,6,3,5,3,1,3,1,2,2,3,5,5,6,2,1,2,2,2,3,5,3,1,1,1,1,1,3,6,5,5,4,4,4,3,3,2,2,5,5,2,5,2,1,5,1,2,3,1,2,4,4,2,4,3,5,4,2,5,1,1,3,4,1,4,3,2,4,5,5,4
131.0,2,36.0,5,3,6,4,2,1,1,1,2,2,4,4,4,1,5,4,4,2,3,4,3,4,2,5,1,1,5,6,3,6,5,3,4,2,3,1,5,5,4,2,4,2,2,1,1,1,4,1,4,4,4,4,5,3,4,4,2,5,2,1,4,5,1,4,3,3,4,4,5,4
132.0,2,56.0,5,5,4,5,3,1,2,1,1,1,5,4,2,2,2,4,4,3,3,3,3,4,2,1,1,1,2,5,4,2,5,3,3,3,1,2,4,4,4,4,5,4,1,2,3,2,3,2,3,4,2,5,2,4,4,5,2,5,3,2,2,3,2,4,4,4,4,5,4,4
133.0,1,45.0,5,4,5,5,4,1,2,3,3,2,4,2,2,4,1,2,4,1,5,5,2,1,2,1,2,1,1,5,3,1,5,1,1,1,1,2,4,5,2,1,4,2,3,4,2,4,1,4,2,4,2,5,4,4,4,5,2,5,4,2,2,4,2,2,6,2,5,3,2,4
134.0,2,,5,3,6,2,2,2,1,1,2,2,3,3,3,2,1,1,1,2,5,5,3,2,1,1,1,1,1,5,1,2,5,2,2,2,3,2,5,5,5,3,5,1,1,1,1,2,1,1,1,5,1,4,1,5,5,5,3,5,3,1,3,5,1,3,5,2,4,5,5,3
135.0,2,57.0,4,4,5,4,5,2,2,2,1,3,5,4,4,2,1,4,5,4,3,4,4,4,3,4,2,1,1,5,1,4,4,4,4,2,2,3,4,4,4,2,4,4,1,3,2,3,5,3,3,5,5,5,2,4,5,3,1,5,3,2,3,5,4,5,3,3,3,5,3,5
136.0,2,41.0,5,2,4,6,5,5,2,1,1,1,6,4,6,6,5,6,6,4,1,1,1,5,4,5,6,6,6,6,6,6,2,1,1,1,5,1,2,5,5,4,2,4,5,1,5,4,5,4,4,3,4,5,5,1,1,4,1,5,1,5,4,5,5,5,6,6,6,1,2,5
137.0,1,48.0,4,3,4,3,2,1,1,1,1,1,5,5,5,2,5,4,2,4,3,3,5,4,2,5,2,3,2,5,5,5,3,5,5,3,2,1,4,4,4,2,4,2,4,1,3,1,5,1,3,4,4,2,5,4,4,4,1,4,1,2,4,3,4,5,2,4,2,2,5,5
138.0,2,42.0,6,5,6,3,5,4,5,2,4,5,5,4,4,2,5,5,5,6,5,3,1,4,4,3,5,4,5,6,6,5,5,5,5,3,1,4,4,4,5,3,4,3,2,1,2,4,3,1,5,5,4,5,5,4,4,5,1,5,4,1,4,4,1,4,2,4,6,4,5,5
139.0,2,45.0,5,4,6,5,4,1,1,1,1,4,4,5,1,2,5,2,5,2,5,5,4,2,2,2,2,1,1,6,1,4,5,1,1,3,1,3,4,6,6,1,3,2,1,1,2,2,2,3,1,4,3,3,3,4,5,4,3,5,3,1,1,5,1,3,6,2,3,5,3,3
140.0,2,47.0,5,4,4,4,3,4,4,3,3,3,4,3,4,0,4,3,3,4,4,4,3,4,3,4,4,3,4,4,4,4,4,3,4,4,3,4,4,4,4,4,4,4,1,1,2,3,3,2,4,4,3,4,3,2,4,4,3,4,3,3,2,4,2,4,3,3,4,5,4,3
141.0,2,56.0,5,4,5,6,4,2,3,1,3,1,4,4,3,4,2,4,5,3,2,4,2,3,1,2,4,4,3,6,3,1,5,2,2,4,4,2,4,6,4,2,4,4,2,1,3,4,3,3,4,5,3,4,4,4,5,5,2,5,4,4,4,5,4,3,5,3,5,4,3,4
142.0,2,35.0,5,5,5,3,4,1,1,1,5,1,4,4,3,1,2,2,6,1,4,3,1,1,4,1,2,2,2,6,1,1,5,1,1,1,1,1,5,5,5,3,5,1,2,1,1,4,1,1,1,5,1,5,1,4,4,5,5,5,4,1,1,4,1,1,6,4,6,4,5,1
143.0,1,52.0,5,3,4,5,3,1,1,1,1,2,6,4,4,4,2,1,4,4,1,5,3,1,1,1,2,1,1,5,3,1,3,4,3,2,2,4,3,5,2,1,4,2,1,3,2,2,1,1,1,5,1,3,1,2,5,4,4,4,4,1,2,4,4,4,4,2,4,5,5,2
144.0,2,52.0,5,2,5,4,4,2,3,2,4,3,4,3,3,2,2,3,5,2,1,3,2,3,2,2,5,4,5,5,4,4,3,4,5,5,4,4,2,4,3,3,2,3,3,3,4,3,2,4,2,3,2,5,1,3,2,5,4,4,5,3,4,3,4,3,2,4,5,3,2,2
145.0,2,43.0,6,4,5,2,4,1,3,2,4,2,4,2,1,1,1,2,1,2,4,4,4,1,5,1,3,1,1,5,4,3,5,2,1,2,1,3,4,6,1,3,4,4,1,2,1,3,3,1,3,5,2,4,1,4,4,4,3,4,4,1,3,4,1,4,6,3,3,5,5,3
146.0,2,52.0,5,5,6,4,2,1,1,1,1,1,4,2,1,6,4,5,3,1,6,2,2,1,1,4,1,1,1,6,1,5,2,4,1,3,1,6,0,3,1,1,5,3,5,1,2,2,4,1,4,4,3,4,2,5,5,4,3,5,4,2,1,5,2,2,6,5,5,1,5,3
147.0,2,25.0,5,4,5,5,2,2,2,1,2,2,5,4,4,3,3,4,5,2,4,4,2,4,2,2,3,2,2,4,2,2,4,3,4,2,2,3,5,4,3,3,4,3,2,2,3,2,3,2,3,4,3,4,3,4,4,4,2,4,3,2,2,4,2,3,3,3,5,4,4,4
148.0,1,48.0,4,4,2,5,4,1,3,4,3,4,4,2,2,4,4,4,6,4,1,1,1,3,4,2,6,5,2,1,4,2,4,5,4,4,2,4,3,3,4,5,2,3,4,5,2,5,2,4,3,2,2,4,2,1,1,5,4,3,4,3,1,3,1,3,3,6,6,2,2,2
149.0,1,55.0,4,2,1,6,5,2,2,2,5,5,4,2,2,5,2,4,6,1,1,3,1,1,5,1,5,5,4,2,2,2,2,2,2,6,5,4,1,2,3,2,2,4,3,4,2,5,2,4,1,3,1,5,2,1,2,5,4,5,5,4,3,2,5,3,5,4,6,3,2,2
150.0,1,68.0,5,4,6,2,2,1,3,3,3,3,6,6,2,2,2,2,2,1,5,5,3,3,2,1,3,2,1,6,1,1,5,2,2,2,1,1,5,5,1,1,5,2,1,1,1,1,1,1,1,5,1,1,1,5,5,4,5,5,3,1,3,5,1,4,5,2,4,5,5,1
151.0,1,41.0,5,3,4,5,5,2,2,2,2,2,4,4,2,4,2,5,5,3,4,2,2,2,2,2,4,4,4,2,1,1,4,2,2,5,2,2,2,5,3,2,3,3,4,4,1,5,3,4,3,3,2,5,1,2,2,5,2,4,5,1,2,3,1,3,5,5,5,2,2,4
152.0,2,49.0,5,4,5,4,4,1,2,1,2,4,4,2,2,1,2,2,5,2,5,5,2,4,2,2,2,2,2,5,2,2,5,4,3,4,2,4,5,5,4,2,5,1,1,1,2,3,4,1,3,5,3,5,4,5,4,4,2,5,4,2,3,4,2,3,4,2,5,5,5,4
153.0,2,55.0,5,4,5,5,4,2,3,2,2,2,5,3,2,2,2,4,5,4,3,3,2,3,2,3,1,2,2,4,3,2,5,3,3,4,3,2,4,5,2,2,4,4,1,1,4,2,2,1,4,2,1,5,3,4,5,5,2,5,3,2,3,4,2,3,4,4,5,5,5,4
154.0,2,35.0,0,4,4,5,6,3,2,1,4,5,3,3,3,6,1,5,5,1,2,5,1,2,5,1,5,4,1,4,3,1,4,1,1,3,2,5,2,4,4,2,1,3,4,5,3,5,3,5,3,3,2,5,2,1,4,5,3,3,4,3,2,3,2,3,6,2,6,2,1,3
155.0,2,53.0,5,2,2,3,4,5,5,2,2,2,2,2,3,5,5,5,5,3,5,2,1,4,5,5,2,4,3,5,2,1,3,4,4,5,5,2,5,4,3,5,3,4,3,3,4,5,3,4,3,3,3,5,2,3,5,5,3,5,3,4,4,2,3,1,3,5,6,3,2,3
156.0,2,49.0,5,5,6,2,2,1,1,1,1,1,5,2,3,1,1,1,3,2,4,4,1,4,3,5,4,1,1,6,4,3,5,2,2,2,1,2,5,5,1,2,4,1,2,3,2,5,1,2,1,4,1,5,1,4,4,4,4,5,4,1,1,3,1,1,5,3,6,4,4,2
157.0,2,40.0,5,4,6,3,4,1,2,2,4,4,4,3,2,4,1,4,4,4,3,3,2,4,5,2,3,3,2,5,1,5,3,1,1,4,2,2,4,5,6,4,4,4,3,1,3,5,3,4,2,5,1,3,3,4,5,4,3,5,4,3,2,5,4,3,6,4,5,3,2,3
158.0,1,60.0,5,4,5,5,5,1,1,1,1,1,5,1,1,1,1,1,1,1,5,5,1,1,1,1,1,1,1,5,1,1,5,1,1,1,1,1,5,5,1,1,4,3,1,1,4,1,1,1,3,4,1,1,1,4,4,4,5,4,4,1,1,4,1,4,6,2,6,5,5,1
159.0,2,40.0,5,4,4,5,4,1,2,1,4,3,4,4,4,3,1,2,4,4,4,4,4,4,2,2,2,2,2,5,3,4,4,2,3,4,4,4,4,5,4,4,4,2,2,2,2,2,2,2,2,4,2,3,2,4,5,4,2,4,3,3,3,3,3,4,4,3,3,4,4,4
160.0,2,15.0,5,3,4,5,4,2,2,2,2,3,5,4,2,4,5,6,5,2,4,2,3,5,2,4,5,2,5,4,3,2,4,4,5,2,4,2,2,4,4,3,4,4,2,3,4,2,5,1,4,3,4,4,2,4,4,5,2,5,4,4,2,3,4,4,2,5,4,4,5,4
161.0,1,54.0,6,2,4,5,4,1,2,2,2,2,3,2,2,2,1,4,4,2,5,3,2,2,2,1,2,2,1,2,1,1,5,2,2,5,2,4,2,2,4,2,4,3,2,4,3,3,1,2,3,2,2,4,2,4,4,4,2,4,4,2,3,3,2,2,5,4,5,4,4,4
162.0,2,66.0,5,4,5,4,5,1,3,3,5,5,0,1,4,2,4,3,5,4,4,5,3,4,2,3,2,2,3,5,4,3,5,3,3,3,3,2,4,5,4,3,4,3,2,2,3,4,3,3,4,4,2,4,2,3,4,5,4,5,4,2,3,4,2,3,4,2,4,4,3,2
163.0,2,41.0,5,3,3,6,2,2,1,1,3,3,6,4,4,2,4,5,6,5,2,1,1,5,3,5,4,4,4,4,3,4,4,3,4,5,4,2,3,3,2,3,4,5,2,1,2,2,4,2,4,4,4,5,4,4,4,5,1,4,2,3,4,4,3,5,3,6,6,4,4,5
164.0,1,68.0,5,2,5,5,5,2,5,2,2,2,1,1,1,5,1,5,5,1,2,2,1,1,5,1,5,2,2,5,1,2,5,1,1,1,2,2,5,5,5,2,2,4,4,4,3,3,1,5,3,3,1,5,1,1,3,5,5,5,5,5,3,5,3,1,6,5,6,2,1,1
165.0,1,47.0,5,4,5,4,4,1,1,1,1,3,4,3,1,2,1,3,1,2,4,4,1,1,2,1,3,2,1,5,1,1,5,1,1,3,2,2,2,5,2,2,3,2,3,4,4,5,1,4,2,4,1,5,1,3,4,5,1,4,3,3,3,4,1,4,6,3,6,3,2,5
166.0,2,43.0,5,2,5,5,6,3,1,1,4,2,4,4,5,6,2,6,6,2,2,6,6,2,6,2,6,6,3,3,1,1,5,1,1,4,3,4,5,5,1,1,2,4,5,5,4,5,2,5,1,4,1,5,1,1,2,5,4,4,5,2,3,4,4,2,6,1,1,1,1,2
167.0,2,65.0,3,3,2,5,3,5,5,5,5,2,5,5,6,4,6,6,6,1,3,6,5,5,5,5,5,4,5,4,4,4,2,4,4,5,4,3,5,3,2,4,2,0,4,4,4,5,5,5,4,2,4,4,4,2,2,5,2,4,4,5,5,2,4,4,3,1,2,2,1,4
168.0,2,31.0,4,2,3,5,3,5,3,1,1,2,6,3,1,5,5,5,5,2,2,2,1,4,2,3,6,6,6,5,5,5,2,5,5,3,5,4,2,2,4,5,4,4,0,2,4,3,4,3,4,3,5,3,5,2,4,4,1,4,2,4,5,2,4,5,2,5,6,,3,5
169.0,2,46.0,5,2,5,5,5,3,2,1,1,1,5,3,2,2,2,3,6,2,5,4,2,4,2,1,2,2,2,6,2,2,5,2,2,6,2,4,2,5,5,4,5,3,3,1,1,4,3,1,3,4,2,5,2,4,4,5,2,5,4,2,3,4,1,4,5,3,5,3,5,4
170.0,1,67.0,5,5,5,5,5,1,4,2,1,5,5,5,5,3,3,4,6,4,6,5,1,5,4,3,2,4,1,1,1,1,6,1,1,6,1,1,4,5,1,1,4,3,3,3,3,3,4,3,4,0,4,4,3,4,5,5,4,4,4,2,2,4,2,3,6,2,6,3,3,2
171.0,2,53.0,5,5,4,4,4,1,2,1,1,3,5,4,5,3,1,3,5,3,3,5,3,3,4,1,4,4,2,4,1,1,6,1,1,4,1,3,3,4,3,2,2,3,2,2,3,4,3,3,2,4,2,4,2,3,3,5,4,5,4,3,4,4,2,3,6,2,4,4,3,2
172.0,2,58.0,5,4,5,5,3,2,2,2,2,3,4,4,3,1,1,2,2,4,5,4,1,2,2,2,2,2,2,6,2,2,5,2,2,2,2,2,5,4,2,2,5,2,2,1,2,4,4,1,3,5,1,4,1,5,5,5,2,5,4,1,2,5,1,4,5,3,6,4,5,4
173.0,2,28.0,4,3,3,4,2,2,3,3,2,2,5,4,4,3,4,2,4,2,2,4,2,2,2,4,2,2,5,4,4,3,3,4,4,3,3,4,2,3,4,4,4,2,2,2,2,3,4,2,3,4,4,4,4,2,3,4,2,4,0,2,5,3,2,4,3,3,5,4,4,4
174.0,2,58.0,5,6,5,4,4,1,4,2,3,2,5,5,5,3,3,2,6,4,4,4,2,4,4,4,4,4,4,5,4,5,4,3,2,3,2,3,4,5,5,4,2,2,2,3,4,4,4,3,4,4,4,5,3,4,4,4,2,5,3,3,3,4,4,4,5,3,5,4,3,4
175.0,2,49.0,5,2,4,4,5,2,2,2,2,3,2,2,1,2,1,4,4,2,2,3,2,3,5,1,3,1,2,2,2,2,3,2,2,2,1,2,5,4,3,4,4,4,3,4,2,4,2,2,2,4,2,4,2,2,3,4,2,4,4,3,2,4,2,2,5,4,5,3,4,4
176.0,2,45.0,6,5,5,3,2,1,2,1,3,3,5,3,3,2,1,1,3,1,5,5,3,3,2,1,1,1,1,5,1,4,5,2,2,2,1,2,5,5,4,1,4,2,4,1,1,2,2,1,2,5,2,3,2,4,4,4,3,5,2,2,1,5,2,3,5,2,4,2,5,3
177.0,1,48.0,5,5,5,3,4,2,2,2,2,2,2,4,2,1,1,2,2,1,5,5,3,1,1,1,1,1,2,5,2,4,5,2,1,1,2,1,4,5,2,2,4,3,4,1,1,1,1,1,1,5,1,3,1,5,5,4,2,4,3,3,2,4,3,2,6,2,4,2,5,4
178.0,2,46.0,6,5,5,3,2,4,3,2,2,1,5,5,2,2,1,2,4,2,4,4,2,2,2,1,2,2,1,5,1,2,5,2,2,3,2,2,4,5,2,2,5,3,2,2,2,3,3,2,2,4,3,5,1,4,5,5,3,5,2,1,1,5,2,4,5,3,5,4,4,3
179.0,2,66.0,5,5,5,5,4,1,2,2,5,4,4,3,2,2,2,2,2,4,5,5,2,2,2,2,2,2,2,5,3,4,5,2,2,2,2,2,4,5,4,3,4,4,3,2,2,4,2,1,2,5,2,4,3,4,4,5,4,4,4,2,3,4,2,3,5,2,5,3,5,2
180.0,2,65.0,6,3,5,2,4,1,1,2,2,1,4,3,3,1,4,2,4,2,5,5,2,1,1,2,1,1,1,6,1,4,5,2,2,2,1,2,5,5,5,2,5,1,1,3,1,2,2,1,1,5,2,4,1,5,5,5,2,5,3,1,4,5,1,4,5,2,5,5,5,4
181.0,2,49.0,6,4,4,6,5,1,1,2,5,4,4,2,1,1,2,5,6,3,5,1,1,1,6,1,6,6,3,6,2,6,5,1,1,5,2,2,5,4,4,4,2,4,3,1,5,4,2,3,3,2,1,4,4,3,4,5,4,4,3,4,2,2,3,2,6,6,6,3,3,2
182.0,2,49.0,5,2,5,5,4,3,1,1,3,1,5,3,1,4,1,3,5,3,2,4,2,2,5,1,4,4,1,5,4,1,3,1,1,1,2,2,5,0,1,2,4,2,2,2,2,4,1,3,1,5,1,5,1,2,4,5,4,5,5,2,4,4,4,1,6,3,5,4,3,2
183.0,2,56.0,5,5,5,6,5,3,2,2,2,2,4,4,4,2,2,4,4,4,5,4,2,4,3,4,4,4,4,4,4,5,4,4,4,4,3,4,4,4,5,4,4,3,2,1,4,4,2,2,3,4,4,4,4,4,4,4,2,5,2,4,4,4,4,4,3,3,5,4,4,4
184.0,1,71.0,4,4,5,4,3,1,1,1,2,3,4,5,2,3,1,1,3,2,3,5,4,3,3,1,4,2,2,5,1,4,5,2,2,3,1,2,2,5,3,2,3,1,2,2,2,3,1,3,3,4,2,3,2,2,4,4,2,5,2,2,1,4,1,2,5,2,3,4,3,4
185.0,1,66.0,5,5,4,5,4,1,1,2,5,2,4,4,2,2,1,3,5,2,4,2,2,2,1,1,1,1,1,6,2,4,5,1,1,2,1,3,4,4,4,4,5,4,1,1,2,2,3,1,1,3,1,4,1,4,4,4,3,5,2,2,1,4,1,2,6,5,5,5,5,3
186.0,2,37.0,5,2,6,1,1,1,1,1,5,3,5,4,2,1,3,1,1,1,5,5,2,1,1,1,1,1,2,6,1,2,5,1,4,3,1,1,5,5,2,1,5,1,1,1,1,1,2,1,1,5,3,4,1,5,5,5,2,5,4,1,2,5,1,4,3,2,5,5,5,4
187.0,1,38.0,6,5,5,4,2,1,3,1,2,4,5,2,5,1,4,4,4,3,5,5,1,3,1,3,2,1,1,5,3,4,5,2,2,2,2,1,2,6,4,4,4,2,1,2,3,5,4,1,1,5,2,5,3,5,5,5,4,5,4,1,2,5,1,4,5,2,6,5,5,2
188.0,1,48.0,5,4,4,6,4,5,5,5,5,5,5,2,1,3,2,5,5,5,5,5,1,4,6,3,5,5,3,5,2,1,5,1,1,5,5,2,5,5,3,1,2,5,4,3,5,5,2,3,4,1,2,5,3,1,1,5,2,5,3,5,4,4,5,3,6,2,6,2,3,4
189.0,2,25.0,4,2,4,6,4,6,5,2,4,5,6,6,6,5,6,6,6,2,2,2,1,6,6,6,6,6,6,4,6,6,4,5,5,6,6,1,4,4,2,4,3,4,4,4,4,5,5,4,3,3,5,5,5,2,3,5,1,4,4,5,2,5,4,5,2,5,6,2,2,5
190.0,1,65.0,3,5,4,4,5,5,4,2,5,2,5,5,4,4,3,2,5,2,3,3,2,1,3,1,3,1,3,5,1,5,5,1,2,3,1,2,4,5,4,2,4,2,2,4,2,1,3,4,2,4,2,5,1,3,4,4,3,5,4,2,3,4,2,4,5,4,5,4,2,3
191.0,1,43.0,5,2,3,6,4,2,1,0,5,5,5,3,1,4,4,5,5,3,2,2,1,4,2,2,3,4,2,4,2,3,3,3,3,2,4,1,2,3,4,4,2,5,4,3,4,5,3,2,5,2,4,4,4,1,4,4,2,5,5,2,4,2,5,4,4,5,6,2,4,4
192.0,2,45.0,5,4,6,5,3,1,4,2,3,4,3,1,1,2,1,1,1,1,1,1,2,2,2,1,1,1,1,6,1,1,5,1,1,1,1,3,5,6,1,1,5,4,1,2,1,4,1,1,1,1,5,4,1,3,5,5,5,4,4,1,1,5,1,1,6,6,5,5,5,1
193.0,2,22.0,5,4,5,3,4,1,1,1,3,1,5,4,6,2,2,3,3,4,3,3,4,2,2,2,1,1,1,5,3,4,5,4,4,3,0,2,4,5,4,2,5,2,1,2,3,2,4,1,2,4,2,3,2,4,0,4,2,5,3,2,1,4,2,3,3,4,3,5,5,4
194.0,2,25.0,5,4,6,5,4,1,1,1,1,4,4,5,1,2,5,2,5,2,5,5,4,2,2,2,2,1,1,6,1,4,5,1,1,3,1,3,4,6,6,1,3,2,1,1,2,2,2,3,1,4,3,3,3,4,5,4,3,5,3,1,1,5,1,3,6,2,3,5,3,3
195.0,2,64.0,4,2,4,4,4,3,3,1,2,1,4,3,4,3,4,3,4,2,2,4,2,4,4,4,4,3,2,4,4,4,4,4,4,5,3,3,4,4,2,3,4,3,3,2,3,4,3,3,3,4,4,4,4,3,2,4,2,4,3,3,3,4,3,4,3,3,5,3,3,4
196.0,2,39.0,5,3,4,5,5,3,4,3,3,3,5,5,4,4,4,3,5,2,3,4,3,3,4,4,2,2,4,5,2,4,3,4,4,4,4,5,4,4,3,2,4,2,2,2,2,3,4,2,4,4,4,4,2,4,4,4,2,4,4,2,3,4,2,4,3,3,4,4,4,4
197.0,2,42.0,6,5,5,3,3,1,1,1,1,2,5,2,2,2,1,1,2,2,6,6,5,1,2,1,1,1,1,6,2,2,5,1,1,1,1,1,5,6,2,1,5,1,1,1,1,2,1,1,1,5,1,3,2,5,5,4,4,4,3,1,1,5,1,2,6,1,2,5,5,2
198.0,2,56.0,4,5,5,4,1,1,5,5,1,4,4,1,1,1,1,4,1,1,1,1,1,1,1,1,1,1,1,6,1,4,1,3,4,4,1,1,5,5,1,4,1,1,1,1,4,3,4,1,1,3,1,4,4,1,1,5,1,4,1,3,3,4,3,4,3,6,6,5,5,5
199.0,1,54.0,6,4,5,2,4,1,3,2,4,2,4,2,1,1,1,2,1,2,4,4,4,1,5,1,3,1,1,5,4,3,5,2,1,2,1,3,4,6,1,3,4,4,1,2,1,3,3,1,3,5,2,4,1,4,4,4,3,4,4,1,3,4,1,4,6,3,3,5,5,3
200.0,2,51.0,2,2,4,3,3,3,3,3,4,2,5,4,3,3,5,4,3,3,3,3,2,3,2,5,2,2,3,5,4,3,2,4,4,5,3,1,2,3,2,2,4,2,1,1,4,3,4,1,3,2,4,3,1,2,4,0,4,5,3,1,4,3,1,5,3,4,5,5,5,2
201.0,1,26.0,5,3,5,6,6,4,6,2,6,5,5,4,5,6,3,4,6,5,3,4,3,4,5,2,3,3,5,4,2,2,5,4,5,5,4,2,3,4,2,5,4,3,4,4,2,2,4,4,5,4,4,4,2,2,3,4,4,4,4,5,2,3,2,4,2,3,4,2,2,2
202.0,2,42.0,4,2,2,5,4,4,4,4,2,4,2,2,2,3,4,3,4,4,4,4,2,3,5,3,3,1,4,6,4,2,5,3,2,4,4,2,4,4,3,4,3,2,3,3,4,2,4,4,5,5,4,3,3,2,4,4,2,5,2,4,4,4,2,4,5,3,5,3,2,4
203.0,2,47.0,5,4,4,4,3,2,0,5,4,2,5,5,2,4,1,3,5,1,4,5,2,2,4,2,4,2,3,5,2,4,5,2,2,3,2,2,5,5,4,2,4,1,3,1,1,2,3,2,3,5,2,3,2,4,4,4,2,4,1,2,3,4,2,4,5,2,5,3,4,4
204.0,2,40.0,5,3,5,4,2,4,5,2,1,1,4,2,3,2,3,4,3,1,5,3,2,1,2,2,2,1,1,4,1,1,2,1,1,1,1,1,5,5,1,1,4,1,2,1,1,3,3,2,1,4,1,2,2,4,4,5,3,5,4,1,3,4,1,3,6,4,5,4,4,3
205.0,2,47.0,5,5,6,6,4,1,4,2,4,1,4,2,3,5,2,2,5,3,5,5,1,5,2,2,5,2,1,5,2,5,5,3,2,2,2,4,3,4,5,2,5,2,2,4,1,4,4,1,1,5,2,5,2,4,4,5,2,5,5,1,4,5,1,4,5,2,6,4,5,4
206.0,2,59.0,5,4,5,5,4,6,4,1,4,2,4,4,4,2,1,4,5,2,5,6,1,2,3,1,3,3,1,4,1,1,2,1,1,3,2,2,5,5,2,1,4,3,2,2,3,4,1,3,3,4,1,4,2,5,5,5,4,4,4,2,3,5,1,3,6,1,6,4,3,2
207.0,2,45.0,5,5,4,4,2,2,1,1,4,2,4,5,3,3,4,2,4,4,4,4,1,4,2,4,3,3,2,6,1,3,4,4,4,4,3,2,4,4,4,4,4,3,1,1,2,4,3,2,4,5,4,3,4,5,5,4,3,5,3,2,3,4,3,4,3,3,6,5,4,3
208.0,2,34.0,4,3,4,5,5,1,5,4,4,4,4,5,2,4,4,4,6,3,2,2,1,3,3,3,4,2,3,3,3,3,4,2,3,4,3,4,4,4,3,3,4,3,3,4,4,5,3,4,3,3,2,5,3,2,3,5,4,4,5,3,3,3,3,3,4,5,6,3,2,2
209.0,2,39.0,4,1,1,5,5,1,1,1,1,1,5,5,5,5,6,6,5,3,6,1,1,5,4,6,5,6,5,4,5,5,6,6,6,6,6,3,1,1,5,5,3,5,5,2,5,4,5,4,2,3,5,4,5,1,2,4,1,4,3,5,5,3,5,4,1,6,6,1,2,5
210.0,2,24.0,4,2,4,5,4,1,4,4,5,5,5,5,5,3,4,4,4,5,2,4,4,5,3,4,4,4,5,5,4,5,3,4,4,5,5,4,5,4,5,4,3,3,2,4,3,3,4,2,4,4,4,4,3,2,4,4,3,4,2,2,3,2,2,4,3,3,3,4,4,3
211.0,2,61.0,4,4,5,4,4,6,4,3,4,1,5,5,5,5,5,5,6,5,2,2,2,5,4,5,5,5,5,4,6,6,4,6,5,6,6,2,3,4,5,6,3,5,3,4,4,3,4,3,5,2,4,3,4,1,3,3,2,3,2,5,3,3,4,4,2,5,5,3,3,4
212.0,2,68.0,6,3,6,2,2,1,2,2,3,3,5,4,4,2,1,1,5,2,5,5,1,1,3,1,2,3,1,2,1,1,5,2,1,2,1,1,5,5,2,1,4,1,1,3,2,3,3,1,3,4,1,4,1,4,4,5,4,5,5,1,3,5,1,2,6,2,6,5,5,2
213.0,2,34.0,5,3,5,5,5,2,4,2,2,3,2,4,4,1,1,2,5,1,6,5,4,1,1,1,1,1,1,5,1,1,5,2,1,4,2,3,4,5,2,2,5,1,1,2,1,2,2,1,2,4,1,5,1,5,5,4,2,4,5,1,2,4,1,4,6,2,3,5,5,4
214.0,1,36.0,5,4,4,4,3,2,1,1,1,1,4,4,4,4,2,2,5,4,3,5,1,4,3,1,2,2,2,5,2,4,5,2,2,3,2,4,2,5,4,3,4,2,2,2,2,2,3,3,3,4,2,4,2,3,4,4,4,4,3,2,4,4,2,2,5,2,6,4,3,2
215.0,2,71.0,5,4,5,4,5,1,3,3,5,4,2,5,2,1,1,1,5,3,3,5,1,2,2,1,1,4,2,4,2,3,2,1,1,5,2,1,3,6,1,2,4,4,2,2,4,4,2,1,3,5,2,1,1,4,4,5,2,4,4,1,2,4,1,4,6,2,6,4,5,4
216.0,1,62.0,5,2,3,3,3,2,3,3,3,2,4,4,4,3,4,4,3,4,4,4,1,2,2,2,3,2,3,2,1,3,5,3,3,4,3,4,4,3,3,4,4,4,3,4,3,4,4,3,4,4,4,3,4,3,4,4,4,4,4,3,4,3,4,4,4,3,6,3,3,2
217.0,1,57.0,4,4,5,5,5,1,1,1,3,2,2,2,1,2,1,1,5,4,5,5,2,1,2,1,1,1,1,2,1,1,5,3,2,5,2,2,5,5,2,1,4,1,2,3,2,5,1,2,1,4,1,5,1,4,4,4,4,5,4,1,1,3,1,1,5,2,5,4,4,2
218.0,1,75.0,5,4,6,3,4,1,2,2,4,4,4,3,2,4,1,4,4,4,3,3,2,4,5,2,3,3,2,5,1,5,3,1,1,4,2,2,4,5,6,4,4,4,3,1,3,5,3,4,2,5,1,3,3,4,5,4,3,5,4,3,2,5,4,3,6,4,5,3,2,3
219.0,1,62.0,5,3,5,4,5,2,6,4,4,4,3,3,5,2,5,2,4,2,5,5,3,3,5,2,2,2,3,5,5,4,5,2,2,5,2,4,4,5,2,2,4,2,2,4,3,5,2,3,2,4,2,5,2,3,4,5,5,5,3,2,3,4,2,2,5,2,4,4,3,1
220.0,2,50.0,5,3,4,5,3,2,2,2,2,2,4,4,2,2,2,2,4,2,5,5,3,3,1,1,2,1,1,5,0,4,4,1,1,3,2,3,4,4,4,2,5,1,3,1,1,2,2,1,1,5,1,3,2,4,4,4,2,5,2,1,3,4,2,3,6,2,4,3,5,4
221.0,2,55.0,5,2,5,4,4,2,2,2,4,4,5,4,4,3,4,3,4,4,3,5,3,4,4,2,2,2,2,5,2,4,3,4,4,3,4,4,4,4,5,3,4,1,1,1,3,4,4,2,3,5,4,4,4,4,4,5,2,5,3,3,3,4,1,4,3,2,4,5,4,4
222.0,2,39.0,5,4,4,5,5,3,1,1,1,2,5,3,4,1,2,2,5,2,5,6,1,2,2,2,2,2,2,1,1,1,5,1,1,1,1,1,4,5,2,2,4,1,1,3,1,3,2,1,1,4,1,4,1,5,5,5,3,4,4,2,3,3,1,4,6,1,6,5,5,3
223.0,1,57.0,4,3,5,4,3,1,1,1,1,3,4,2,4,3,3,2,4,2,4,5,4,4,2,3,2,2,2,5,3,3,4,2,4,1,2,2,3,5,4,1,4,1,2,1,1,3,3,2,3,5,2,4,4,4,4,4,3,5,3,5,2,5,2,4,3,2,3,4,4,3
224.0,2,35.0,4,3,5,5,5,2,2,1,3,3,5,4,2,5,4,5,5,3,4,4,3,4,2,4,4,3,3,5,4,5,5,4,4,3,4,2,4,5,2,2,4,2,2,2,1,3,4,2,2,4,4,4,2,2,4,4,2,5,4,1,2,4,2,4,3,3,4,4,4,4
225.0,2,34.0,5,3,4,4,3,2,3,1,3,4,4,2,2,2,2,2,5,3,3,3,2,3,3,4,3,2,4,6,2,6,4,3,3,2,3,2,4,5,4,2,4,4,2,2,3,3,4,3,3,4,4,5,4,3,4,4,3,4,2,3,3,4,3,4,4,4,5,4,3,3
226.0,2,56.0,4,4,3,5,3,1,1,1,4,2,3,3,1,3,1,3,4,4,4,3,1,3,3,2,2,2,1,4,4,2,5,1,1,3,1,4,3,4,1,1,4,4,3,3,3,4,2,3,1,3,1,4,2,3,3,4,4,4,3,3,4,2,3,2,6,4,6,3,3,2
227.0,2,45.0,5,3,5,4,4,1,1,1,4,1,4,4,2,2,1,1,1,1,4,4,2,2,2,1,1,1,1,4,1,1,5,1,1,1,1,4,4,4,1,1,4,2,2,1,1,3,1,1,1,4,1,4,1,4,4,4,4,5,4,1,1,4,1,3,6,3,5,4,5,2
228.0,1,33.0,1,2,3,5,6,5,4,3,2,1,1,2,3,4,5,6,5,4,3,2,1,2,3,4,5,6,5,4,3,2,1,2,3,4,5,6,5,4,3,2,1,2,3,4,5,4,3,2,1,2,3,4,5,4,3,2,1,2,2,3,4,5,4,3,4,5,6,3,4,5
229.0,2,51.0,2,2,2,5,5,6,1,1,1,1,6,5,5,5,6,6,1,3,1,1,2,5,6,6,6,6,6,3,5,6,2,1,6,6,6,1,1,1,4,4,1,1,4,4,5,2,5,5,5,1,5,2,5,1,1,1,1,3,1,5,5,2,5,5,1,6,5,2,1,5
230.0,1,47.0,5,3,5,6,4,1,1,2,2,3,4,2,2,2,1,4,4,3,5,2,1,1,1,1,1,1,1,2,1,1,5,1,1,2,1,1,6,2,4,2,5,4,2,2,2,3,1,2,1,4,1,5,1,5,5,5,5,4,4,1,3,4,2,1,6,5,6,4,4,1
231.0,2,43.0,4,3,5,5,4,4,2,2,3,3,4,4,4,4,4,4,4,2,5,4,2,2,2,2,2,1,3,5,3,2,5,1,2,3,2,4,1,4,4,4,4,3,2,1,1,3,3,1,3,4,3,5,3,3,5,5,2,3,4,3,3,3,2,4,5,3,5,4,5,4
232.0,2,51.0,5,2,2,5,4,1,4,3,4,5,2,3,5,5,4,3,4,4,2,3,3,3,3,2,4,4,4,4,4,3,4,4,4,4,3,3,3,4,3,4,3,3,3,2,3,2,2,3,3,3,3,4,4,2,3,5,4,3,2,4,3,3,4,2,3,4,4,3,3,2
233.0,1,30.0,5,4,6,4,2,1,1,1,1,4,5,3,2,2,1,1,2,1,4,4,4,1,2,1,2,2,1,5,1,1,5,1,2,5,2,1,5,5,4,3,5,1,1,1,1,1,1,1,1,4,1,4,1,4,5,5,4,5,2,2,4,4,1,2,5,3,3,5,5,2
234.0,1,23.0,5,5,5,2,3,1,2,1,1,1,5,2,2,3,4,1,4,3,5,5,2,2,2,3,2,4,3,5,4,1,4,5,5,2,2,2,2,5,3,1,4,1,1,1,1,4,4,3,2,4,4,4,2,4,4,4,2,4,4,1,4,4,1,4,2,2,5,5,3,4
235.0,2,55.0,1,2,3,4,5,6,5,4,3,2,1,2,3,4,5,6,5,4,3,2,1,2,3,4,5,6,5,4,3,2,1,2,3,4,5,6,5,4,3,2,1,2,3,4,5,4,3,2,1,2,3,4,5,4,3,2,1,2,3,4,5,4,3,2,4,5,6,3,4,5
236.0,1,29.0,5,3,6,3,1,1,6,2,2,3,5,4,1,1,1,1,1,1,6,6,5,4,1,1,1,1,1,6,2,1,6,1,1,6,3,2,6,6,5,1,5,1,1,1,1,1,3,1,1,5,1,4,1,4,5,5,4,5,4,1,2,5,1,4,6,1,2,5,5,2
237.0,1,20.0,4,4,4,4,3,3,4,2,5,3,4,2,3,2,3,4,5,3,3,3,2,2,2,2,3,3,1,6,3,5,4,3,4,4,4,2,4,5,4,3,5,3,3,2,4,4,4,3,3,4,3,4,3,3,5,5,3,5,2,3,3,3,3,4,3,4,5,3,3,3
238.0,1,62.0,5,2,2,5,4,1,1,1,2,5,4,2,2,4,1,2,2,5,2,5,3,4,3,1,2,2,2,4,3,2,3,3,4,3,2,3,3,3,4,5,4,3,2,2,2,3,3,2,3,4,2,5,2,3,4,4,3,4,4,3,3,2,2,2,3,2,4,4,4,3
239.0,1,65.0,5,4,5,5,3,2,2,2,2,3,4,4,3,1,1,2,2,4,5,4,1,2,2,2,2,2,2,6,2,2,5,2,2,2,2,2,5,4,2,2,5,2,2,1,2,4,4,1,3,5,1,4,1,5,5,5,2,5,4,1,2,5,1,4,5,3,6,4,5,4
240.0,2,59.0,5,4,5,5,3,2,2,2,4,3,4,4,2,1,1,1,5,2,5,5,2,2,2,2,2,2,1,6,1,4,5,2,2,4,2,2,5,5,4,2,4,1,2,1,1,5,2,1,1,5,1,5,2,4,5,5,2,5,3,1,1,5,1,3,5,2,5,4,5,4
241.0,2,67.0,4,2,4,5,5,1,1,1,2,2,4,4,4,5,5,2,2,5,2,5,2,3,2,1,2,3,2,4,5,2,5,4,4,2,1,2,3,4,2,1,4,2,3,4,3,3,4,3,3,4,4,4,2,2,3,5,2,5,5,2,4,4,2,3,3,2,5,3,3,4
242.0,2,44.0,5,2,4,4,5,2,2,2,2,3,2,2,1,2,1,4,4,2,2,3,2,3,5,1,3,1,2,2,2,2,3,2,2,2,1,2,5,4,3,4,4,4,3,4,2,4,2,2,2,4,2,4,2,2,3,4,2,4,4,3,2,4,2,2,5,4,5,3,4,4
243.0,2,50.0,6,4,5,4,2,1,2,1,3,2,4,2,4,2,4,2,4,2,5,5,3,3,2,2,1,1,1,5,1,1,6,3,3,3,2,2,5,6,3,2,5,1,1,1,1,3,3,1,2,5,2,4,1,5,5,4,4,5,3,1,1,5,1,4,4,2,4,5,5,2
244.0,1,61.0,4,6,6,5,4,1,1,1,4,2,4,2,2,2,2,1,4,1,6,6,1,1,1,1,2,2,1,5,2,2,5,2,2,4,1,4,1,6,2,2,5,2,2,2,2,5,1,1,1,5,1,4,2,5,5,5,5,5,4,1,3,5,3,1,5,1,6,4,5,1
245.0,1,77.0,5,5,5,5,3,2,5,4,5,5,5,5,2,2,1,2,2,4,5,5,2,2,2,1,3,2,2,5,2,2,6,2,2,2,1,1,2,5,4,4,4,3,1,1,3,4,2,2,3,5,3,4,4,4,5,4,4,5,4,2,3,4,4,4,5,2,5,5,4,2
246.0,2,22.0,5,5,2,6,4,1,3,3,3,4,5,5,6,4,4,6,6,6,2,2,2,5,1,4,4,5,6,6,5,4,3,3,3,4,4,4,4,3,4,4,3,4,3,2,5,5,4,3,5,4,4,3,4,2,5,4,1,4,2,4,3,3,4,5,4,5,5,3,3,5
247.0,2,42.0,4,2,2,5,5,5,2,2,1,5,5,4,5,2,5,5,5,5,4,4,2,5,4,5,5,5,5,5,5,5,4,5,5,5,5,4,4,2,2,4,4,4,3,1,5,4,5,4,5,4,5,4,5,4,5,5,1,5,4,5,5,4,5,5,2,3,5,3,2,5
248.0,2,38.0,6,5,5,5,4,2,2,2,5,2,5,2,6,3,2,1,3,2,4,5,4,1,1,1,1,1,1,5,1,1,1,2,2,2,2,4,5,5,2,2,5,2,1,4,1,4,4,2,3,5,4,4,1,4,5,4,2,5,5,1,2,5,1,4,5,2,3,5,4,4
249.0,2,52.0,6,4,4,6,5,1,1,2,5,4,4,2,1,1,2,5,6,3,5,1,1,1,6,1,6,6,3,6,2,6,5,1,1,5,2,2,5,4,4,4,2,4,3,1,5,4,2,3,3,2,1,4,4,3,4,5,4,4,3,4,2,2,3,2,6,6,6,3,3,2
250.0,2,31.0,5,1,4,6,2,4,1,1,1,2,4,5,5,3,5,6,6,6,4,1,1,5,1,5,3,1,3,6,6,5,3,4,4,5,5,1,3,2,4,5,4,5,3,1,5,1,4,1,4,1,4,3,5,2,4,1,1,5,1,5,4,3,5,5,3,6,6,3,5,5
251.0,1,68.0,5,2,5,5,4,3,1,1,3,1,5,3,1,4,1,3,5,3,2,4,2,2,5,1,4,4,1,5,4,1,3,1,1,1,2,2,5,0,1,2,4,2,2,2,2,4,1,3,1,5,1,5,1,2,4,5,4,5,5,2,4,4,4,1,6,3,5,4,3,2
252.0,2,61.0,6,6,5,5,6,1,2,1,2,2,4,3,4,1,1,2,6,4,4,5,1,3,3,1,1,1,1,6,2,3,2,1,1,2,1,1,6,6,5,2,5,2,1,1,4,5,1,1,3,5,1,5,1,4,5,5,5,5,5,1,3,5,1,3,6,2,6,5,5,1
253.0,1,70.0,5,4,2,3,5,1,1,1,1,1,3,2,2,5,6,4,5,4,3,4,1,4,1,5,6,1,5,6,4,6,3,4,4,3,2,1,5,5,4,6,5,4,1,2,5,5,3,3,4,5,3,4,4,1,5,4,4,5,4,4,3,4,4,1,3,3,6,5,3,2
254.0,2,37.0,3,5,3,3,1,1,5,1,1,2,5,4,4,1,5,1,1,4,5,6,6,2,2,1,2,2,1,6,4,4,2,4,2,1,2,1,5,4,4,2,4,1,1,1,1,3,3,1,1,5,2,2,2,4,5,2,2,5,2,1,3,4,1,4,5,1,1,5,5,4
255.0,2,57.0,5,4,4,5,4,3,3,3,4,4,5,3,5,3,4,4,3,4,5,4,3,3,2,3,4,4,4,5,4,4,5,4,4,4,5,4,5,4,4,4,4,4,3,2,3,2,3,0,4,4,3,2,3,4,4,4,3,4,2,3,4,4,3,4,3,3,4,3,,3
256.0,2,44.0,5,5,6,4,6,1,1,1,1,1,5,3,2,2,2,2,4,2,6,6,3,2,2,2,2,3,1,6,3,2,5,3,4,2,1,4,5,5,2,2,4,1,1,2,1,5,2,2,1,5,1,4,2,5,5,5,4,5,3,2,2,5,1,4,3,1,4,5,4,2
257.0,2,35.0,5,4,5,5,5,2,2,3,3,4,5,4,4,2,2,2,5,4,4,5,2,2,2,2,4,4,3,2,4,4,5,2,3,3,4,2,4,5,3,2,4,2,3,2,3,5,3,3,2,4,2,5,2,4,4,4,2,4,4,3,2,4,4,3,4,2,5,3,3,4
258.0,1,56.0,5,4,4,4,2,1,1,1,1,1,2,2,1,2,1,1,4,2,5,5,2,2,2,2,2,2,2,4,1,2,5,2,1,4,2,2,2,5,2,2,4,2,2,1,2,4,2,1,3,5,1,5,1,5,5,5,3,5,3,3,3,3,1,2,6,2,5,4,5,3
259.0,2,53.0,5,3,5,4,4,2,1,1,1,2,5,4,2,2,2,2,3,3,2,4,2,2,2,2,2,2,2,6,2,2,5,2,2,2,2,2,5,5,2,2,4,4,1,1,3,2,2,1,2,4,2,4,3,4,4,4,2,5,4,1,2,5,2,3,5,3,5,5,5,4
260.0,2,49.0,5,2,4,5,4,1,2,1,1,2,2,3,2,2,3,2,5,2,5,5,2,2,2,4,2,2,2,5,2,2,5,3,2,4,2,1,5,5,2,2,5,1,2,1,2,3,2,1,1,5,3,4,2,4,4,4,4,5,3,1,2,4,1,2,5,2,5,4,5,2
261.0,2,40.0,5,5,4,5,5,2,2,1,1,1,2,4,4,1,1,2,5,1,1,4,1,1,1,1,1,1,1,6,3,6,5,1,1,6,2,4,4,5,4,2,4,2,1,1,1,3,1,1,2,5,1,4,3,3,4,5,1,4,3,3,4,4,1,4,6,3,6,5,5,5
262.0,1,46.0,5,3,5,4,2,1,5,2,2,3,4,2,1,2,2,2,2,1,4,3,2,2,3,2,1,2,2,5,2,3,5,2,2,2,2,1,4,5,2,2,4,1,1,2,1,1,2,1,2,5,1,4,1,4,5,4,2,5,2,1,1,5,2,4,5,4,5,5,5,4
263.0,2,47.0,5,3,4,5,3,1,2,2,3,4,4,4,4,3,2,5,2,2,1,2,3,4,3,3,3,3,5,5,4,4,4,3,4,4,5,2,5,5,4,3,4,4,3,1,4,3,4,2,4,4,2,4,4,2,4,4,1,5,2,2,4,4,2,2,3,5,4,3,4,5
264.0,2,42.0,5,5,5,5,3,1,5,2,2,1,2,2,2,2,2,2,2,2,5,5,2,3,2,2,2,2,2,5,2,2,5,2,2,2,2,2,5,5,2,2,4,4,2,3,4,4,2,2,2,3,2,4,2,4,4,4,4,4,4,2,3,4,2,2,5,2,5,4,4,2
265.0,2,27.0,5,2,4,6,4,4,3,3,2,2,5,3,3,4,6,5,5,2,4,4,2,5,3,3,2,3,4,5,2,6,4,1,4,4,4,1,4,4,5,4,4,2,2,1,4,4,5,1,4,4,5,4,4,4,5,5,2,5,2,2,4,4,3,4,3,3,5,4,5,4
266.0,2,37.0,4,4,2,5,4,3,4,3,4,3,6,5,6,4,5,4,5,3,4,5,3,4,3,6,4,4,5,3,3,4,3,3,5,3,4,4,4,3,4,3,4,4,2,4,4,4,5,4,4,4,5,4,4,4,2,4,1,5,4,3,5,2,4,5,2,2,4,4,2,5
267.0,0,22.0,5,3,5,6,3,2,1,1,3,1,6,4,5,1,5,4,6,2,1,3,2,3,2,4,4,4,3,5,5,6,4,4,4,2,1,1,4,4,6,3,4,3,3,2,3,5,4,2,3,5,4,5,5,1,4,5,2,5,2,2,3,4,4,5,3,4,5,3,4,4
268.0,1,36.0,6,4,5,4,2,2,2,3,3,2,4,3,2,2,2,2,4,2,5,5,3,3,2,2,2,2,2,6,2,2,6,1,2,3,2,2,5,5,4,2,4,2,2,1,1,3,2,1,2,4,2,4,1,5,5,5,3,5,3,2,2,4,2,4,5,2,4,4,5,3
269.0,2,35.0,6,5,6,4,2,1,5,3,3,2,4,2,1,1,1,1,1,1,5,5,3,1,1,1,1,1,1,6,1,4,6,1,1,4,1,1,5,6,2,1,5,1,1,1,1,2,2,1,1,5,1,4,1,5,5,5,2,4,3,1,1,5,1,2,6,2,4,5,5,4
270.0,2,53.0,5,3,5,4,3,2,3,3,3,3,3,3,2,2,2,2,3,2,4,4,3,3,2,2,2,2,1,3,2,3,5,2,2,2,2,2,5,4,4,2,5,1,1,2,1,3,4,1,2,4,2,3,2,4,5,4,2,4,3,1,3,4,1,4,5,3,4,5,5,4
271.0,2,51.0,6,4,4,3,3,1,1,1,1,2,5,4,3,1,4,2,6,3,2,3,3,1,2,2,1,1,1,1,1,1,3,4,5,2,1,3,5,5,4,2,5,1,4,1,2,4,4,1,3,5,4,4,1,4,5,5,2,5,3,1,1,4,1,4,2,4,4,2,5,4
272.0,1,61.0,6,4,5,2,1,1,5,2,1,3,4,2,1,1,1,1,1,1,5,5,4,2,2,1,1,1,1,6,4,2,5,2,2,2,2,2,4,5,1,1,5,1,1,1,4,1,3,1,1,4,1,3,1,5,5,3,5,4,4,1,1,4,1,4,5,2,3,5,5,1
273.0,2,29.0,5,4,5,3,3,2,1,1,2,2,5,4,3,2,2,2,3,2,4,5,4,3,2,2,2,2,2,5,2,2,5,2,2,2,2,2,5,5,4,2,4,1,5,1,2,1,2,1,2,5,2,4,2,4,5,4,2,5,4,2,2,4,2,4,5,2,3,1,5,4
274.0,2,46.0,4,3,5,4,5,1,3,4,4,3,3,1,2,5,3,3,5,3,2,3,2,2,4,2,1,1,3,3,1,2,2,1,1,4,2,4,3,4,3,2,3,2,2,4,2,1,2,2,2,4,2,5,2,3,4,5,3,4,4,2,4,4,2,2,6,4,5,4,4,3
275.0,2,66.0,4,4,5,4,3,1,2,2,2,3,2,2,2,3,4,3,4,4,4,4,2,3,5,3,3,1,4,6,4,2,5,3,2,4,4,2,4,4,3,4,3,2,3,3,4,2,4,4,5,5,4,3,3,2,4,4,2,5,2,4,4,4,2,4,5,3,5,3,2,4
276.0,2,32.0,4,5,4,4,3,3,3,3,3,3,4,4,3,2,3,4,6,4,4,4,2,4,4,3,3,3,3,5,3,4,4,3,3,3,3,4,3,4,5,4,5,3,2,1,3,2,2,1,3,4,2,4,3,4,4,4,3,0,3,3,2,3,3,4,4,3,5,4,5,3
277.0,2,47.0,5,3,5,4,2,4,5,2,1,1,4,2,3,2,3,4,3,1,5,3,2,1,2,2,2,1,1,4,1,1,2,1,1,1,1,1,5,5,1,1,4,1,2,1,1,3,3,2,1,4,1,2,2,4,4,5,3,5,4,1,3,4,1,3,6,4,5,4,4,3
278.0,2,48.0,4,5,5,4,3,2,2,2,2,2,4,3,3,2,3,2,5,2,5,5,3,3,4,3,2,2,2,5,1,4,5,2,2,2,2,2,5,5,4,2,4,3,2,2,2,3,0,2,4,4,2,4,2,4,4,4,4,4,3,2,3,4,2,3,5,2,4,4,4,2
279.0,2,39.0,5,3,4,5,3,4,4,2,4,3,5,4,3,1,1,5,4,4,4,3,3,4,2,3,4,4,1,6,4,4,4,4,2,4,2,4,4,4,4,3,4,4,2,1,4,4,3,1,3,3,4,4,4,3,4,4,2,4,2,4,2,4,2,4,5,4,4,4,5,4
280.0,1,38.0,6,2,6,5,4,1,2,1,4,1,5,1,4,3,4,4,4,2,5,4,3,4,4,3,4,3,5,4,5,2,4,3,3,4,1,2,4,5,5,1,4,0,3,2,2,4,4,2,2,4,3,4,4,4,4,4,2,0,3,2,3,4,2,4,4,3,4,3,4,4
281.0,2,48.0,6,5,6,2,2,1,2,2,3,4,5,4,2,1,1,1,3,1,6,6,4,2,1,1,1,1,1,6,1,3,6,1,1,2,2,2,5,6,2,1,5,2,1,1,2,2,1,1,2,5,1,4,1,5,5,5,4,5,3,1,3,5,1,4,6,1,3,5,5,2
282.0,2,74.0,4,3,4,5,5,1,5,4,4,4,4,5,2,4,4,4,6,3,2,2,1,3,3,3,4,2,3,3,3,3,4,2,3,4,3,4,4,4,3,3,4,3,3,4,4,5,3,4,3,3,2,5,3,2,3,5,4,4,5,3,3,3,3,3,4,5,6,3,2,2
283.0,2,45.0,5,5,4,2,3,2,1,2,4,4,4,4,5,5,4,2,5,2,5,5,3,2,2,4,3,2,1,5,4,2,5,2,2,3,2,5,4,5,4,4,4,5,1,2,4,4,1,2,2,4,2,4,2,4,4,5,4,4,3,2,4,3,1,2,5,2,4,5,4,2
284.0,2,60.0,5,3,4,3,4,2,1,1,3,4,4,4,2,2,1,1,1,2,3,5,4,2,2,1,2,1,2,5,4,5,5,2,2,5,2,5,2,5,4,3,4,2,1,3,2,3,2,1,2,4,1,4,1,4,4,5,3,4,5,2,2,4,1,4,5,2,3,5,5,3
285.0,2,50.0,5,4,5,5,5,2,2,2,3,2,4,4,4,2,2,4,5,4,4,5,4,4,2,2,2,2,2,6,4,3,5,2,2,2,2,2,5,6,4,2,5,2,1,1,2,1,3,1,3,4,2,4,2,4,5,4,5,5,4,2,2,4,2,2,5,2,3,5,5,1
286.0,1,63.0,4,4,5,3,4,2,3,2,2,3,5,4,3,3,1,2,2,4,2,4,2,1,4,1,2,1,1,4,2,2,5,2,2,2,1,4,3,5,2,1,3,2,2,4,2,3,4,2,2,4,2,4,2,3,4,4,3,5,4,0,2,4,2,4,5,3,5,4,4,3
287.0,2,72.0,4,2,4,5,4,1,4,4,5,5,5,5,5,3,4,4,4,5,2,4,4,5,3,4,4,4,5,5,4,5,3,4,4,5,5,4,5,4,5,4,3,3,2,4,3,3,4,2,4,4,4,4,3,2,4,4,3,4,2,2,3,2,2,4,3,3,3,4,4,3
288.0,1,37.0,6,4,4,3,3,1,1,2,3,1,2,2,2,2,1,1,2,2,5,5,2,2,2,1,1,1,1,4,2,2,5,2,2,2,1,2,4,4,2,2,4,2,2,2,2,3,2,1,1,4,1,3,1,4,4,4,4,4,5,1,1,4,1,2,5,2,5,4,5,2
289.0,1,41.0,4,2,4,4,3,1,4,3,3,2,6,4,1,2,3,3,3,4,5,5,4,3,2,2,2,2,2,5,4,2,5,2,2,2,2,3,3,4,4,3,4,3,1,1,2,4,4,1,3,4,3,4,3,4,4,4,2,4,4,2,2,4,2,4,5,2,3,5,5,4
290.0,1,41.0,4,4,4,5,5,2,1,1,2,2,4,4,5,3,4,2,4,4,4,4,2,4,1,3,2,2,2,4,5,1,2,3,2,1,1,1,4,4,4,4,4,2,1,1,1,4,4,1,2,4,2,5,1,4,4,5,2,5,5,2,4,4,1,4,5,3,5,5,5,4
291.0,2,38.0,4,4,5,4,4,6,4,3,4,1,5,5,5,5,5,5,6,5,2,2,2,5,4,5,5,5,5,4,6,6,4,6,5,6,6,2,3,4,5,6,3,5,3,4,4,3,4,3,5,2,4,3,4,1,3,3,2,3,2,5,3,3,4,4,2,5,5,3,3,4
292.0,1,68.0,5,4,5,2,4,2,3,1,2,3,4,4,4,2,1,2,2,3,5,5,3,2,3,2,2,2,4,5,4,3,5,2,2,4,2,2,4,5,2,2,4,3,2,3,3,4,2,3,1,4,1,3,2,3,4,4,4,4,4,3,3,4,2,3,5,2,4,4,3,2
293.0,2,37.0,5,3,5,5,5,2,4,2,2,3,2,4,4,1,1,2,5,1,6,5,4,1,1,1,1,1,1,5,1,1,5,2,1,4,2,3,4,5,2,2,5,1,1,2,1,2,2,1,2,4,1,5,1,5,5,4,2,4,5,1,2,4,1,4,6,2,3,5,5,4
294.0,1,41.0,5,3,4,5,3,2,4,4,4,3,4,2,3,3,1,4,5,3,4,3,3,2,2,3,4,2,2,5,2,2,5,1,2,4,2,4,5,5,3,3,4,3,2,2,4,3,2,1,2,3,1,5,2,3,4,5,4,5,3,2,3,4,2,3,5,4,4,4,5,2
295.0,2,37.0,5,2,3,5,4,3,1,1,6,3,4,3,1,3,2,3,5,2,5,5,1,2,1,2,2,1,1,6,4,3,5,2,2,3,1,2,2,5,3,2,2,1,2,2,2,4,2,1,2,4,2,5,1,4,4,4,4,5,3,2,1,4,1,2,5,2,6,4,5,2
296.0,2,38.0,5,4,5,4,5,3,3,2,4,3,4,3,3,2,2,4,5,3,4,3,2,3,2,2,3,2,2,5,3,3,4,2,2,3,4,2,2,4,4,3,4,3,2,2,3,4,3,2,2,4,2,4,3,4,4,4,3,4,4,2,3,4,2,3,5,4,5,4,4,3
297.0,1,50.0,5,5,5,5,2,0,5,4,4,5,5,3,1,1,1,1,2,2,6,3,2,2,1,2,1,1,1,6,1,2,6,1,1,3,1,2,4,5,4,3,4,2,1,1,1,3,1,1,2,4,1,4,2,5,5,4,4,3,3,1,2,4,1,3,6,4,5,5,5,2
298.0,2,58.0,5,3,5,4,3,2,4,3,4,3,5,4,4,2,2,2,2,2,3,4,5,2,2,2,2,2,2,5,2,2,5,2,2,2,2,4,5,5,3,2,5,1,1,2,1,1,2,1,1,5,2,2,2,4,5,4,4,5,2,1,3,5,1,4,5,3,2,5,5,2
299.0,2,62.0,5,2,4,5,4,3,4,3,3,2,4,2,2,2,3,3,4,2,4,5,4,2,2,4,2,2,3,3,4,1,5,4,4,4,3,4,3,4,2,2,4,1,2,3,2,4,2,2,1,3,3,4,1,4,4,4,4,4,5,1,2,4,1,1,3,2,3,4,4,2
300.0,1,32.0,4,3,5,2,2,1,2,2,3,3,6,5,4,2,2,1,5,2,4,5,2,3,2,4,3,3,2,3,3,3,5,2,1,4,4,4,3,5,3,1,5,1,2,2,1,4,4,2,3,5,2,4,1,4,5,4,2,5,3,2,5,4,2,5,6,2,5,4,4,4
301.0,2,49.0,5,5,5,3,3,1,1,1,3,2,4,3,3,3,1,2,3,3,3,5,3,2,2,2,1,1,1,6,2,2,5,2,2,3,3,3,5,5,4,2,5,1,1,3,2,2,2,1,3,5,3,2,1,4,5,4,2,5,2,1,4,4,1,3,5,2,4,5,5,4
302.0,2,42.0,5,2,5,4,4,2,2,2,4,4,5,4,4,3,4,3,4,4,3,5,3,4,4,2,2,2,2,5,2,4,3,4,4,3,4,4,4,4,5,3,4,1,1,1,3,4,4,2,3,5,4,4,4,4,4,5,2,5,3,3,3,4,1,4,3,2,4,5,4,4
303.0,2,35.0,5,4,5,4,2,2,2,3,3,2,5,4,2,3,2,2,3,3,3,4,3,4,2,2,3,2,3,5,3,2,5,2,2,4,3,2,3,5,4,2,4,2,2,2,3,3,4,2,3,4,2,4,4,4,4,4,2,4,3,2,3,4,3,4,5,3,4,4,4,4
304.0,2,52.0,5,0,4,4,2,1,1,1,2,1,1,3,2,1,2,4,2,1,5,3,2,1,1,2,1,1,1,6,1,5,5,1,1,2,1,1,5,6,2,1,5,2,1,1,1,2,4,1,1,5,2,4,1,5,5,4,1,5,1,1,2,5,2,1,6,4,5,5,5,5
305.0,2,43.0,5,3,6,4,5,2,3,1,3,2,4,2,2,4,1,4,4,3,3,3,3,3,2,2,4,2,4,4,2,1,5,2,2,4,2,2,4,5,2,1,4,2,2,3,4,4,2,2,3,4,1,5,1,3,4,5,4,5,5,3,4,4,4,2,5,4,4,4,4,2
306.0,2,44.0,5,3,4,4,3,2,3,1,3,4,4,2,2,2,2,2,5,3,3,3,2,3,3,4,3,2,4,6,2,6,4,3,3,2,3,2,4,5,4,2,4,4,2,2,3,3,4,3,3,4,4,5,4,3,4,4,3,4,2,3,3,4,3,4,4,4,5,4,3,3
307.0,2,33.0,4,3,3,5,5,2,4,3,3,1,5,5,4,3,4,5,6,5,2,2,1,5,4,4,4,4,4,6,5,5,2,5,5,6,4,4,2,4,5,4,4,4,4,2,4,5,4,4,5,2,4,5,5,2,4,5,2,4,3,3,4,3,4,4,2,5,6,2,2,4
308.0,2,68.0,5,3,5,4,4,2,3,2,2,4,4,4,4,3,4,3,3,3,2,4,3,4,4,4,3,4,4,4,4,2,4,3,4,4,4,4,3,4,4,3,3,2,3,3,4,5,3,2,4,4,3,4,2,3,4,5,3,4,4,2,3,4,2,3,3,3,4,3,4,3
309.0,2,48.0,5,2,5,3,4,1,2,1,2,2,5,4,3,3,4,2,4,2,5,5,3,3,1,2,1,1,3,4,3,3,4,2,2,2,1,2,5,5,2,2,5,3,1,1,1,2,3,1,3,4,4,2,4,5,5,3,2,5,2,1,3,4,1,4,5,2,4,5,5,4
310.0,1,43.0,2,2,2,6,4,6,3,3,3,3,6,6,2,5,6,6,6,5,3,1,2,4,3,5,5,4,6,4,4,2,2,5,5,6,6,2,4,2,4,6,1,5,3,4,3,3,5,4,5,3,4,5,3,3,3,5,1,3,5,4,5,3,3,4,2,6,5,3,2,5
311.0,2,43.0,5,3,6,4,3,1,2,2,2,2,5,2,2,1,1,1,4,2,5,5,3,2,1,1,1,1,1,5,2,1,5,2,2,2,1,2,5,5,4,2,5,2,2,1,2,2,2,1,1,5,1,4,2,5,5,5,3,4,4,2,2,5,2,4,5,2,4,4,5,3
312.0,2,27.0,1,3,2,3,2,5,4,2,2,2,6,4,5,2,6,2,2,5,4,5,4,4,1,6,4,2,6,6,5,6,5,6,6,4,6,5,4,2,5,5,5,2,1,1,2,3,5,1,5,4,5,1,5,5,5,3,1,3,2,2,4,2,4,5,1,2,3,5,5,5
313.0,2,30.0,5,5,5,4,3,2,5,4,2,4,5,3,2,3,4,2,4,2,5,5,2,2,2,2,2,2,2,5,1,1,5,2,1,3,2,2,5,5,4,2,5,5,1,1,2,1,1,1,1,5,2,5,1,5,5,5,1,5,4,2,1,5,1,4,6,2,5,5,5,5
314.0,2,56.0,6,4,5,5,4,4,1,1,2,4,5,3,2,1,1,2,5,1,4,4,1,1,4,2,2,2,1,4,1,1,5,1,1,2,1,4,4,5,1,1,5,1,1,1,2,4,1,3,1,5,1,5,1,4,5,5,5,5,5,4,1,5,1,4,6,3,6,5,3,1
315.0,2,50.0,6,4,5,5,3,2,2,2,4,2,4,3,2,2,2,4,4,2,2,4,2,2,2,2,2,2,2,6,2,2,5,2,2,2,2,2,5,5,5,2,5,2,2,2,2,2,2,2,4,4,2,4,2,5,5,5,5,5,5,2,2,4,1,1,5,3,5,4,4,1
316.0,2,60.0,5,2,3,3,2,1,2,1,2,1,5,5,4,3,4,3,4,3,1,3,1,4,3,3,4,4,3,6,4,6,3,4,4,4,2,3,4,5,4,4,4,4,3,2,4,4,5,3,4,4,4,5,4,3,4,5,1,5,1,3,4,3,3,4,3,4,6,3,3,5
317.0,2,44.0,5,6,5,4,2,1,1,1,1,4,4,1,1,1,2,2,2,2,6,5,4,2,1,1,1,1,1,5,1,4,6,1,1,2,2,2,5,5,3,1,5,2,1,1,1,2,2,1,1,5,1,4,2,5,5,3,4,4,2,1,2,4,1,4,6,2,3,5,5,2
318.0,2,34.0,5,5,5,2,3,1,2,1,1,1,5,2,2,3,4,1,4,3,5,5,2,2,2,3,2,4,3,5,4,1,4,5,5,2,2,2,2,5,3,1,4,1,1,1,1,4,4,3,2,4,4,4,2,4,4,4,2,4,4,1,4,4,1,4,2,2,5,5,3,4
319.0,2,53.0,5,3,4,5,2,2,2,1,4,2,3,2,2,2,3,3,5,3,3,3,3,4,3,3,2,2,2,5,3,4,4,3,3,2,2,2,5,5,4,3,4,4,2,1,4,1,3,2,2,4,2,4,3,4,4,4,2,4,2,2,1,4,2,3,4,4,4,4,4,4
320.0,2,40.0,6,4,5,2,2,1,1,1,3,1,5,3,2,2,1,1,4,2,5,5,4,2,2,1,1,1,1,6,1,5,5,1,1,1,1,1,5,5,4,2,5,1,1,1,1,1,3,1,1,5,1,4,1,4,5,5,4,5,4,1,2,5,1,4,6,2,3,5,5,2
321.0,2,33.0,5,6,5,2,1,1,2,1,4,2,6,1,4,3,3,2,4,2,6,5,3,4,1,2,4,2,1,6,3,3,5,2,2,1,3,1,2,5,4,2,3,2,1,1,2,4,2,2,2,4,4,4,4,4,4,4,2,4,4,3,2,4,2,5,5,2,4,5,4,4
322.0,2,50.0,5,4,4,3,3,1,1,1,3,3,5,5,4,1,3,3,3,4,4,4,4,4,2,3,4,3,2,6,4,5,3,4,4,4,3,1,4,5,0,4,5,4,2,1,3,1,4,1,3,5,4,2,5,5,5,4,4,5,0,2,3,4,3,5,3,3,3,4,5,2
323.0,2,61.0,6,4,5,1,1,1,1,2,2,1,2,2,2,1,1,1,1,1,2,3,6,1,1,1,1,1,1,6,1,5,5,1,1,1,1,1,6,6,2,1,5,1,1,1,1,1,1,1,1,4,1,1,1,5,5,4,4,5,5,1,2,5,1,2,6,4,1,5,5,2
324.0,1,51.0,5,4,3,4,4,1,2,1,2,4,4,2,4,3,1,2,2,3,5,4,2,2,2,2,2,2,1,6,3,1,5,2,2,4,2,2,5,5,2,4,3,2,2,2,2,2,2,2,3,4,2,3,3,4,4,4,3,4,3,1,1,3,2,4,5,3,5,4,4,3
325.0,2,60.0,6,3,5,5,3,1,1,1,1,3,6,1,1,1,4,4,4,0,1,4,1,0,3,2,2,4,1,6,2,6,5,3,1,1,1,1,5,6,6,2,3,4,1,4,4,4,1,1,3,5,1,2,4,4,4,0,4,5,4,3,1,4,2,2,6,3,6,5,5,2
326.0,2,50.0,4,2,4,5,5,2,1,1,1,3,6,5,5,5,4,5,4,4,5,5,2,3,5,3,3,3,4,5,2,2,3,4,4,2,2,3,5,3,4,4,4,2,2,2,2,3,5,2,4,3,5,4,2,4,4,4,1,5,4,2,4,3,3,5,3,2,5,4,4,5
327.0,1,68.0,4,4,5,5,6,1,1,1,1,1,4,4,2,4,1,2,6,2,4,5,2,2,2,1,3,2,4,5,2,2,5,1,3,6,1,5,5,6,4,4,5,4,4,4,4,5,1,2,1,4,1,5,1,2,5,5,5,5,5,2,3,5,4,2,4,2,5,2,4,1
328.0,1,52.0,6,1,1,5,4,1,1,1,4,1,3,2,1,2,1,5,2,6,3,5,1,1,1,1,5,5,3,4,1,1,5,4,2,5,5,6,1,5,3,1,2,2,4,2,2,2,1,2,2,4,2,5,1,4,4,5,2,5,2,4,2,1,4,2,5,2,6,2,4,4
329.0,1,50.0,5,4,4,5,4,1,1,1,1,3,4,2,1,2,4,2,4,4,4,5,2,3,4,4,5,5,5,5,5,3,4,2,2,3,2,3,3,4,4,2,4,3,4,3,3,5,4,4,4,5,3,4,3,3,3,4,2,5,4,4,5,5,4,3,5,2,5,2,2,4
330.0,2,54.0,5,5,4,3,2,1,1,1,1,1,3,2,1,1,1,1,4,1,5,5,2,2,1,1,1,1,2,5,2,5,6,1,1,1,1,1,2,5,4,4,5,2,1,1,1,1,2,1,3,5,3,5,2,5,5,4,4,5,1,2,3,4,2,3,6,2,5,5,5,2
331.0,1,45.0,4,4,5,5,2,2,3,2,3,3,5,4,3,2,3,3,5,3,4,4,2,3,2,2,2,2,2,5,2,1,5,3,2,2,1,1,4,5,4,2,4,3,1,1,3,4,2,2,3,5,3,4,4,4,5,4,4,5,4,2,3,4,4,4,5,3,5,5,4,2
332.0,2,36.0,6,4,5,6,6,1,2,2,2,2,2,2,2,2,2,3,4,3,4,5,2,2,2,1,4,2,2,3,3,1,4,2,2,2,1,1,3,5,3,2,4,2,2,2,2,5,2,1,3,4,2,5,2,4,4,5,4,4,4,2,2,4,2,1,5,2,5,4,5,2
333.0,2,52.0,4,2,2,5,5,5,2,2,1,5,5,4,5,2,5,5,5,5,4,4,2,5,4,5,5,5,5,5,5,5,4,5,5,5,5,4,4,2,2,4,4,4,3,1,5,4,5,4,5,4,5,4,5,4,5,5,1,5,4,5,5,4,5,5,2,3,5,3,2,5
334.0,2,51.0,6,4,4,6,5,2,2,1,2,2,5,2,2,2,1,1,6,2,5,5,1,1,1,1,1,1,1,6,5,3,5,1,1,2,1,4,4,5,3,2,4,2,2,2,4,5,2,1,1,5,1,5,1,4,4,5,2,5,4,2,2,4,1,4,6,2,6,4,5,4
335.0,2,53.0,4,5,3,3,6,1,1,1,1,3,5,3,3,2,4,4,3,4,3,3,3,4,1,4,3,2,1,6,2,6,4,2,3,3,2,1,3,4,3,4,4,4,4,2,4,4,5,3,4,3,4,3,4,4,4,3,4,5,3,2,4,3,5,4,4,4,4,2,3,2
336.0,2,55.0,5,5,4,4,4,2,2,2,2,2,5,5,5,5,5,4,5,4,4,4,4,4,5,5,5,4,4,5,5,4,4,5,5,4,4,4,4,5,4,4,3,4,3,2,4,3,4,2,4,4,4,3,4,4,4,4,2,5,3,3,4,4,4,5,2,3,3,3,4,4
337.0,2,32.0,5,1,4,6,2,4,1,1,1,2,4,5,5,3,5,6,6,6,4,1,1,5,1,5,3,1,3,6,6,5,3,4,4,5,5,1,3,2,4,5,4,5,3,1,5,1,4,1,4,1,4,3,5,2,4,1,1,5,1,5,4,3,5,5,3,6,6,3,5,5
338.0,1,37.0,6,5,5,2,5,1,4,2,3,1,5,2,2,5,1,1,6,1,3,6,1,1,4,1,3,4,6,6,1,6,4,4,1,1,1,6,4,5,5,1,5,1,4,4,1,5,3,4,5,5,1,5,1,2,3,5,3,5,5,1,5,4,1,2,6,1,6,2,2,3
339.0,2,38.0,5,5,5,3,4,4,2,1,4,2,5,4,6,2,4,2,2,4,4,4,4,4,2,4,2,2,1,6,1,4,5,3,4,4,4,4,4,5,4,2,4,1,1,1,1,1,4,1,4,4,4,3,2,4,4,4,2,5,3,2,4,4,1,4,3,3,3,5,5,4
340.0,2,63.0,5,4,6,5,4,1,1,1,4,2,4,3,1,3,1,2,5,1,2,3,1,1,3,1,3,3,1,5,3,1,5,2,1,1,1,3,4,5,1,1,4,4,3,0,4,5,1,3,3,4,1,4,1,4,4,5,5,4,5,4,3,5,1,1,6,4,6,3,3,1
341.0,2,43.0,5,3,4,5,2,1,1,1,2,2,5,5,5,3,2,4,4,2,2,2,3,2,4,2,5,4,3,5,4,4,2,4,4,4,4,5,3,3,3,4,2,3,3,4,3,2,4,2,2,3,4,3,4,2,2,3,2,4,2,4,3,3,4,4,3,5,4,3,4,4
342.0,1,19.0,4,4,5,5,2,1,2,3,3,3,5,3,5,3,5,2,3,3,2,5,3,4,3,4,4,4,3,4,4,5,4,3,3,2,3,2,3,5,4,2,3,2,2,2,2,3,4,2,4,4,3,3,3,2,4,4,2,4,2,2,3,4,2,4,4,2,4,4,4,4
343.0,1,55.0,4,4,5,5,4,4,3,3,4,4,5,5,4,4,5,5,4,3,4,3,3,4,3,4,4,3,4,5,4,5,3,5,5,4,4,2,4,4,3,3,4,4,2,3,4,3,3,4,2,2,3,4,4,4,4,4,2,4,4,4,4,3,4,3,2,4,4,4,2,4
344.0,2,40.0,5,5,5,5,5,4,5,4,4,5,4,2,2,2,1,2,2,1,6,5,2,2,2,1,1,1,1,5,1,2,5,1,1,2,2,2,5,5,3,2,5,2,2,2,2,4,2,2,2,4,2,4,2,0,4,4,4,4,4,2,2,4,2,2,6,2,5,4,4,2
345.0,2,48.0,5,3,5,4,4,1,1,1,3,1,4,3,4,2,2,1,1,4,3,3,3,2,2,1,1,2,1,4,2,2,4,2,2,2,1,1,4,4,2,2,4,3,1,3,1,1,3,1,1,4,1,1,2,4,4,2,1,4,2,1,3,4,1,3,5,4,4,5,5,5
346.0,1,63.0,6,5,3,5,2,1,4,2,4,2,4,2,1,2,4,1,4,3,6,6,1,4,1,2,2,2,1,5,3,2,4,2,4,2,1,2,3,5,4,2,5,2,1,1,1,4,5,1,4,5,3,5,2,5,5,5,2,4,4,1,4,4,2,5,3,1,6,5,5,4
347.0,1,60.0,5,3,3,5,6,3,1,1,4,2,3,5,2,5,5,3,5,5,2,5,2,4,5,2,5,4,4,4,3,2,4,4,4,5,5,5,4,3,4,2,3,3,2,4,3,3,2,4,4,3,3,4,2,2,3,4,3,4,4,3,4,2,3,2,3,2,5,4,2,3
348.0,2,29.0,1,1,1,5,4,4,2,1,3,2,6,5,5,4,6,4,6,4,3,3,1,3,4,6,6,5,6,4,6,4,2,6,6,5,5,2,1,1,5,5,4,3,3,3,4,5,5,3,5,3,5,5,5,3,4,4,1,4,2,3,5,3,3,5,1,4,6,3,3,5
349.0,1,29.0,6,5,5,5,3,1,1,1,3,2,5,5,4,2,1,3,4,2,5,4,3,3,1,1,1,1,1,6,1,4,5,4,2,1,1,1,5,5,5,2,5,2,1,1,1,2,2,1,2,5,2,2,3,4,4,4,3,5,4,1,2,5,2,4,5,3,4,5,5,3
350.0,1,29.0,5,1,5,5,6,2,5,1,1,3,5,4,4,5,6,4,2,4,1,4,4,3,1,4,6,6,6,5,5,5,4,4,5,4,2,6,4,4,4,4,2,4,5,2,4,4,5,4,3,2,4,5,4,1,3,4,1,4,4,5,2,3,5,4,2,3,3,1,2,5
351.0,2,52.0,5,5,4,5,5,2,2,1,1,1,2,4,4,1,1,2,5,1,1,4,1,1,1,1,1,1,1,6,3,6,5,1,1,6,2,4,4,5,4,2,4,2,1,1,1,3,1,1,2,5,1,4,3,3,4,5,1,4,3,3,4,4,1,4,6,3,6,5,5,5
352.0,2,40.0,5,5,5,3,2,4,1,1,3,2,5,4,2,2,2,2,4,2,3,5,3,1,1,1,1,1,5,6,2,2,3,2,2,4,2,2,5,5,3,2,5,1,5,1,1,1,1,1,2,4,3,3,2,4,5,5,5,5,1,1,3,5,1,3,5,2,4,1,5,1
353.0,2,48.0,4,3,4,4,3,3,2,3,3,3,5,4,5,2,5,4,5,4,4,3,2,4,2,4,4,2,4,5,4,5,4,3,4,4,4,2,4,3,5,3,4,4,2,2,5,5,5,3,4,3,5,5,5,3,4,5,1,5,2,4,4,4,5,5,3,4,5,4,3,5
354.0,1,58.0,4,2,5,4,4,2,3,2,2,1,5,5,4,4,2,2,5,4,2,4,2,2,3,2,3,2,2,5,4,3,3,2,2,4,3,3,3,4,2,2,3,2,2,2,2,3,2,2,3,4,2,4,2,2,3,4,2,4,3,2,4,4,3,3,5,3,5,4,4,4
355.0,1,21.0,6,2,5,6,3,5,5,5,5,6,4,2,2,2,1,4,6,1,5,3,1,2,2,1,4,4,1,3,1,5,5,1,1,5,4,4,5,5,6,5,3,2,2,2,3,5,1,3,1,3,1,5,1,4,3,5,4,3,2,4,1,3,4,3,6,4,6,4,3,2
356.0,2,18.0,5,5,5,3,1,1,4,2,3,4,5,4,4,2,2,2,3,4,5,5,3,4,2,2,3,2,4,4,2,3,5,3,2,3,3,2,5,5,3,2,4,2,2,3,2,3,4,2,4,4,2,4,2,4,4,4,3,4,3,3,3,4,3,4,5,2,4,4,4,3
357.0,2,28.0,3,3,3,5,4,5,3,4,4,3,4,3,3,5,4,4,5,5,3,3,3,4,3,3,4,5,4,4,4,4,3,5,5,3,3,3,0,3,3,4,3,5,3,3,4,4,4,3,3,2,4,4,4,2,2,4,3,4,3,4,4,3,4,3,2,4,4,3,3,3
358.0,2,24.0,5,3,6,4,4,2,3,2,3,4,5,4,3,2,3,3,4,4,4,4,2,3,3,3,3,3,2,4,3,2,5,4,4,2,4,3,3,5,4,3,4,3,2,2,2,3,3,2,4,4,3,4,3,3,4,4,2,5,3,3,3,4,2,4,3,3,5,4,4,4
359.0,2,58.0,5,3,5,2,2,1,1,1,4,4,5,5,5,2,2,2,2,2,2,5,2,2,2,2,2,2,2,6,2,5,4,1,1,2,2,2,5,5,2,2,2,2,4,1,2,1,5,1,2,5,2,2,2,2,2,3,1,5,1,1,4,4,2,4,6,2,5,2,5,5
360.0,2,61.0,5,5,5,5,4,2,4,3,2,2,2,2,3,2,1,2,2,2,5,5,1,2,2,2,2,2,1,5,1,1,5,1,1,2,2,2,5,5,1,1,4,1,3,1,1,3,1,3,3,4,1,5,1,4,4,4,3,4,3,2,2,4,1,3,6,2,6,3,3,3
361.0,2,50.0,6,5,4,4,3,1,2,2,2,3,5,2,4,2,4,6,5,1,5,5,1,1,2,1,1,1,1,4,2,1,3,1,1,2,1,3,3,4,2,3,5,2,1,3,1,3,2,1,1,4,1,4,2,4,4,5,3,5,4,1,4,4,1,2,6,2,6,5,5,3
362.0,1,44.0,4,3,4,4,3,3,3,2,2,3,4,4,2,4,2,2,5,3,3,3,2,2,2,2,2,2,2,5,2,2,4,2,2,5,2,2,4,4,2,2,4,2,2,2,4,3,3,2,2,4,2,4,2,3,3,4,3,4,3,2,2,3,2,4,5,4,5,4,4,3
363.0,2,38.0,6,5,5,2,3,1,2,1,2,2,5,4,5,4,3,2,2,3,4,6,3,2,2,1,1,1,1,6,2,1,5,4,4,3,2,2,4,4,2,1,5,2,1,1,2,4,2,1,2,5,2,4,1,5,5,5,4,5,2,1,4,5,1,4,3,1,4,5,5,2
364.0,2,37.0,4,4,5,5,4,0,2,2,2,2,5,4,4,2,4,2,3,2,4,5,2,4,2,4,3,4,3,5,4,5,4,3,4,4,4,2,4,4,5,2,4,2,1,2,2,2,4,2,4,4,3,4,3,4,4,4,2,5,2,1,4,4,1,4,3,2,5,5,4,4
365.0,2,34.0,2,3,5,3,2,5,3,1,3,2,6,5,4,2,5,3,5,3,3,5,2,4,3,4,5,4,4,5,5,6,2,5,6,5,5,3,3,4,4,3,3,3,2,1,4,2,5,2,4,4,4,4,4,4,4,4,1,4,2,3,4,3,2,4,1,2,5,4,4,5
366.0,2,48.0,2,2,4,4,3,2,1,2,2,1,5,4,1,3,4,5,5,2,3,3,2,3,3,4,4,4,3,3,4,5,3,4,4,5,5,3,3,3,2,2,2,4,2,2,4,4,4,4,4,4,4,4,3,2,2,4,2,5,4,4,2,3,4,4,3,4,5,4,2,4
367.0,2,36.0,5,4,5,5,5,2,3,3,4,3,5,4,4,3,2,3,1,3,4,4,1,4,4,3,4,3,3,5,2,2,4,5,4,3,5,4,3,5,4,3,2,2,4,2,2,1,4,2,2,4,4,5,4,2,4,5,2,4,5,2,2,4,4,4,3,3,6,2,4,4
368.0,2,57.0,5,4,5,2,4,1,1,1,1,1,4,2,2,1,1,1,2,1,5,5,1,1,4,1,1,1,1,4,1,1,4,1,1,4,1,1,5,5,2,1,4,1,1,1,1,3,1,1,1,5,1,4,1,4,4,5,3,5,3,1,1,5,1,3,6,2,6,5,5,3
369.0,2,40.0,5,4,3,4,4,1,2,2,4,2,5,4,4,2,3,2,6,2,4,5,1,2,2,1,2,2,2,5,2,4,5,2,2,3,3,2,5,5,4,2,4,2,1,5,1,4,2,1,1,5,1,5,3,4,5,5,3,5,4,1,2,4,2,4,5,2,6,5,5,3
370.0,2,39.0,4,3,4,6,5,4,2,2,3,2,5,4,4,2,5,4,6,2,5,3,2,2,3,3,3,3,3,4,4,2,4,2,2,4,4,2,2,4,4,3,4,2,2,1,3,3,4,1,1,4,4,5,4,2,4,5,2,4,4,4,2,4,4,4,5,4,5,4,5,4
371.0,1,44.0,5,2,5,5,5,1,1,2,4,2,2,1,1,2,1,1,1,3,6,6,3,1,1,1,2,2,1,3,2,1,5,1,1,1,1,1,2,5,1,2,2,1,2,1,1,2,1,2,1,5,1,4,1,4,4,4,1,5,2,1,3,4,1,2,6,1,4,4,4,5
372.0,2,42.0,6,5,6,2,2,1,2,2,3,4,5,4,2,1,1,1,3,1,6,6,4,2,1,1,1,1,1,6,1,3,6,1,1,2,2,2,5,6,2,1,5,2,1,1,2,2,1,1,2,5,1,4,1,5,5,5,4,5,3,1,3,5,1,4,6,1,3,5,5,2
373.0,1,41.0,4,4,5,6,5,6,5,5,5,6,4,2,1,1,6,2,6,4,4,5,1,1,1,5,4,5,1,6,2,1,5,4,4,5,4,6,5,5,2,2,5,3,2,1,5,5,3,1,1,4,1,5,2,5,5,3,4,4,4,5,4,4,4,4,3,2,6,4,5,2
374.0,1,41.0,5,5,4,5,4,1,1,3,4,4,4,2,3,3,2,2,5,3,3,5,2,1,1,1,4,3,3,5,3,1,5,2,2,4,2,2,4,5,2,1,4,2,2,3,2,4,1,2,3,4,2,4,2,4,4,4,2,4,4,2,1,4,2,2,5,2,5,4,4,4
375.0,2,49.0,6,4,4,4,4,2,3,2,2,3,5,2,2,3,2,1,4,3,4,5,2,3,2,1,2,1,1,5,2,2,5,2,2,3,1,2,4,5,3,2,5,1,2,1,1,3,2,1,3,5,1,4,1,4,5,4,3,5,4,1,2,4,1,3,5,2,5,4,5,3
376.0,2,45.0,4,4,2,5,3,1,1,2,2,4,4,4,2,2,3,4,4,2,3,2,2,3,2,2,1,1,1,5,2,3,5,2,2,4,2,2,5,5,4,2,5,4,1,2,2,2,1,1,1,4,1,2,2,3,5,4,5,4,2,1,3,4,1,2,5,5,5,5,5,1
377.0,1,55.0,5,2,6,2,1,1,1,1,1,5,3,2,1,1,1,3,2,1,5,3,1,1,1,1,1,1,2,6,1,1,6,1,1,2,1,1,1,5,2,2,4,2,1,2,2,4,1,1,2,4,1,5,1,4,5,5,5,4,4,2,3,4,1,2,6,4,6,5,5,1
378.0,2,48.0,5,4,5,3,2,1,2,2,2,5,5,5,4,2,4,2,4,2,4,5,3,3,2,2,2,2,2,5,4,4,5,4,4,4,3,2,3,5,3,4,4,2,1,2,3,3,4,1,3,5,1,4,3,4,5,5,4,5,3,2,3,5,1,4,3,2,4,5,5,2
379.0,2,33.0,5,3,5,6,4,4,2,2,3,2,5,5,5,1,2,4,5,0,4,2,2,3,2,1,3,3,1,5,4,3,3,4,4,2,2,4,5,5,4,2,3,2,2,1,3,4,2,1,2,4,2,5,4,2,2,4,2,4,3,3,2,4,4,4,3,5,5,4,5,4
380.0,1,42.0,6,4,5,4,2,2,1,1,2,2,4,2,3,2,2,3,4,4,5,4,4,3,2,1,4,2,2,6,2,2,5,2,2,4,3,2,2,5,2,2,4,3,2,3,3,1,3,1,4,4,2,4,1,5,5,4,3,5,4,2,2,4,2,3,5,3,3,4,5,3
381.0,2,47.0,4,4,4,5,5,2,1,1,2,2,4,4,5,3,4,2,4,4,4,4,2,4,1,3,2,2,2,4,5,1,2,3,2,1,1,1,4,4,4,4,4,2,1,1,1,4,4,1,2,4,2,5,1,4,4,5,2,5,5,2,4,4,1,4,5,3,5,5,5,4
382.0,1,62.0,5,3,4,5,4,1,1,1,2,2,4,1,1,2,1,1,5,3,4,5,1,2,3,1,1,1,4,6,2,2,5,2,1,2,1,1,3,5,1,4,5,3,2,1,2,2,2,1,2,4,1,4,2,4,4,4,2,4,2,2,1,4,1,4,6,2,6,4,5,4
383.0,1,36.0,0,3,2,6,6,2,2,3,3,4,3,3,1,5,2,4,5,3,3,3,2,3,3,2,3,4,1,2,2,1,5,2,2,5,3,4,2,5,1,4,3,4,3,5,4,5,2,3,1,3,2,5,1,3,4,5,4,2,5,3,2,2,2,2,5,4,5,3,3,2
384.0,2,51.0,5,3,4,4,2,1,2,1,1,1,5,3,4,2,4,2,5,4,4,3,2,3,2,2,1,1,1,1,3,5,4,4,5,4,2,2,6,4,5,2,5,1,2,1,2,1,4,1,3,5,3,4,3,0,4,5,2,5,2,2,1,4,4,4,2,4,5,4,5,4
385.0,2,53.0,5,5,5,4,4,1,2,1,2,4,4,2,5,4,4,2,3,4,5,5,3,2,2,3,1,2,2,6,2,4,5,2,3,3,1,2,4,5,4,4,5,2,1,3,1,2,3,1,4,5,2,3,2,5,5,5,4,5,4,1,3,4,1,4,4,2,4,5,5,2
386.0,2,58.0,5,4,3,5,4,2,2,2,2,3,3,3,2,1,2,3,2,2,3,2,5,4,3,2,2,2,1,5,1,2,5,2,2,2,2,4,2,3,2,3,4,4,2,3,2,2,2,2,2,2,2,4,3,4,4,4,4,4,3,2,2,3,2,2,5,5,2,4,4,2
387.0,2,51.0,5,1,5,2,2,1,1,1,1,4,5,4,4,2,4,4,4,2,5,3,1,2,2,4,3,2,4,6,4,4,5,4,4,4,3,2,5,5,5,3,4,2,1,1,1,3,4,1,2,5,4,5,5,4,5,5,2,5,2,2,4,5,4,4,3,4,6,5,5,4
388.0,2,52.0,6,5,6,5,4,1,1,3,3,3,4,2,2,1,1,1,5,2,5,5,2,1,3,1,2,1,1,5,2,1,5,2,2,4,2,4,4,5,2,3,5,2,1,3,2,4,1,1,1,4,1,5,1,5,5,5,5,5,3,1,1,5,1,1,5,2,5,5,5,1
389.0,2,43.0,6,5,4,3,3,1,1,1,2,3,5,4,2,1,1,2,2,2,3,5,4,1,2,1,4,3,1,5,1,3,5,1,1,1,4,1,5,5,2,4,3,1,2,2,1,4,1,2,1,5,1,4,2,4,4,5,2,4,2,1,1,4,2,4,6,2,3,4,4,4
390.0,2,34.0,5,3,5,5,3,2,2,1,2,2,5,5,5,1,2,4,4,2,3,3,2,5,2,3,4,4,4,5,4,2,2,2,3,4,3,3,4,3,3,2,2,4,4,2,4,5,4,1,2,4,4,5,2,2,2,5,2,5,4,4,4,4,4,4,4,4,5,2,5,4
391.0,2,50.0,4,2,4,1,1,1,1,1,1,2,2,2,2,1,5,1,1,1,4,4,2,2,1,1,1,1,1,6,5,6,4,2,2,3,2,1,4,5,3,2,5,1,1,1,1,1,1,1,1,4,1,1,1,3,4,3,2,4,2,1,3,4,1,1,5,3,5,5,5,4
392.0,2,25.0,4,2,4,6,4,5,4,3,5,2,4,2,2,5,4,5,2,2,4,3,5,3,2,3,2,2,3,4,3,3,4,4,5,3,4,4,2,4,2,4,4,4,3,2,4,1,4,2,3,3,3,5,3,2,4,5,3,4,4,3,3,3,3,4,2,4,2,3,4,3
393.0,1,28.0,4,3,5,2,2,1,2,2,3,3,6,5,4,2,2,1,5,2,4,5,2,3,2,4,3,3,2,3,3,3,5,2,1,4,4,4,3,5,3,1,5,1,2,2,1,4,4,2,3,5,2,4,1,4,5,4,2,5,3,2,5,4,2,5,6,2,5,4,4,4
394.0,2,54.0,5,5,5,5,2,1,2,2,2,3,5,3,2,2,1,1,3,2,1,2,4,4,3,2,2,2,1,5,4,5,5,2,2,2,2,2,4,5,4,3,4,1,1,1,1,1,2,1,2,5,2,3,4,3,4,4,2,5,2,2,3,4,2,4,5,5,3,5,5,4
395.0,2,53.0,5,2,4,2,2,1,1,1,1,2,4,2,2,3,2,1,3,1,2,5,2,1,2,1,1,1,1,2,2,1,4,2,2,1,1,1,4,5,1,1,4,1,1,1,1,2,2,1,2,5,2,4,2,2,5,5,2,4,4,1,2,4,2,2,5,2,5,5,5,4
396.0,2,57.0,4,2,5,3,4,2,3,1,1,1,4,3,3,2,2,2,4,3,5,5,4,2,5,2,2,2,1,5,1,2,5,2,2,5,1,4,1,4,3,3,5,4,1,2,3,5,2,4,3,4,2,4,1,4,5,5,3,5,5,1,4,4,2,4,5,2,3,5,2,3
397.0,2,55.0,4,3,4,3,2,2,1,1,2,2,4,3,2,2,4,4,4,2,3,3,2,2,4,2,2,3,2,5,3,2,3,2,2,2,2,2,3,3,2,2,4,2,3,2,4,2,2,2,2,3,2,3,2,3,3,4,3,4,2,4,3,2,3,3,5,4,5,3,4,3
398.0,2,70.0,3,2,5,3,5,1,1,1,1,1,3,2,2,1,1,1,2,2,3,2,1,2,2,1,1,1,1,5,1,0,5,1,1,1,1,1,3,5,2,1,4,1,1,1,1,3,1,1,1,5,1,3,3,2,5,5,1,5,1,1,1,5,1,1,6,5,6,5,5,5
399.0,2,20.0,4,2,5,6,2,3,3,3,4,3,3,2,2,5,4,6,1,2,2,1,5,5,3,4,5,6,5,4,4,2,4,6,5,3,4,3,2,5,4,5,2,4,4,4,4,4,4,4,4,2,4,5,4,2,4,4,3,4,3,5,3,4,4,3,2,6,2,2,2,3
400.0,2,38.0,6,3,4,4,1,1,1,1,1,1,5,4,4,1,3,2,4,4,4,4,3,2,2,1,2,1,2,6,2,1,5,1,1,4,2,4,4,5,4,2,5,2,2,1,2,1,1,1,1,5,1,1,2,4,5,4,3,5,2,1,2,4,2,4,6,3,4,4,5,3
401.0,1,57.0,6,3,4,3,3,1,1,1,3,4,2,2,2,2,2,3,4,2,4,5,1,2,1,1,1,1,2,5,2,2,5,2,2,3,2,1,4,4,4,2,5,2,2,1,2,4,1,1,3,4,1,3,1,4,5,4,2,5,3,2,1,4,2,1,5,2,6,4,5,4
402.0,1,36.0,6,1,2,6,4,1,3,4,4,4,5,5,3,3,1,2,4,2,2,5,4,2,3,2,5,2,2,4,0,4,4,2,4,4,3,5,4,4,2,2,2,2,3,4,2,4,3,3,2,4,2,5,1,2,3,5,2,4,3,2,2,1,2,3,3,2,3,3,3,4
403.0,1,49.0,2,2,4,3,3,1,4,2,2,2,4,3,4,4,4,3,3,2,5,3,3,3,4,4,3,2,2,4,3,2,4,2,2,2,2,2,3,3,2,2,3,3,3,4,3,3,3,2,3,3,3,4,2,3,3,4,4,4,4,2,4,3,2,2,5,4,4,3,4,2
404.0,2,57.0,5,3,4,5,4,3,4,3,3,3,4,3,3,3,2,4,4,3,4,3,1,4,2,1,2,2,1,4,2,2,5,2,2,5,3,4,2,4,3,4,4,3,2,3,2,3,2,3,3,4,3,5,1,3,4,5,3,4,5,3,2,3,2,3,5,4,6,4,3,3
405.0,2,57.0,5,2,2,5,5,2,1,1,4,1,2,3,1,4,2,4,6,4,1,2,1,4,4,3,4,5,3,4,4,5,2,2,2,5,4,3,2,3,1,4,1,3,3,4,4,5,1,4,3,2,1,5,1,1,1,5,5,4,4,4,3,3,3,1,5,5,6,3,2,1
406.0,2,48.0,6,5,4,6,4,1,5,2,3,2,5,5,2,4,1,6,6,4,2,1,2,4,1,2,2,2,2,6,5,5,4,4,4,5,3,5,4,4,5,4,4,4,1,1,4,3,3,2,3,3,3,4,1,3,4,5,4,4,3,2,2,3,4,2,3,6,5,5,4,2
407.0,2,46.0,5,2,6,5,2,1,1,1,1,1,5,5,4,1,1,1,5,1,5,4,1,2,2,2,2,2,1,5,1,1,5,1,1,4,3,2,3,5,5,3,5,5,1,1,2,1,1,1,1,5,2,5,1,5,5,5,1,5,4,2,1,5,1,4,6,3,6,5,5,5
408.0,2,42.0,6,4,6,3,3,1,2,2,6,3,4,2,1,1,1,1,1,1,5,6,5,3,1,1,1,1,2,6,1,1,5,1,1,3,1,1,5,5,2,1,4,2,1,3,1,3,1,1,2,5,1,3,2,4,4,4,4,5,4,1,1,5,1,1,6,1,2,5,5,2
409.0,2,43.0,5,3,5,6,6,5,2,2,1,1,6,6,6,2,4,4,6,4,3,2,1,4,2,4,3,3,3,5,3,1,2,3,3,4,4,4,5,3,4,5,4,2,2,2,2,5,5,3,3,4,4,5,2,2,4,5,1,5,4,2,4,5,4,5,4,5,6,4,3,5
410.0,2,54.0,5,3,5,4,1,1,1,1,2,1,4,4,4,1,4,3,5,2,4,5,2,2,1,1,1,1,1,6,1,4,4,4,3,2,1,1,5,5,2,2,4,1,1,1,2,1,2,1,1,5,1,2,4,4,4,4,2,5,1,2,3,4,2,3,4,2,5,5,5,4
411.0,2,47.0,5,5,5,4,2,1,2,1,2,2,5,5,2,2,2,1,2,3,5,5,3,2,2,1,1,1,1,6,2,5,5,1,1,2,1,1,5,5,4,3,5,1,1,1,1,1,1,1,2,4,1,3,1,5,5,3,2,5,2,1,3,4,1,4,6,2,4,5,5,4
412.0,2,25.0,4,4,4,3,3,4,1,1,2,2,6,2,6,5,5,2,2,4,5,5,5,6,3,5,3,4,4,5,6,6,5,5,6,4,4,4,4,3,5,3,4,4,2,3,3,2,5,2,5,4,5,2,5,4,4,3,1,4,2,2,5,4,3,5,1,2,2,4,4,5
413.0,1,36.0,3,3,4,3,4,1,4,2,1,1,4,4,4,1,2,1,5,1,3,5,2,2,2,1,1,1,1,6,2,1,5,2,1,4,2,4,2,4,1,1,5,1,1,1,2,2,2,1,4,4,2,4,1,3,4,4,2,5,3,1,4,4,1,4,6,2,5,5,5,4
414.0,2,44.0,4,2,3,5,3,2,2,2,1,2,5,4,3,3,5,4,5,4,2,3,2,4,2,5,4,4,4,5,5,3,2,4,5,4,6,2,3,3,3,3,4,3,1,2,3,4,5,2,3,2,4,5,3,3,4,4,2,4,4,3,3,2,3,4,2,4,5,5,4,4
415.0,2,55.0,4,4,4,4,1,1,1,1,3,1,1,1,1,1,1,2,4,2,6,4,1,1,1,1,1,1,1,3,1,1,5,1,1,4,1,1,2,4,1,1,5,4,1,1,3,5,3,1,1,4,1,4,1,5,5,5,1,5,2,1,1,4,1,1,6,3,6,5,5,5
416.0,2,42.0,5,2,5,4,4,0,1,1,3,2,4,3,3,3,2,2,2,2,2,3,2,2,1,2,1,1,1,5,2,4,4,2,2,4,1,1,2,5,4,1,5,2,1,1,3,3,2,1,1,5,2,5,3,2,5,5,5,5,4,1,3,4,2,2,5,4,5,5,5,1
417.0,2,48.0,5,3,5,4,4,1,1,1,3,5,4,2,2,2,1,2,5,2,5,5,1,1,2,1,2,2,1,5,2,2,5,2,2,2,1,2,5,6,2,2,5,2,2,1,2,4,1,1,1,5,1,5,1,4,4,5,1,5,4,1,3,5,1,4,5,2,6,4,5,5
418.0,2,56.0,5,2,5,5,3,4,2,1,1,4,4,4,2,1,1,1,5,4,4,3,1,1,1,1,1,1,1,5,1,5,5,2,1,2,1,3,4,5,2,2,4,4,1,1,2,4,1,3,3,4,1,4,3,4,4,4,4,4,3,2,2,4,3,3,6,4,6,5,3,2
419.0,2,32.0,5,2,5,2,2,1,4,2,4,2,5,2,2,4,1,1,1,1,5,5,2,2,4,2,2,1,4,6,1,6,5,2,1,3,2,2,5,5,2,1,5,1,1,1,1,5,2,1,1,5,1,5,2,4,4,5,2,4,2,1,1,5,1,3,6,2,5,5,5,4
420.0,1,48.0,4,1,4,1,4,1,2,1,2,3,5,3,4,4,6,2,4,2,1,3,1,1,4,5,6,5,4,3,4,4,2,5,4,4,4,1,1,5,3,5,1,3,4,2,1,4,1,4,1,4,2,5,1,1,1,5,2,5,4,2,4,4,2,4,3,4,6,2,2,4
421.0,2,46.0,4,2,4,5,5,2,1,1,1,3,6,5,5,5,4,5,4,4,5,5,2,3,5,3,3,3,4,5,2,2,3,4,4,2,2,3,5,3,4,4,4,2,2,2,2,3,5,2,4,3,5,4,2,4,4,4,1,5,4,2,4,3,3,5,3,2,5,4,4,5
422.0,2,,6,4,5,4,3,1,1,1,1,1,4,4,1,1,1,1,4,4,4,5,1,4,1,1,1,1,1,6,5,4,5,1,1,6,4,1,6,5,4,1,4,1,1,5,1,5,1,1,1,5,1,5,1,5,5,5,4,5,4,1,4,5,4,1,6,2,6,5,5,2
423.0,2,65.0,4,4,5,6,4,1,2,2,2,3,3,2,4,2,0,1,5,3,4,4,1,1,1,1,1,1,1,3,3,1,4,1,1,1,1,1,4,4,2,2,4,4,2,3,4,2,2,2,3,4,2,4,2,4,5,5,4,5,4,3,3,4,3,2,6,3,6,4,4,2
424.0,2,46.0,6,2,5,5,5,4,1,1,1,1,4,2,1,1,1,4,5,2,1,1,1,4,2,1,1,1,1,6,4,1,3,5,2,2,2,2,1,3,2,4,5,4,1,2,4,4,4,1,3,4,3,5,4,3,4,5,3,5,4,1,1,4,1,4,5,6,6,5,5,3
425.0,2,27.0,5,3,4,4,2,1,2,3,3,3,5,3,2,4,3,4,5,2,3,4,3,4,3,2,3,4,2,3,2,1,4,2,4,4,1,4,4,5,4,1,3,2,2,2,2,3,2,2,1,5,1,5,1,4,4,5,2,5,4,2,2,5,3,3,3,3,4,4,4,4
426.0,2,43.0,5,5,6,4,1,1,2,1,4,3,6,4,4,5,6,2,6,3,2,4,2,2,0,1,3,2,1,5,1,2,5,4,4,3,2,1,5,5,3,3,3,4,3,2,3,4,4,3,4,5,4,5,5,4,4,4,4,5,3,3,5,5,3,4,3,3,5,3,3,2
427.0,1,45.0,6,4,5,6,6,1,2,2,2,2,2,2,2,2,2,3,4,3,4,5,2,2,2,1,4,2,2,3,3,1,4,2,2,2,1,1,3,5,3,2,4,2,2,2,2,5,2,1,3,4,2,5,2,4,4,5,4,4,4,2,2,4,2,1,5,2,5,4,5,2
428.0,1,40.0,4,3,5,6,3,1,0,2,3,2,5,4,4,4,2,2,4,4,5,5,4,4,1,4,3,1,3,5,3,4,4,4,4,2,2,4,4,5,5,3,4,1,1,1,2,3,4,2,4,5,3,3,4,3,4,4,1,5,2,1,4,4,2,4,3,2,3,5,4,5
429.0,2,23.0,4,3,2,5,5,2,4,5,4,3,4,4,5,5,5,5,3,3,3,3,3,5,2,5,4,3,5,5,3,2,3,5,4,3,3,2,3,3,2,3,2,4,2,4,4,4,4,2,5,2,4,5,2,2,4,5,2,4,4,2,4,2,2,4,3,4,4,4,4,4
430.0,1,70.0,5,5,6,5,4,1,2,1,4,2,4,2,4,3,1,1,2,1,1,5,1,3,1,4,2,3,1,2,1,5,5,1,2,6,3,1,4,5,4,2,5,2,1,1,4,4,4,4,4,5,4,4,1,4,5,4,4,5,2,2,4,5,4,4,5,2,6,5,2,2
431.0,2,43.0,4,4,5,4,2,1,2,1,4,2,5,5,3,1,2,1,6,2,5,5,2,4,1,4,2,1,4,5,4,2,5,2,1,5,2,1,5,6,2,1,5,2,1,1,1,2,4,1,4,5,4,5,2,4,5,5,4,5,4,4,3,4,1,4,6,2,5,5,5,2
432.0,1,32.0,4,1,5,5,4,2,4,2,4,4,3,2,2,1,5,6,4,2,2,2,2,5,2,1,2,2,4,2,1,2,5,3,1,6,4,2,1,4,4,3,1,4,4,5,4,5,2,4,4,3,1,4,2,1,2,5,5,4,4,5,5,4,5,1,6,5,5,2,2,1
433.0,2,29.0,1,1,1,6,3,2,1,1,2,2,4,4,3,5,6,5,6,5,1,2,1,6,4,5,5,5,6,6,6,3,1,6,6,5,6,1,2,1,4,4,2,3,4,3,5,4,3,4,4,2,3,5,5,1,3,5,2,5,2,4,5,2,4,3,1,5,6,2,2,4
434.0,2,48.0,6,5,5,2,5,1,4,2,3,1,5,2,2,5,1,1,6,1,3,6,1,1,4,1,3,4,6,6,1,6,4,4,1,1,1,6,4,5,5,1,5,1,4,4,1,5,3,4,5,5,1,5,1,2,3,5,3,5,5,1,5,4,1,2,6,1,6,2,2,3
435.0,2,59.0,5,2,5,4,5,1,4,1,2,2,4,4,1,3,1,1,5,4,5,4,2,3,1,6,1,1,1,2,1,1,6,1,2,4,1,4,2,4,1,4,4,3,1,2,1,4,1,1,1,5,1,5,1,4,4,5,4,5,5,1,1,5,1,3,5,3,5,5,5,2
436.0,1,45.0,6,3,4,5,3,1,2,2,5,4,4,4,2,1,2,4,5,2,5,3,2,1,4,1,1,1,3,5,1,1,5,4,1,2,1,4,2,4,2,2,4,2,1,2,1,5,4,1,1,5,2,5,1,3,5,5,1,5,2,1,2,4,1,5,6,4,5,5,5,5
437.0,2,30.0,5,5,5,4,3,1,2,1,2,1,2,5,3,1,2,2,5,3,6,5,2,3,2,3,2,1,3,6,4,4,5,3,3,4,2,2,5,5,2,2,5,2,1,1,2,5,2,1,1,5,2,5,4,4,4,5,4,4,2,2,4,4,2,2,4,2,5,5,5,2
438.0,1,30.0,6,4,6,2,3,1,1,1,3,1,5,2,1,1,1,1,1,1,5,6,4,1,1,1,1,1,1,5,1,1,5,1,1,2,3,2,5,6,2,1,5,1,1,1,1,1,1,1,1,5,1,3,2,5,5,4,5,5,2,1,1,5,1,4,6,1,3,5,5,1
439.0,1,42.0,5,5,4,4,3,1,3,1,2,5,2,2,2,3,1,2,5,2,5,4,2,4,2,2,2,2,2,4,1,5,5,1,1,2,2,4,4,4,4,3,4,3,1,2,2,4,3,2,3,4,2,4,2,4,4,4,5,5,3,4,3,4,2,1,6,3,5,5,4,1
440.0,2,45.0,5,4,5,5,2,1,1,1,4,2,5,5,4,1,1,2,5,2,5,4,2,2,2,1,1,1,1,6,2,2,5,2,2,3,1,1,4,5,4,3,5,2,2,1,2,5,3,1,2,5,1,5,3,4,5,5,4,5,2,1,1,4,1,3,5,3,5,4,5,2
441.0,1,58.0,4,2,2,6,6,2,2,2,2,1,2,2,1,6,1,5,6,2,2,2,1,2,4,1,5,3,2,1,2,1,3,2,2,5,5,5,5,4,2,5,2,2,4,5,2,5,2,5,4,2,1,5,2,2,3,5,5,5,1,4,2,2,4,2,5,5,6,2,1,1
442.0,1,60.0,5,4,4,4,1,1,3,3,3,3,4,3,4,2,2,1,1,4,3,3,3,2,2,1,1,2,1,4,2,2,4,2,2,2,1,1,4,4,2,2,4,3,1,3,1,1,3,1,1,4,1,1,2,4,4,2,1,4,2,1,3,4,1,3,5,4,4,5,5,5
443.0,2,49.0,6,5,3,5,2,1,4,2,4,2,4,2,1,2,4,1,4,3,6,6,1,4,1,2,2,2,1,5,3,2,4,2,4,2,1,2,3,5,4,2,5,2,1,1,1,4,5,1,4,5,3,5,2,5,5,5,2,4,4,1,4,4,2,5,3,1,6,5,5,4
444.0,2,54.0,5,2,3,5,3,2,3,3,3,3,4,3,4,3,4,3,5,5,2,3,3,3,5,4,5,5,4,6,5,4,4,4,4,4,4,2,4,4,4,3,2,2,2,2,4,5,4,3,2,4,2,4,3,4,4,5,2,4,2,4,4,3,4,4,3,4,4,4,3,4
445.0,2,26.0,5,5,5,5,3,4,1,1,2,2,6,5,5,4,4,5,5,2,2,2,4,5,2,4,4,4,3,5,4,3,5,4,4,5,4,3,3,5,3,2,3,4,3,1,5,2,5,3,4,5,4,5,4,2,4,3,1,4,3,5,3,3,5,5,3,5,3,3,3,5
446.0,2,42.0,6,5,5,5,3,1,1,1,3,2,5,5,4,2,1,3,4,2,5,4,3,3,1,1,1,1,1,6,1,4,5,4,2,1,1,1,5,5,5,2,5,2,1,1,1,2,2,1,2,5,2,2,3,4,4,4,3,5,4,1,2,5,2,4,5,3,4,5,5,3
447.0,2,66.0,5,4,6,3,2,1,1,2,4,2,4,2,1,1,3,1,2,0,6,6,2,3,1,2,1,1,1,5,2,1,5,2,2,6,2,2,3,5,3,1,0,1,1,1,1,4,2,1,2,5,1,4,3,4,4,4,4,4,4,1,3,4,1,2,5,1,5,5,5,2
448.0,1,69.0,5,4,5,6,2,1,2,3,2,5,2,1,1,1,1,1,2,1,6,6,2,1,1,1,0,1,1,6,2,2,5,2,1,1,1,2,5,6,2,1,5,1,1,1,1,1,2,1,1,5,1,5,1,5,5,5,2,5,4,1,1,4,1,1,6,1,5,5,5,4
449.0,2,57.0,5,4,3,5,2,1,2,1,2,3,4,4,2,3,1,2,3,4,5,4,3,3,3,2,3,3,2,5,2,2,5,2,2,5,3,3,5,5,3,2,3,3,1,2,3,5,3,2,3,5,1,5,1,4,4,5,4,5,4,2,2,3,2,3,5,3,4,5,4,2
450.0,2,65.0,6,3,5,4,3,1,3,1,2,4,4,5,1,1,2,3,4,1,4,5,1,2,2,1,2,1,3,6,1,2,5,1,1,2,2,1,5,5,3,2,4,1,1,1,2,2,2,1,1,4,1,4,3,4,5,4,2,5,3,1,2,4,2,2,6,2,6,5,5,4
451.0,2,30.0,6,3,5,5,2,1,1,1,1,1,6,6,2,1,1,3,5,3,4,4,1,2,1,1,1,1,1,5,1,1,5,1,2,2,2,2,5,6,2,1,4,2,1,1,2,4,4,2,1,5,2,5,4,5,5,4,2,5,4,1,4,4,2,2,5,3,6,5,4,4
452.0,2,39.0,6,5,5,3,4,1,1,1,2,4,5,4,2,4,1,2,1,3,5,5,2,2,1,1,1,1,1,5,1,1,5,2,2,1,1,5,5,5,2,1,5,1,1,1,1,4,3,2,1,4,1,4,1,5,4,4,1,5,3,1,3,4,1,4,5,2,5,5,4,5
453.0,2,52.0,5,5,5,2,2,1,2,2,2,2,5,3,2,1,1,1,1,2,4,4,2,2,1,1,1,1,1,3,1,2,5,2,1,2,1,1,5,5,3,1,3,1,1,1,1,1,2,1,1,5,1,2,2,4,5,4,3,5,4,1,1,4,1,3,6,3,5,5,5,3
454.0,1,25.0,5,3,6,3,3,1,3,3,4,1,4,3,4,4,2,1,1,1,1,5,4,1,1,2,2,1,1,6,4,3,5,3,3,2,2,4,3,5,1,1,5,1,1,2,1,2,2,1,1,4,2,4,2,5,5,5,3,5,3,1,3,5,1,4,4,2,3,5,5,3
455.0,2,59.0,4,3,6,3,4,1,1,1,1,1,4,2,1,2,4,4,4,3,4,3,2,2,2,4,3,2,2,4,4,2,5,2,2,2,1,2,5,5,3,2,5,2,2,1,2,3,2,1,2,5,1,4,5,4,4,4,4,4,3,2,3,4,4,3,5,4,5,4,5,2
456.0,2,41.0,6,5,6,6,5,2,5,2,2,5,4,2,2,2,1,1,5,1,6,5,2,1,2,1,1,1,1,6,2,2,6,1,1,2,1,2,6,6,2,2,5,2,1,2,2,4,2,1,1,4,1,4,1,5,5,5,5,5,5,2,1,5,1,1,6,2,5,5,5,1
457.0,2,50.0,5,2,1,6,5,4,1,1,1,1,5,3,4,1,4,6,6,4,2,2,1,1,6,4,5,5,6,5,5,1,1,6,6,4,2,3,1,2,1,1,5,4,5,2,2,5,4,1,4,4,5,5,1,1,4,5,1,4,5,1,3,2,2,4,1,5,6,1,5,5
458.0,1,48.0,4,5,4,5,5,2,4,2,2,2,5,5,4,2,4,2,6,4,5,5,2,2,2,2,2,2,1,5,1,1,5,2,2,2,2,2,5,5,4,1,5,2,1,5,1,2,4,1,1,5,2,5,1,5,5,5,4,5,5,1,4,5,1,5,5,2,5,5,5,2
