<?xml version="1.0" encoding="UTF-8" standalone="no"?>
<!DOCTYPE svg PUBLIC "-//W3C//DTD SVG 1.1//EN"
 "http://www.w3.org/Graphics/SVG/1.1/DTD/svg11.dtd">
<!-- Generated by graphviz version 2.50.0 (20211204.2007)
 -->
<!-- Pages: 1 -->
<svg width="288pt" height="324pt"
 viewBox="0.00 0.00 288.00 324.00" xmlns="http://www.w3.org/2000/svg" xmlns:xlink="http://www.w3.org/1999/xlink">
<g id="graph0" class="graph" transform="scale(1 1) rotate(0) translate(36 288)">
<polygon fill="white" stroke="transparent" points="-36,36 -36,-288 252,-288 252,36 -36,36"/>
<!-- x1 -->
<g id="node1" class="node">
<title>x1</title>
<ellipse fill="none" stroke="black" stroke-width="2" cx="36" cy="-234" rx="36" ry="18"/>
<text text-anchor="middle" x="36" y="-230.3" font-family="arial" font-size="14.00">x1</text>
</g>
<!-- y -->
<g id="node4" class="node">
<title>y</title>
<ellipse fill="none" stroke="black" stroke-width="2" cx="180" cy="-126" rx="36" ry="18"/>
<text text-anchor="middle" x="180" y="-122.3" font-family="arial" font-size="14.00">y</text>
</g>
<!-- x1&#45;&gt;y -->
<g id="edge1" class="edge">
<title>x1&#45;&gt;y</title>
<path fill="none" stroke="black" stroke-width="2" d="M56.74,-218.98C81.33,-200.28 123.47,-168.23 151.29,-147.08"/>
<polygon fill="black" stroke="black" stroke-width="2" points="153.58,-149.73 159.42,-140.89 149.34,-144.16 153.58,-149.73"/>
</g>
<!-- x2 -->
<g id="node2" class="node">
<title>x2</title>
<ellipse fill="none" stroke="black" stroke-width="2" cx="36" cy="-126" rx="36" ry="18"/>
<text text-anchor="middle" x="36" y="-122.3" font-family="arial" font-size="14.00">x2</text>
</g>
<!-- x2&#45;&gt;y -->
<g id="edge2" class="edge">
<title>x2&#45;&gt;y</title>
<path fill="none" stroke="black" stroke-width="2" d="M72.1,-126C90.7,-126 113.77,-126 133.71,-126"/>
<polygon fill="black" stroke="black" stroke-width="2" points="133.81,-129.5 143.81,-126 133.81,-122.5 133.81,-129.5"/>
</g>
<!-- x3 -->
<g id="node3" class="node">
<title>x3</title>
<ellipse fill="none" stroke="black" stroke-width="2" cx="36" cy="-18" rx="36" ry="18"/>
<text text-anchor="middle" x="36" y="-14.3" font-family="arial" font-size="14.00">x3</text>
</g>
<!-- x3&#45;&gt;y -->
<g id="edge3" class="edge">
<title>x3&#45;&gt;y</title>
<path fill="none" stroke="black" stroke-width="2" d="M56.74,-33.02C81.33,-51.72 123.47,-83.77 151.29,-104.92"/>
<polygon fill="black" stroke="black" stroke-width="2" points="149.34,-107.84 159.42,-111.11 153.58,-102.27 149.34,-107.84"/>
</g>
</g>
</svg>
