<?xml version="1.0" encoding="UTF-8" standalone="no"?>
<!DOCTYPE svg PUBLIC "-//W3C//DTD SVG 1.1//EN"
 "http://www.w3.org/Graphics/SVG/1.1/DTD/svg11.dtd">
<!-- Generated by graphviz version 2.50.0 (20211204.2007)
 -->
<!-- Pages: 1 -->
<svg width="293pt" height="290pt"
 viewBox="0.00 0.00 293.50 289.59" xmlns="http://www.w3.org/2000/svg" xmlns:xlink="http://www.w3.org/1999/xlink">
<g id="graph0" class="graph" transform="scale(1 1) rotate(0) translate(36 253.59)">
<polygon fill="white" stroke="transparent" points="-36,36 -36,-253.59 257.5,-253.59 257.5,36 -36,36"/>
<!-- leuk -->
<g id="node1" class="node">
<title>leuk</title>
<ellipse fill="grey" stroke="black" stroke-width="0" cx="55.04" cy="-49.45" rx="49.4" ry="49.4"/>
<text text-anchor="middle" x="55.04" y="-53.25" font-family="arial" font-size="14.00">Leuk</text>
<text text-anchor="middle" x="55.04" y="-38.25" font-family="arial" font-size="14.00">onderwerp</text>
</g>
<!-- nuttig -->
<g id="node2" class="node">
<title>nuttig</title>
<ellipse fill="grey" stroke="black" stroke-width="0" cx="49.45" cy="-161.55" rx="49.4" ry="49.4"/>
<text text-anchor="middle" x="49.45" y="-165.35" font-family="arial" font-size="14.00">Nuttig</text>
<text text-anchor="middle" x="49.45" y="-150.35" font-family="arial" font-size="14.00">onderwerp</text>
</g>
<!-- leuk&#45;&#45;nuttig -->
<g id="edge1" class="edge">
<title>leuk&#45;&#45;nuttig</title>
<path fill="none" stroke="black" stroke-width="2" d="M52.57,-98.94C52.36,-103.28 52.14,-107.68 51.92,-112.02"/>
</g>
<!-- interessant -->
<g id="node3" class="node">
<title>interessant</title>
<ellipse fill="grey" stroke="black" stroke-width="0" cx="167.34" cy="-55.18" rx="54.31" ry="54.31"/>
<text text-anchor="middle" x="167.34" y="-58.98" font-family="arial" font-size="14.00">Interessant&#45;</text>
<text text-anchor="middle" x="167.34" y="-43.98" font-family="arial" font-size="14.00">heid</text>
</g>
<!-- leuk&#45;&#45;interessant -->
<g id="edge2" class="edge">
<title>leuk&#45;&#45;interessant</title>
<path fill="none" stroke="black" stroke-width="2" d="M104.63,-51.98C107.45,-52.12 110.29,-52.27 113.13,-52.42"/>
</g>
<!-- fascinerend -->
<g id="node4" class="node">
<title>fascinerend</title>
<ellipse fill="grey" stroke="black" stroke-width="0" cx="161.53" cy="-167.47" rx="50.25" ry="50.25"/>
<text text-anchor="middle" x="161.53" y="-163.77" font-family="arial" font-size="14.00">Fascinerend</text>
</g>
<!-- leuk&#45;&#45;fascinerend -->
<g id="edge3" class="edge">
<title>leuk&#45;&#45;fascinerend</title>
<path fill="none" stroke="black" stroke-width="2" d="M88.44,-86.47C101.01,-100.39 115.29,-116.22 127.88,-130.18"/>
</g>
<!-- nuttig&#45;&#45;interessant -->
<g id="edge4" class="edge">
<title>nuttig&#45;&#45;interessant</title>
<path fill="none" stroke="black" stroke-width="2" d="M86.43,-128.19C99.26,-116.61 113.71,-103.57 126.81,-91.75"/>
</g>
<!-- nuttig&#45;&#45;fascinerend -->
<g id="edge5" class="edge">
<title>nuttig&#45;&#45;fascinerend</title>
<path fill="none" stroke="black" stroke-width="2" d="M98.93,-164.16C103.04,-164.38 107.19,-164.6 111.3,-164.82"/>
</g>
<!-- fascinerend&#45;&#45;interessant -->
<g id="edge6" class="edge">
<title>fascinerend&#45;&#45;interessant</title>
<path fill="none" stroke="black" stroke-width="2" d="M164.13,-117.24C164.26,-114.67 164.39,-112.08 164.53,-109.5"/>
</g>
</g>
</svg>
